{
	"contentFiles": [
		{
			"fileName": "appconfig.json",
			"tabletFullPath": null,
			"publicURL": "https://gentouch.generali.co.th/omni-channel-admin-services/downloadContent?fileName=appconfig.json&ts=1444122486333",
			"lastUpdated": null,
			"version": "13",
			"type": "Config Files",
			"isMandatory": "Yes",
			"language": "English",
			"fileSize": 14481,
			"description": ""
		},
		{
			"fileName": "LESampleValidation.js",
			"tabletFullPath": null,
			"publicURL": "https://gentouch.generali.co.th/omni-channel-admin-services/downloadContent?fileName=LESampleValidation.js&ts=1444122485212",
			"lastUpdated": null,
			"version": "5",
			"type": "Validation Rule",
			"isMandatory": "Yes",
			"language": "English",
			"fileSize": 19741,
			"description": ""
		},
		{
			"fileName": "code-lookup.db",
			"tabletFullPath": null,
			"publicURL": "https://gentouch.generali.co.th/omni-channel-admin-services/downloadContent?fileName=code-lookup.db&ts=1444122486457",
			"lastUpdated": null,
			"version": "5",
			"type": "Offline DB",
			"isMandatory": "Yes",
			"language": "English",
			"fileSize": 3639296,
			"description": ""
		},
		{
			"fileName": "core-products.db",
			"tabletFullPath": null,
			"publicURL": "https://gentouch.generali.co.th/omni-channel-admin-services/downloadContent?fileName=core-products.db&ts=1444122486457",
			"lastUpdated": null,
			"version": "6",
			"type": "Offline DB",
			"isMandatory": "Yes",
			"language": "English",
			"fileSize": 44032,
			"description": ""
		},
		{
			"fileName": "CommonFunctions.js",
			"tabletFullPath": null,
			"publicURL": "https://gentouch.generali.co.th/omni-channel-admin-services/downloadContent?fileName=CommonFunctions.js&ts=1444122485946",
			"lastUpdated": null,
			"version": "2",
			"type": "Validation Rule",
			"isMandatory": "Yes",
			"language": "English",
			"fileSize": 84272,
			"description": ""
		},
		{
			"fileName": "eApp_Doc_Requirement_Master.js",
			"tabletFullPath": null,
			"publicURL": "https://gentouch.generali.co.th/omni-channel-admin-services/downloadContent?fileName=eApp_Doc_Requirement_Master.js&ts=1444122485946",
			"lastUpdated": null,
			"version": "2",
			"type": "Validation Rule",
			"isMandatory": "Yes",
			"language": "English",
			"fileSize": 45801,
			"description": ""
		},
		{
			"fileName": "eAppConfig.json",
			"tabletFullPath": null,
			"publicURL": "https://gentouch.generali.co.th/omni-channel-admin-services/downloadContent?fileName=eAppConfig.json",
			"lastUpdated": null,
			"version": "3",
			"type": "Config Files",
			"isMandatory": "Yes",
			"language": "English",
			"fileSize": 73706,
			"description": ""
		},
		{
			"fileName": "eAppProductJson.json",
			"tabletFullPath": null,
			"publicURL": "https://gentouch.generali.co.th/omni-channel-admin-services/downloadContent?fileName=eAppProductJson.json",
			"lastUpdated": null,
			"version": "4",
			"type": "Config Files",
			"isMandatory": "Yes",
			"language": "English",
			"fileSize": 21991,
			"description": ""
		},
		{
			"fileName": "eAppProposerQuestionnaireJson.json",
			"tabletFullPath": null,
			"publicURL": "https://gentouch.generali.co.th/omni-channel-admin-services/downloadContent?fileName=eAppProposerQuestionnaireJson.json",
			"lastUpdated": null,
			"version": "3",
			"type": "Config Files",
			"isMandatory": "Yes",
			"language": "English",
			"fileSize": 9033,
			"description": ""
		},
		{
			"fileName": "eAppQuestionnaireJson.json",
			"tabletFullPath": null,
			"publicURL": "https://gentouch.generali.co.th/omni-channel-admin-services/downloadContent?fileName=eAppQuestionnaireJson.json",
			"lastUpdated": null,
			"version": "3",
			"type": "Config Files",
			"isMandatory": "Yes",
			"language": "English",
			"fileSize": 91118,
			"description": ""
		},
		{
			"fileName": "eAppSummaryQuestionnaireJson.json",
			"tabletFullPath": null,
			"publicURL": "https://gentouch.generali.co.th/omni-channel-admin-services/downloadContent?fileName=eAppSummaryQuestionnaireJson.json",
			"lastUpdated": null,
			"version": "3",
			"type": "Config Files",
			"isMandatory": "Yes",
			"language": "English",
			"fileSize": 360160,
			"description": ""
		},
		{
			"fileName": "eAppWithTabs.json",
			"tabletFullPath": null,
			"publicURL": "https://gentouch.generali.co.th/omni-channel-admin-services/downloadContent?fileName=eAppWithTabs.json",
			"lastUpdated": null,
			"version": "2",
			"type": "Config Files",
			"isMandatory": "Yes",
			"language": "English",
			"fileSize": 265314,
			"description": ""
		},
		{
			"fileName": "IllustrationConfig.json",
			"tabletFullPath": null,
			"publicURL": "https://gentouch.generali.co.th/omni-channel-admin-services/downloadContent?fileName=IllustrationConfig.json&ts=1444122482252",
			"lastUpdated": null,
			"version": "7",
			"type": "Config Files",
			"isMandatory": "Yes",
			"language": "English",
			"fileSize": 1945,
			"description": ""
		},
		{
			"fileName": "IllustratorPersonalDetailsWithTabsJson.json",
			"tabletFullPath": null,
			"publicURL": "https://gentouch.generali.co.th/omni-channel-admin-services/downloadContent?fileName=IllustratorPersonalDetailsWithTabsJson.json&ts=1444122482321",
			"lastUpdated": null,
			"version": "4",
			"type": "Config Files",
			"isMandatory": "Yes",
			"language": "English",
			"fileSize": 62281,
			"description": ""
		},
		{
			"fileName": "IllustratorProductJson.json",
			"tabletFullPath": null,
			"publicURL": "https://gentouch.generali.co.th/omni-channel-admin-services/downloadContent?fileName=IllustratorProductJson.json&ts=1444122482385",
			"lastUpdated": null,
			"version": "5",
			"type": "Config Files",
			"isMandatory": "Yes",
			"language": "English",
			"fileSize": 13893,
			"description": ""
		},
		{
			"fileName": "leadListingWithTabs.json",
			"tabletFullPath": null,
			"publicURL": "https://gentouch.generali.co.th/omni-channel-admin-services/downloadContent?fileName=leadListingWithTabs.json&ts=1444122484022",
			"lastUpdated": null,
			"version": "2",
			"type": "Config Files",
			"isMandatory": "Yes",
			"language": "English",
			"fileSize": 80329,
			"description": ""
		},
		{
			"fileName": "LmsConfig.json",
			"tabletFullPath": null,
			"publicURL": "https://gentouch.generali.co.th/omni-channel-admin-services/downloadContent?fileName=LmsConfig.json&ts=1444122484188",
			"lastUpdated": null,
			"version": "2",
			"type": "Config Files",
			"isMandatory": "Yes",
			"language": "English",
			"fileSize": 65021,
			"description": ""
		},
		{
			"fileName": "resources.json",
			"tabletFullPath": null,
			"publicURL": "https://gentouch.generali.co.th/omni-channel-admin-services/downloadContent?fileName=resources.json&ts=1444122484375",
			"lastUpdated": null,
			"version": "9",
			"type": "Config Files",
			"isMandatory": "Yes",
			"language": "English",
			"fileSize": 1151958,
			"description": ""
		},
		{
			"fileName": "Riders.json",
			"tabletFullPath": null,
			"publicURL": "https://gentouch.generali.co.th/omni-channel-admin-services/downloadContent?fileName=Riders.json&ts=1444122485070",
			"lastUpdated": null,
			"version": "6",
			"type": "Config Files",
			"isMandatory": "Yes",
			"language": "English",
			"fileSize": 11937,
			"description": ""
		},
		{
			"fileName": "PersonalDetails.json",
			"tabletFullPath": null,
			"publicURL": "https://gentouch.generali.co.th/omni-channel-admin-services/downloadContent?fileName=PersonalDetails.json",
			"lastUpdated": null,
			"version": "5",
			"type": "Config Files",
			"isMandatory": "Yes",
			"language": "English",
			"fileSize": 3013,
			"description": ""
		},
		{
			"fileName": "eAppProductJsonECI.json",
			"tabletFullPath": null,
			"publicURL": "https://gentouch.generali.co.th/omni-channel-admin-services/downloadContent?fileName=eAppProductJsonECI.json",
			"lastUpdated": null,
			"version": "2",
			"type": "Config Files",
			"isMandatory": "Yes",
			"language": "English",
			"fileSize": 10537,
			"description": ""
		},
		{
			"fileName": "BeneficiarySubTab.json",
			"tabletFullPath": null,
			"publicURL": "https://gentouch.generali.co.th/omni-channel-admin-services/downloadContent?fileName=BeneficiarySubTab.json",
			"lastUpdated": null,
			"version": "2",
			"type": "Config Files",
			"isMandatory": "Yes",
			"language": "English",
			"fileSize": 13446,
			"description": ""
		},
		{
			"fileName": "CHS8080_IllustrationOutput.json",
			"tabletFullPath": null,
			"publicURL": "https://gentouch.generali.co.th/omni-channel-admin-services/downloadContent?fileName=CHS8080_IllustrationOutput.json",
			"lastUpdated": null,
			"version": "4",
			"type": "Config Files",
			"isMandatory": "Yes",
			"language": "English",
			"fileSize": 26043,
			"description": ""
		},
		{
			"fileName": "Declaration.json",
			"tabletFullPath": null,
			"publicURL": "https://gentouch.generali.co.th/omni-channel-admin-services/downloadContent?fileName=Declaration.json",
			"lastUpdated": null,
			"version": "2",
			"type": "Config Files",
			"isMandatory": "Yes",
			"language": "English",
			"fileSize": 61858,
			"description": ""
		},
		{
			"fileName": "DeclarationAndAuthorizationTab.json",
			"tabletFullPath": null,
			"publicURL": "https://gentouch.generali.co.th/omni-channel-admin-services/downloadContent?fileName=DeclarationAndAuthorizationTab.json",
			"lastUpdated": null,
			"version": "3",
			"type": "Config Files",
			"isMandatory": "Yes",
			"language": "English",
			"fileSize": 11748,
			"description": ""
		},
		{
			"fileName": "DocumentTypeConfigurationFiles.json",
			"tabletFullPath": null,
			"publicURL": "https://gentouch.generali.co.th/omni-channel-admin-services/downloadContent?fileName=DocumentTypeConfigurationFiles.json",
			"lastUpdated": null,
			"version": "2",
			"type": "Config Files",
			"isMandatory": "Yes",
			"language": "English",
			"fileSize": 4246,
			"description": ""
		},
		{
			"fileName": "DocumentUpload.json",
			"tabletFullPath": null,
			"publicURL": "https://gentouch.generali.co.th/omni-channel-admin-services/downloadContent?fileName=DocumentUpload.json",
			"lastUpdated": null,
			"version": "2",
			"type": "Config Files",
			"isMandatory": "Yes",
			"language": "English",
			"fileSize": 8210,
			"description": ""
		},
		{
			"fileName": "eAppTabNavigation.json",
			"tabletFullPath": null,
			"publicURL": "https://gentouch.generali.co.th/omni-channel-admin-services/downloadContent?fileName=eAppTabNavigation.json",
			"lastUpdated": null,
			"version": "2",
			"type": "Config Files",
			"isMandatory": "Yes",
			"language": "English",
			"fileSize": 12034,
			"description": ""
		},
		{
			"fileName": "feedbackIssue.json",
			"tabletFullPath": null,
			"publicURL": "https://gentouch.generali.co.th/omni-channel-admin-services/downloadContent?fileName=feedbackIssue.json",
			"lastUpdated": null,
			"version": "2",
			"type": "Config Files",
			"isMandatory": "Yes",
			"language": "English",
			"fileSize": 6762,
			"description": ""
		},
		{
			"fileName": "financilaDetailsSubTab.json",
			"tabletFullPath": null,
			"publicURL": "https://gentouch.generali.co.th/omni-channel-admin-services/downloadContent?fileName=financilaDetailsSubTab.json",
			"lastUpdated": null,
			"version": "2",
			"type": "Config Files",
			"isMandatory": "Yes",
			"language": "English",
			"fileSize": 43886,
			"description": ""
		},
		{
			"fileName": "FnaAboutMeView.json",
			"tabletFullPath": null,
			"publicURL": "https://gentouch.generali.co.th/omni-channel-admin-services/downloadContent?fileName=FnaAboutMeView.json",
			"lastUpdated": null,
			"version": "3",
			"type": "Config Files",
			"isMandatory": "Yes",
			"language": "English",
			"fileSize": 16904,
			"description": ""
		},
		{
			"fileName": "FnaBenificiaryView.json",
			"tabletFullPath": null,
			"publicURL": "https://gentouch.generali.co.th/omni-channel-admin-services/downloadContent?fileName=FnaBenificiaryView.json",
			"lastUpdated": null,
			"version": "3",
			"type": "Config Files",
			"isMandatory": "Yes",
			"language": "English",
			"fileSize": 16573,
			"description": ""
		},
		{
			"fileName": "FnaConfig.json",
			"tabletFullPath": null,
			"publicURL": "https://gentouch.generali.co.th/omni-channel-admin-services/downloadContent?fileName=FnaConfig.json",
			"lastUpdated": null,
			"version": "2",
			"type": "Config Files",
			"isMandatory": "Yes",
			"language": "English",
			"fileSize": 103305,
			"description": ""
		},
		{
			"fileName": "FnaGoalViews.json",
			"tabletFullPath": null,
			"publicURL": "https://gentouch.generali.co.th/omni-channel-admin-services/downloadContent?fileName=FnaGoalViews.json",
			"lastUpdated": null,
			"version": "2",
			"type": "Config Files",
			"isMandatory": "Yes",
			"language": "English",
			"fileSize": 90417,
			"description": ""
		},
		{
			"fileName": "FnaListViews.json",
			"tabletFullPath": null,
			"publicURL": "https://gentouch.generali.co.th/omni-channel-admin-services/downloadContent?fileName=FnaListViews.json",
			"lastUpdated": null,
			"version": "2",
			"type": "Config Files",
			"isMandatory": "Yes",
			"language": "English",
			"fileSize": 4192,
			"description": ""
		},
		{
			"fileName": "FnaReport.json",
			"tabletFullPath": null,
			"publicURL": "https://gentouch.generali.co.th/omni-channel-admin-services/downloadContent?fileName=FnaReport.json",
			"lastUpdated": null,
			"version": "3",
			"type": "Config Files",
			"isMandatory": "Yes",
			"language": "English",
			"fileSize": 52630,
			"description": ""
		},
		{
			"fileName": "FnaSummaryGraph.json",
			"tabletFullPath": null,
			"publicURL": "https://gentouch.generali.co.th/omni-channel-admin-services/downloadContent?fileName=FnaSummaryGraph.json",
			"lastUpdated": null,
			"version": "3",
			"type": "Config Files",
			"isMandatory": "Yes",
			"language": "English",
			"fileSize": 2003,
			"description": ""
		},
		{
			"fileName": "GB8_IllustrationOutput.json",
			"tabletFullPath": null,
			"publicURL": "https://gentouch.generali.co.th/omni-channel-admin-services/downloadContent?fileName=GB8_IllustrationOutput.json",
			"lastUpdated": null,
			"version": "3",
			"type": "Config Files",
			"isMandatory": "Yes",
			"language": "English",
			"fileSize": 11115,
			"description": ""
		},
		{
			"fileName": "MainInsuredQuestionnaire.json",
			"tabletFullPath": null,
			"publicURL": "https://gentouch.generali.co.th/omni-channel-admin-services/downloadContent?fileName=MainInsuredQuestionnaire.json",
			"lastUpdated": null,
			"version": "2",
			"type": "Config Files",
			"isMandatory": "Yes",
			"language": "English",
			"fileSize": 263,
			"description": ""
		},
		{
			"fileName": "mainInsuredSubTab.json",
			"tabletFullPath": null,
			"publicURL": "https://gentouch.generali.co.th/omni-channel-admin-services/downloadContent?fileName=mainInsuredSubTab.json",
			"lastUpdated": null,
			"version": "3",
			"type": "Config Files",
			"isMandatory": "Yes",
			"language": "English",
			"fileSize": 35553,
			"description": ""
		},
		{
			"fileName": "Payment.json",
			"tabletFullPath": null,
			"publicURL": "https://gentouch.generali.co.th/omni-channel-admin-services/downloadContent?fileName=Payment.json",
			"lastUpdated": null,
			"version": "2",
			"type": "Config Files",
			"isMandatory": "Yes",
			"language": "English",
			"fileSize": 10932,
			"description": ""
		},
		{
			"fileName": "PolicyHolderQuestionnaire.json",
			"tabletFullPath": null,
			"publicURL": "https://gentouch.generali.co.th/omni-channel-admin-services/downloadContent?fileName=PolicyHolderQuestionnaire.json",
			"lastUpdated": null,
			"version": "2",
			"type": "Config Files",
			"isMandatory": "Yes",
			"language": "English",
			"fileSize": 266,
			"description": ""
		},
		{
			"fileName": "PolicyHolderSubTab.json",
			"tabletFullPath": null,
			"publicURL": "https://gentouch.generali.co.th/omni-channel-admin-services/downloadContent?fileName=PolicyHolderSubTab.json",
			"lastUpdated": null,
			"version": "3",
			"type": "Config Files",
			"isMandatory": "Yes",
			"language": "English",
			"fileSize": 37133,
			"description": ""
		},
		{
			"fileName": "preCompiler.json",
			"tabletFullPath": null,
			"publicURL": "https://gentouch.generali.co.th/omni-channel-admin-services/downloadContent?fileName=preCompiler.json",
			"lastUpdated": null,
			"version": "7",
			"type": "Config Files",
			"isMandatory": "Yes",
			"language": "English",
			"fileSize": 3097882,
			"description": ""
		},
		{
			"fileName": "ProductDetails.json",
			"tabletFullPath": null,
			"publicURL": "https://gentouch.generali.co.th/omni-channel-admin-services/downloadContent?fileName=ProductDetails.json",
			"lastUpdated": null,
			"version": "2",
			"type": "Config Files",
			"isMandatory": "Yes",
			"language": "English",
			"fileSize": 246,
			"description": ""
		},
		{
			"fileName": "Questionnaire.json",
			"tabletFullPath": null,
			"publicURL": "https://gentouch.generali.co.th/omni-channel-admin-services/downloadContent?fileName=Questionnaire.json",
			"lastUpdated": null,
			"version": "2",
			"type": "Config Files",
			"isMandatory": "Yes",
			"language": "English",
			"fileSize": 9798,
			"description": ""
		},
		{
			"fileName": "QuestionnaireSummarySubTab.json",
			"tabletFullPath": null,
			"publicURL": "https://gentouch.generali.co.th/omni-channel-admin-services/downloadContent?fileName=QuestionnaireSummarySubTab.json",
			"lastUpdated": null,
			"version": "2",
			"type": "Config Files",
			"isMandatory": "Yes",
			"language": "English",
			"fileSize": 264,
			"description": ""
		},
		{
			"fileName": "SPAJsummary.json",
			"tabletFullPath": null,
			"publicURL": "https://gentouch.generali.co.th/omni-channel-admin-services/downloadContent?fileName=SPAJsummary.json",
			"lastUpdated": null,
			"version": "3",
			"type": "Config Files",
			"isMandatory": "Yes",
			"language": "English",
			"fileSize": 25890,
			"description": ""
		},
		{
			"fileName": "CHS8080Products.db",
			"tabletFullPath": null,
			"publicURL": "https://gentouch.generali.co.th/omni-channel-admin-services/downloadContent?fileName=CHS8080Products.db",
			"lastUpdated": null,
			"version": "3",
			"type": "Offline DB",
			"isMandatory": "Yes",
			"language": "English",
			"fileSize": 314368,
			"description": ""
		},
		{
			"fileName": "GB8Products.db",
			"tabletFullPath": null,
			"publicURL": "https://gentouch.generali.co.th/omni-channel-admin-services/downloadContent?fileName=GB8Products.db",
			"lastUpdated": null,
			"version": "2",
			"type": "Offline DB",
			"isMandatory": "Yes",
			"language": "English",
			"fileSize": 339968,
			"description": ""
		},
		{
			"fileName": "RequirementDB.db",
			"tabletFullPath": null,
			"publicURL": "https://gentouch.generali.co.th/omni-channel-admin-services/downloadContent?fileName=RequirementDB.db",
			"lastUpdated": null,
			"version": "2",
			"type": "Offline DB",
			"isMandatory": "Yes",
			"language": "English",
			"fileSize": 601088,
			"description": ""
		},
		{
			"fileName": "GenBumnan8.png",
			"tabletFullPath": null,
			"publicURL": "https://gentouch.generali.co.th/omni-channel-admin-services/downloadContent?fileName=GenBumnan8.png",
			"lastUpdated": null,
			"version": "1",
			"type": "Image",
			"isMandatory": "Yes",
			"language": "English",
			"fileSize": 440470,
			"description": ""
		},
		{
			"fileName": "GenCompleteHealth.png",
			"tabletFullPath": null,
			"publicURL": "https://gentouch.generali.co.th/omni-channel-admin-services/downloadContent?fileName=GenCompleteHealth.png",
			"lastUpdated": null,
			"version": "2",
			"type": "Image",
			"isMandatory": "Yes",
			"language": "English",
			"fileSize": 336904,
			"description": ""
		},
		{
			"fileName": "GenProLife.jpg",
			"tabletFullPath": null,
			"publicURL": "https://gentouch.generali.co.th/omni-channel-admin-services/downloadContent?fileName=GenProLife.jpg",
			"lastUpdated": null,
			"version": "1",
			"type": "Image",
			"isMandatory": "Yes",
			"language": "English",
			"fileSize": 2955276,
			"description": ""
		},
		{
			"fileName": "GenProSave.jpg",
			"tabletFullPath": null,
			"publicURL": "https://gentouch.generali.co.th/omni-channel-admin-services/downloadContent?fileName=GenProSave.jpg",
			"lastUpdated": null,
			"version": "1",
			"type": "Image",
			"isMandatory": "Yes",
			"language": "English",
			"fileSize": 39523,
			"description": ""
		},
		{
			"fileName": "GenBumNan.pdf",
			"tabletFullPath": null,
			"publicURL": "https://gentouch.generali.co.th/omni-channel-admin-services/downloadContent?fileName=GenBumNan.pdf",
			"lastUpdated": null,
			"version": "1",
			"type": "PDF",
			"isMandatory": "Yes",
			"language": "English",
			"fileSize": 1574579,
			"description": " "
		},
		{
			"fileName": "GenCompleteHealth.pdf",
			"tabletFullPath": null,
			"publicURL": "https://gentouch.generali.co.th/omni-channel-admin-services/downloadContent?fileName=GenCompleteHealth.pdf",
			"lastUpdated": null,
			"version": "1",
			"type": "PDF",
			"isMandatory": "Yes",
			"language": "English",
			"fileSize": 669911,
			"description": " "
		},
		{
			"fileName": "GenProCash_10_Plus.pdf",
			"tabletFullPath": null,
			"publicURL": "https://gentouch.generali.co.th/omni-channel-admin-services/downloadContent?fileName=GenProCash_10_Plus.pdf ",
			"lastUpdated": null,
			"version": "1",
			"type": "PDF",
			"isMandatory": "Yes",
			"language": "English",
			"fileSize": 840221,
			"description": " "
		},
		{
			"fileName": "GenProLife.pdf",
			"tabletFullPath": null,
			"publicURL": "https://gentouch.generali.co.th/omni-channel-admin-services/downloadContent?fileName=GenProLife.pdf",
			"lastUpdated": null,
			"version": "1",
			"type": "PDF",
			"isMandatory": "Yes",
			"language": "English",
			"fileSize": 1552987,
			"description": " "
		},
		{
			"fileName": "GenSave_20_Plus.pdf",
			"tabletFullPath": null,
			"publicURL": "https://gentouch.generali.co.th/omni-channel-admin-services/downloadContent?fileName=GenSave_20_Plus.pdf",
			"lastUpdated": null,
			"version": "1",
			"type": "PDF",
			"isMandatory": "Yes",
			"language": "English",
			"fileSize": 776188,
			"description": " "
		},
		{
			"fileName": "GenBumNan_Brochure.pdf",
			"tabletFullPath": null,
			"publicURL": "https://gentouch.generali.co.th/omni-channel-admin-services/downloadContent?fileName=GenBumNan_Brochure.pdf",
			"lastUpdated": null,
			"version": "1",
			"type": "PDF",
			"isMandatory": "Yes",
			"language": "English",
			"fileSize": 1574579,
			"description": " "
		},
		{
			"fileName": "GenCompleteHealth80_Brochure.pdf",
			"tabletFullPath": null,
			"publicURL": "https://gentouch.generali.co.th/omni-channel-admin-services/downloadContent?fileName=GenCompleteHealth80_Brochure.pdf",
			"lastUpdated": null,
			"version": "2",
			"type": "PDF",
			"isMandatory": "Yes",
			"language": "English",
			"fileSize": 669911,
			"description": " "
		},
		{
			"fileName": "DisabilityGoalCalculator.js",
			"tabletFullPath": null,
			"publicURL": "https://gentouch.generali.co.th/omni-channel-admin-services/downloadContent?fileName=DisabilityGoalCalculator.js",
			"lastUpdated": null,
			"version": "3",
			"type": "Validation Rule",
			"isMandatory": "Yes",
			"language": "English",
			"fileSize": 5349,
			"description": ""
		},
		{
			"fileName": "EducationGoalCalculator.js",
			"tabletFullPath": null,
			"publicURL": "https://gentouch.generali.co.th/omni-channel-admin-services/downloadContent?fileName=EducationGoalCalculator.js",
			"lastUpdated": null,
			"version": "3",
			"type": "Validation Rule",
			"isMandatory": "Yes",
			"language": "English",
			"fileSize": 5144,
			"description": ""
		},
		{
			"fileName": "Gen_Hlth_Validations.js",
			"tabletFullPath": null,
			"publicURL": "https://gentouch.generali.co.th/omni-channel-admin-services/downloadContent?fileName=Gen_Hlth_Validations.js",
			"lastUpdated": null,
			"version": "3",
			"type": "Validation Rule",
			"isMandatory": "Yes",
			"language": "English",
			"fileSize": 69463,
			"description": ""
		},
		{
			"fileName": "GenBumnan8_Guideline.js",
			"tabletFullPath": null,
			"publicURL": "https://gentouch.generali.co.th/omni-channel-admin-services/downloadContent?fileName=GenBumnan8_Guideline.js",
			"lastUpdated": null,
			"version": "2",
			"type": "Validation Rule",
			"isMandatory": "Yes",
			"language": "English",
			"fileSize": 3911,
			"description": ""
		},
		{
			"fileName": "GenBumnan8_Illustrations.js",
			"tabletFullPath": null,
			"publicURL": "https://gentouch.generali.co.th/omni-channel-admin-services/downloadContent?fileName=GenBumnan8_Illustrations.js",
			"lastUpdated": null,
			"version": "3",
			"type": "Illustration Rule",
			"isMandatory": "Yes",
			"language": "English",
			"fileSize": 14798,
			"description": ""
		},
		{
			"fileName": "GenBumnan8_Validations.js",
			"tabletFullPath": null,
			"publicURL": "https://gentouch.generali.co.th/omni-channel-admin-services/downloadContent?fileName=GenBumnan8_Validations.js",
			"lastUpdated": null,
			"version": "3",
			"type": "Validation Rule",
			"isMandatory": "Yes",
			"language": "English",
			"fileSize": 13670,
			"description": ""
		},
		{
			"fileName": "ProtectionGoalCalculator.js",
			"tabletFullPath": null,
			"publicURL": "https://gentouch.generali.co.th/omni-channel-admin-services/downloadContent?fileName=ProtectionGoalCalculator.js",
			"lastUpdated": null,
			"version": "3",
			"type": "Validation Rule",
			"isMandatory": "Yes",
			"language": "English",
			"fileSize": 6062,
			"description": ""
		},
		{
			"fileName": "PSM_Level0Rule.js",
			"tabletFullPath": null,
			"publicURL": "https://gentouch.generali.co.th/omni-channel-admin-services/downloadContent?fileName=PSM_Level0Rule.js",
			"lastUpdated": null,
			"version": "2",
			"type": "Validation Rule",
			"isMandatory": "Yes",
			"language": "English",
			"fileSize": 3660,
			"description": ""
		},
		{
			"fileName": "PSM_PrepareOutput.js",
			"tabletFullPath": null,
			"publicURL": "https://gentouch.generali.co.th/omni-channel-admin-services/downloadContent?fileName=PSM_PrepareOutput.js",
			"lastUpdated": null,
			"version": "3",
			"type": "Validation Rule",
			"isMandatory": "Yes",
			"language": "English",
			"fileSize": 8504,
			"description": ""
		},
		{
			"fileName": "RetirementGoalCalculator.js",
			"tabletFullPath": null,
			"publicURL": "https://gentouch.generali.co.th/omni-channel-admin-services/downloadContent?fileName=RetirementGoalCalculator.js",
			"lastUpdated": null,
			"version": "2",
			"type": "Validation Rule",
			"isMandatory": "Yes",
			"language": "English",
			"fileSize": 6978,
			"description": ""
		},
		{
			"fileName": "RiskCalculator.js",
			"tabletFullPath": null,
			"publicURL": "https://gentouch.generali.co.th/omni-channel-admin-services/downloadContent?fileName=RiskCalculator.js",
			"lastUpdated": null,
			"version": "2",
			"type": "Validation Rule",
			"isMandatory": "Yes",
			"language": "English",
			"fileSize": 583,
			"description": ""
		},
		{
			"fileName": "SavingsGoalCalculator.js",
			"tabletFullPath": null,
			"publicURL": "https://gentouch.generali.co.th/omni-channel-admin-services/downloadContent?fileName=SavingsGoalCalculator.js",
			"lastUpdated": null,
			"version": "2",
			"type": "Validation Rule",
			"isMandatory": "Yes",
			"language": "English",
			"fileSize": 4242,
			"description": ""
		},
		{
			"fileName": "Gen_Hlth_Illustrations.js",
			"tabletFullPath": null,
			"publicURL": "https://gentouch.generali.co.th/omni-channel-admin-services/downloadContent?fileName=Gen_Hlth_Illustrations.js",
			"lastUpdated": null,
			"version": "3",
			"type": "Illustration Rule",
			"isMandatory": "Yes",
			"language": "English",
			"fileSize": 27072,
			"description": ""
		},
		{
			"fileName": "GP2025_IllustrationOutput.json",
			"tabletFullPath": null,
			"publicURL": "https://gentouch.generali.co.th/omni-channel-admin-services/downloadContent?fileName=GP2025_IllustrationOutput.json",
			"lastUpdated": null,
			"version": "3",
			"type": "Config Files",
			"isMandatory": "Yes",
			"language": "English",
			"fileSize": 44616,
			"description": ""
		},
		{
			"fileName": "GS20P_IllustrationOutput.json",
			"tabletFullPath": null,
			"publicURL": "https://gentouch.generali.co.th/omni-channel-admin-services/downloadContent?fileName=GS20P_IllustrationOutput.json",
			"lastUpdated": null,
			"version": "3",
			"type": "Config Files",
			"isMandatory": "Yes",
			"language": "English",
			"fileSize": 44616,
			"description": ""
		},
		{
			"fileName": "GenSave.jpg",
			"tabletFullPath": null,
			"publicURL": "https://gentouch.generali.co.th/omni-channel-admin-services/downloadContent?fileName=GenSave.jpg",
			"lastUpdated": null,
			"version": "1",
			"type": "Image",
			"isMandatory": "Yes",
			"language": "English",
			"fileSize": 5537498,
			"description": ""
		},
		{
			"fileName": "GP2025Products.db",
			"tabletFullPath": null,
			"publicURL": "https://gentouch.generali.co.th/omni-channel-admin-services/downloadContent?fileName=GP2025Products.db",
			"lastUpdated": null,
			"version": "5",
			"type": "Offline DB",
			"isMandatory": "Yes",
			"language": "English",
			"fileSize": 1909760,
			"description": ""
		},
		{
			"fileName": "GS20PProducts.db",
			"tabletFullPath": null,
			"publicURL": "https://gentouch.generali.co.th/omni-channel-admin-services/downloadContent?fileName=GS20PProducts.db",
			"lastUpdated": null,
			"version": "5",
			"type": "Offline DB",
			"isMandatory": "Yes",
			"language": "English",
			"fileSize": 442368,
			"description": ""
		},
		{
			"fileName": "GenProLife_Brochure.pdf",
			"tabletFullPath": null,
			"publicURL": "https://gentouch.generali.co.th/omni-channel-admin-services/downloadContent?fileName=GenProLife_Brochure.pdf",
			"lastUpdated": null,
			"version": "1",
			"type": "PDF",
			"isMandatory": "Yes",
			"language": "English",
			"fileSize": 1552987,
			"description": " "
		},
		{
			"fileName": "GenSave.pdf",
			"tabletFullPath": null,
			"publicURL": "https://gentouch.generali.co.th/omni-channel-admin-services/downloadContent?fileName=GenSave.pdf",
			"lastUpdated": null,
			"version": "1",
			"type": "PDF",
			"isMandatory": "Yes",
			"language": "English",
			"fileSize": 776188,
			"description": " "
		},
		{
			"fileName": "GenSave_Brochure.pdf",
			"tabletFullPath": null,
			"publicURL": "https://gentouch.generali.co.th/omni-channel-admin-services/downloadContent?fileName=GenSave_Brochure.pdf",
			"lastUpdated": null,
			"version": "1",
			"type": "PDF",
			"isMandatory": "Yes",
			"language": "English",
			"fileSize": 776188,
			"description": " "
		},
		{
			"fileName": "Gen_Pro_Life_Guideline.js",
			"tabletFullPath": null,
			"publicURL": "https://gentouch.generali.co.th/omni-channel-admin-services/downloadContent?fileName=Gen_Pro_Life_Guideline.js",
			"lastUpdated": null,
			"version": "3",
			"type": "Validation Rule",
			"isMandatory": "Yes",
			"language": "English",
			"fileSize": 145530,
			"description": ""
		},
		{
			"fileName": "GenProLife_Validations.js",
			"tabletFullPath": null,
			"publicURL": "https://gentouch.generali.co.th/omni-channel-admin-services/downloadContent?fileName=GenProLife_Validations.js",
			"lastUpdated": null,
			"version": "7",
			"type": "Validation Rule",
			"isMandatory": "Yes",
			"language": "English",
			"fileSize": 142427,
			"description": ""
		},
		{
			"fileName": "GenSave20Plus_Guideline.js",
			"tabletFullPath": null,
			"publicURL": "https://gentouch.generali.co.th/omni-channel-admin-services/downloadContent?fileName=GenSave20Plus_Guideline.js",
			"lastUpdated": null,
			"version": "4",
			"type": "Validation Rule",
			"isMandatory": "Yes",
			"language": "English",
			"fileSize": 75668,
			"description": ""
		},
		{
			"fileName": "GenSave20Plus_Validations.js",
			"tabletFullPath": null,
			"publicURL": "https://gentouch.generali.co.th/omni-channel-admin-services/downloadContent?fileName=GenSave20Plus_Validations.js",
			"lastUpdated": null,
			"version": "5",
			"type": "Validation Rule",
			"isMandatory": "Yes",
			"language": "English",
			"fileSize": 125513,
			"description": ""
		},
		{
			"fileName": "GenProLife_Illustrations.js",
			"tabletFullPath": null,
			"publicURL": "https://gentouch.generali.co.th/omni-channel-admin-services/downloadContent?fileName=GenProLife_Illustrations.js",
			"lastUpdated": null,
			"version": "7",
			"type": "Illustration Rule",
			"isMandatory": "Yes",
			"language": "English",
			"fileSize": 142438,
			"description": ""
		},
		{
			"fileName": "GenSave20Plus_Illustration.js",
			"tabletFullPath": null,
			"publicURL": "https://gentouch.generali.co.th/omni-channel-admin-services/downloadContent?fileName=GenSave20Plus_Illustration.js",
			"lastUpdated": null,
			"version": "5",
			"type": "Illustration Rule",
			"isMandatory": "Yes",
			"language": "English",
			"fileSize": 97216,
			"description": ""
		},
		{
			"fileName": "365INFO.mp4",
			"tabletFullPath": null,
			"publicURL": "https://gentouch.generali.co.th/omni-channel-admin-services/downloadContent?fileName=365INFO.mp4",
			"lastUpdated": null,
			"version": "1",
			"type": "Video",
			"isMandatory": "Yes",
			"language": "English",
			"fileSize": 40682236,
			"description": ""
		},
		{
			"fileName": "GENBUMNAN.mp4",
			"tabletFullPath": null,
			"publicURL": "https://gentouch.generali.co.th/omni-channel-admin-services/downloadContent?fileName=GENBUMNAN.mp4",
			"lastUpdated": null,
			"version": "1",
			"type": "Video",
			"isMandatory": "Yes",
			"language": "English",
			"fileSize": 47747397,
			"description": ""
		},
		{
			"fileName": "GENCOMPLETE.mp4",
			"tabletFullPath": null,
			"publicURL": "https://gentouch.generali.co.th/omni-channel-admin-services/downloadContent?fileName=GENCOMPLETE.mp4",
			"lastUpdated": null,
			"version": "1",
			"type": "Video",
			"isMandatory": "Yes",
			"language": "English",
			"fileSize": 67820274,
			"description": ""
		},
		{
			"fileName": "GENPROCASH.mp4",
			"tabletFullPath": null,
			"publicURL": "https://gentouch.generali.co.th/omni-channel-admin-services/downloadContent?fileName=GENPROCASH.mp4",
			"lastUpdated": null,
			"version": "1",
			"type": "Video",
			"isMandatory": "Yes",
			"language": "English",
			"fileSize": 39920143,
			"description": ""
		},
		{
			"fileName": "GenProLife.mp4",
			"tabletFullPath": null,
			"publicURL": "https://gentouch.generali.co.th/omni-channel-admin-services/downloadContent?fileName=GenProLife.mp4",
			"lastUpdated": null,
			"version": "1",
			"type": "Video",
			"isMandatory": "Yes",
			"language": "English",
			"fileSize": 60642747,
			"description": ""
		},
		{
			"fileName": "UW1.pdf",
			"tabletFullPath": null,
			"publicURL": "https://gentouch.generali.co.th/omni-channel-admin-services/downloadContent?fileName=UW1.pdf",
			"lastUpdated": null,
			"version": "1",
			"type": "PDF",
			"isMandatory": "Yes",
			"language": "English",
			"fileSize": 413221,
			"description": " "
		},
		{
			"fileName": "UW2.pdf",
			"tabletFullPath": null,
			"publicURL": "https://gentouch.generali.co.th/omni-channel-admin-services/downloadContent?fileName=UW2.pdf",
			"lastUpdated": null,
			"version": "1",
			"type": "PDF",
			"isMandatory": "Yes",
			"language": "English",
			"fileSize": 410294,
			"description": " "
		},
		{
			"fileName": "UW3.pdf",
			"tabletFullPath": null,
			"publicURL": "https://gentouch.generali.co.th/omni-channel-admin-services/downloadContent?fileName=UW3.pdf",
			"lastUpdated": null,
			"version": "1",
			"type": "PDF",
			"isMandatory": "Yes",
			"language": "English",
			"fileSize": 417128,
			"description": " "
		},
		{
			"fileName": "UW4.pdf",
			"tabletFullPath": null,
			"publicURL": "https://gentouch.generali.co.th/omni-channel-admin-services/downloadContent?fileName=UW4.pdf",
			"lastUpdated": null,
			"version": "1",
			"type": "PDF",
			"isMandatory": "Yes",
			"language": "English",
			"fileSize": 146349,
			"description": " "
		},
		{
			"fileName": "UW5.pdf",
			"tabletFullPath": null,
			"publicURL": "https://gentouch.generali.co.th/omni-channel-admin-services/downloadContent?fileName=UW5.pdf",
			"lastUpdated": null,
			"version": "1",
			"type": "PDF",
			"isMandatory": "Yes",
			"language": "English",
			"fileSize": 416653,
			"description": " "
		},
		{
			"fileName": "UW6.pdf",
			"tabletFullPath": null,
			"publicURL": "https://gentouch.generali.co.th/omni-channel-admin-services/downloadContent?fileName=UW6.pdf",
			"lastUpdated": null,
			"version": "1",
			"type": "PDF",
			"isMandatory": "Yes",
			"language": "English",
			"fileSize": 419343,
			"description": " "
		},
		{
			"fileName": "UW7.pdf",
			"tabletFullPath": null,
			"publicURL": "https://gentouch.generali.co.th/omni-channel-admin-services/downloadContent?fileName=UW7.pdf",
			"lastUpdated": null,
			"version": "1",
			"type": "PDF",
			"isMandatory": "Yes",
			"language": "English",
			"fileSize": 45625,
			"description": " "
		},
		{
			"fileName": "UW8.pdf",
			"tabletFullPath": null,
			"publicURL": "https://gentouch.generali.co.th/omni-channel-admin-services/downloadContent?fileName=UW8.pdf",
			"lastUpdated": null,
			"version": "1",
			"type": "PDF",
			"isMandatory": "Yes",
			"language": "English",
			"fileSize": 430665,
			"description": " "
		},
		{
			"fileName": "UW9.pdf",
			"tabletFullPath": null,
			"publicURL": "https://gentouch.generali.co.th/omni-channel-admin-services/downloadContent?fileName=UW9.pdf",
			"lastUpdated": null,
			"version": "1",
			"type": "PDF",
			"isMandatory": "Yes",
			"language": "English",
			"fileSize": 419827,
			"description": " "
		},
		{
			"fileName": "UW10.pdf",
			"tabletFullPath": null,
			"publicURL": "https://gentouch.generali.co.th/omni-channel-admin-services/downloadContent?fileName=UW10.pdf",
			"lastUpdated": null,
			"version": "1",
			"type": "PDF",
			"isMandatory": "Yes",
			"language": "English",
			"fileSize": 164602,
			"description": " "
		},
		{
			"fileName": "UW11.pdf",
			"tabletFullPath": null,
			"publicURL": "https://gentouch.generali.co.th/omni-channel-admin-services/downloadContent?fileName=UW11.pdf",
			"lastUpdated": null,
			"version": "1",
			"type": "PDF",
			"isMandatory": "Yes",
			"language": "English",
			"fileSize": 152536,
			"description": " "
		},
		{
			"fileName": "UW12.pdf",
			"tabletFullPath": null,
			"publicURL": "https://gentouch.generali.co.th/omni-channel-admin-services/downloadContent?fileName=UW12.pdf",
			"lastUpdated": null,
			"version": "1",
			"type": "PDF",
			"isMandatory": "Yes",
			"language": "English",
			"fileSize": 422817,
			"description": " "
		},
		{
			"fileName": "UW13.pdf",
			"tabletFullPath": null,
			"publicURL": "https://gentouch.generali.co.th/omni-channel-admin-services/downloadContent?fileName=UW13.pdf",
			"lastUpdated": null,
			"version": "1",
			"type": "PDF",
			"isMandatory": "Yes",
			"language": "English",
			"fileSize": 422828,
			"description": " "
		},
		{
			"fileName": "UW14.pdf",
			"tabletFullPath": null,
			"publicURL": "https://gentouch.generali.co.th/omni-channel-admin-services/downloadContent?fileName=UW14.pdf",
			"lastUpdated": null,
			"version": "1",
			"type": "PDF",
			"isMandatory": "Yes",
			"language": "English",
			"fileSize": 74497,
			"description": " "
		},
		{
			"fileName": "UW15.pdf",
			"tabletFullPath": null,
			"publicURL": "https://gentouch.generali.co.th/omni-channel-admin-services/downloadContent?fileName=UW15.pdf",
			"lastUpdated": null,
			"version": "1",
			"type": "PDF",
			"isMandatory": "Yes",
			"language": "English",
			"fileSize": 419777,
			"description": " "
		},
		{
			"fileName": "UW16.pdf",
			"tabletFullPath": null,
			"publicURL": "https://gentouch.generali.co.th/omni-channel-admin-services/downloadContent?fileName=UW16.pdf",
			"lastUpdated": null,
			"version": "1",
			"type": "PDF",
			"isMandatory": "Yes",
			"language": "English",
			"fileSize": 424174,
			"description": " "
		},
		{
			"fileName": "UW17.pdf",
			"tabletFullPath": null,
			"publicURL": "https://gentouch.generali.co.th/omni-channel-admin-services/downloadContent?fileName=UW17.pdf",
			"lastUpdated": null,
			"version": "1",
			"type": "PDF",
			"isMandatory": "Yes",
			"language": "English",
			"fileSize": 420369,
			"description": " "
		},
		{
			"fileName": "UW18.pdf",
			"tabletFullPath": null,
			"publicURL": "https://gentouch.generali.co.th/omni-channel-admin-services/downloadContent?fileName=UW18.pdf",
			"lastUpdated": null,
			"version": "1",
			"type": "PDF",
			"isMandatory": "Yes",
			"language": "English",
			"fileSize": 39016,
			"description": " "
		},
		{
			"fileName": "UW19.pdf",
			"tabletFullPath": null,
			"publicURL": "https://gentouch.generali.co.th/omni-channel-admin-services/downloadContent?fileName=UW19.pdf",
			"lastUpdated": null,
			"version": "1",
			"type": "PDF",
			"isMandatory": "Yes",
			"language": "English",
			"fileSize": 431659,
			"description": " "
		},
		{
			"fileName": "UW20.pdf",
			"tabletFullPath": null,
			"publicURL": "https://gentouch.generali.co.th/omni-channel-admin-services/downloadContent?fileName=UW20.pdf",
			"lastUpdated": null,
			"version": "1",
			"type": "PDF",
			"isMandatory": "Yes",
			"language": "English",
			"fileSize": 418575,
			"description": " "
		},
		{
			"fileName": "UW21.pdf",
			"tabletFullPath": null,
			"publicURL": "https://gentouch.generali.co.th/omni-channel-admin-services/downloadContent?fileName=UW21.pdf",
			"lastUpdated": null,
			"version": "1",
			"type": "PDF",
			"isMandatory": "Yes",
			"language": "English",
			"fileSize": 234663,
			"description": " "
		},
		{
			"fileName": "UW22.pdf",
			"tabletFullPath": null,
			"publicURL": "https://gentouch.generali.co.th/omni-channel-admin-services/downloadContent?fileName=UW22.pdf",
			"lastUpdated": null,
			"version": "1",
			"type": "PDF",
			"isMandatory": "Yes",
			"language": "English",
			"fileSize": 422497,
			"description": " "
		},
		{
			"fileName": "UW23.pdf",
			"tabletFullPath": null,
			"publicURL": "https://gentouch.generali.co.th/omni-channel-admin-services/downloadContent?fileName=UW23.pdf",
			"lastUpdated": null,
			"version": "1",
			"type": "PDF",
			"isMandatory": "Yes",
			"language": "English",
			"fileSize": 433588,
			"description": " "
		},
		{
			"fileName": "UW25.pdf",
			"tabletFullPath": null,
			"publicURL": "https://gentouch.generali.co.th/omni-channel-admin-services/downloadContent?fileName=UW25.pdf",
			"lastUpdated": null,
			"version": "1",
			"type": "PDF",
			"isMandatory": "Yes",
			"language": "English",
			"fileSize": 172288,
			"description": " "
		},
		{
			"fileName": "UW26.pdf",
			"tabletFullPath": null,
			"publicURL": "https://gentouch.generali.co.th/omni-channel-admin-services/downloadContent?fileName=UW26.pdf",
			"lastUpdated": null,
			"version": "1",
			"type": "PDF",
			"isMandatory": "Yes",
			"language": "English",
			"fileSize": 420095,
			"description": " "
		},
		{
			"fileName": "UW27.pdf",
			"tabletFullPath": null,
			"publicURL": "https://gentouch.generali.co.th/omni-channel-admin-services/downloadContent?fileName=UW27.pdf",
			"lastUpdated": null,
			"version": "1",
			"type": "PDF",
			"isMandatory": "Yes",
			"language": "English",
			"fileSize": 82023,
			"description": " "
		},
		{
			"fileName": "UW28.pdf",
			"tabletFullPath": null,
			"publicURL": "https://gentouch.generali.co.th/omni-channel-admin-services/downloadContent?fileName=UW28.pdf",
			"lastUpdated": null,
			"version": "1",
			"type": "PDF",
			"isMandatory": "Yes",
			"language": "English",
			"fileSize": 68964,
			"description": " "
		},
		{
			"fileName": "UW29.pdf",
			"tabletFullPath": null,
			"publicURL": "https://gentouch.generali.co.th/omni-channel-admin-services/downloadContent?fileName=UW29.pdf",
			"lastUpdated": null,
			"version": "1",
			"type": "PDF",
			"isMandatory": "Yes",
			"language": "English",
			"fileSize": 51660,
			"description": " "
		},
		{
			"fileName": "UW30.pdf",
			"tabletFullPath": null,
			"publicURL": "https://gentouch.generali.co.th/omni-channel-admin-services/downloadContent?fileName=UW30.pdf",
			"lastUpdated": null,
			"version": "1",
			"type": "PDF",
			"isMandatory": "Yes",
			"language": "English",
			"fileSize": 432717,
			"description": " "
		},
		{
			"fileName": "UW31.pdf",
			"tabletFullPath": null,
			"publicURL": "https://gentouch.generali.co.th/omni-channel-admin-services/downloadContent?fileName=UW31.pdf",
			"lastUpdated": null,
			"version": "1",
			"type": "PDF",
			"isMandatory": "Yes",
			"language": "English",
			"fileSize": 428895,
			"description": " "
		},
		{
			"fileName": "UW32.pdf",
			"tabletFullPath": null,
			"publicURL": "https://gentouch.generali.co.th/omni-channel-admin-services/downloadContent?fileName=UW32.pdf",
			"lastUpdated": null,
			"version": "1",
			"type": "PDF",
			"isMandatory": "Yes",
			"language": "English",
			"fileSize": 1113957,
			"description": " "
		},
		{
			"fileName": "UW33.pdf",
			"tabletFullPath": null,
			"publicURL": "https://gentouch.generali.co.th/omni-channel-admin-services/downloadContent?fileName=UW33.pdf",
			"lastUpdated": null,
			"version": "1",
			"type": "PDF",
			"isMandatory": "Yes",
			"language": "English",
			"fileSize": 411534,
			"description": " "
		},
		{
			"fileName": "UW34.pdf",
			"tabletFullPath": null,
			"publicURL": "https://gentouch.generali.co.th/omni-channel-admin-services/downloadContent?fileName=UW34.pdf",
			"lastUpdated": null,
			"version": "1",
			"type": "PDF",
			"isMandatory": "Yes",
			"language": "English",
			"fileSize": 417354,
			"description": " "
		},
		{
			"fileName": "UW35.pdf",
			"tabletFullPath": null,
			"publicURL": "https://gentouch.generali.co.th/omni-channel-admin-services/downloadContent?fileName=UW35.pdf",
			"lastUpdated": null,
			"version": "1",
			"type": "PDF",
			"isMandatory": "Yes",
			"language": "English",
			"fileSize": 425844,
			"description": " "
		},
		{
			"fileName": "UW36.pdf",
			"tabletFullPath": null,
			"publicURL": "https://gentouch.generali.co.th/omni-channel-admin-services/downloadContent?fileName=UW36.pdf",
			"lastUpdated": null,
			"version": "1",
			"type": "PDF",
			"isMandatory": "Yes",
			"language": "English",
			"fileSize": 109878,
			"description": " "
		},
		{
			"fileName": "UW37.pdf",
			"tabletFullPath": null,
			"publicURL": "https://gentouch.generali.co.th/omni-channel-admin-services/downloadContent?fileName=UW37.pdf",
			"lastUpdated": null,
			"version": "1",
			"type": "PDF",
			"isMandatory": "Yes",
			"language": "English",
			"fileSize": 419766,
			"description": " "
		},
		{
			"fileName": "UW38.pdf",
			"tabletFullPath": null,
			"publicURL": "https://gentouch.generali.co.th/omni-channel-admin-services/downloadContent?fileName=UW38.pdf",
			"lastUpdated": null,
			"version": "1",
			"type": "PDF",
			"isMandatory": "Yes",
			"language": "English",
			"fileSize": 145626,
			"description": " "
		},
		{
			"fileName": "UW39.pdf",
			"tabletFullPath": null,
			"publicURL": "https://gentouch.generali.co.th/omni-channel-admin-services/downloadContent?fileName=UW39.pdf",
			"lastUpdated": null,
			"version": "2",
			"type": "PDF",
			"isMandatory": "Yes",
			"language": "English",
			"fileSize": 68433,
			"description": " "
		},
		{
			"fileName": "UW40.pdf",
			"tabletFullPath": null,
			"publicURL": "https://gentouch.generali.co.th/omni-channel-admin-services/downloadContent?fileName=UW40.pdf",
			"lastUpdated": null,
			"version": "2",
			"type": "PDF",
			"isMandatory": "Yes",
			"language": "English",
			"fileSize": 112225,
			"description": " "
		},
		{
			"fileName": "UW41.pdf",
			"tabletFullPath": null,
			"publicURL": "https://gentouch.generali.co.th/omni-channel-admin-services/downloadContent?fileName=UW41.pdf",
			"lastUpdated": null,
			"version": "1",
			"type": "PDF",
			"isMandatory": "Yes",
			"language": "English",
			"fileSize": 417677,
			"description": " "
		},
		{
			"fileName": "UW42.pdf",
			"tabletFullPath": null,
			"publicURL": "https://gentouch.generali.co.th/omni-channel-admin-services/downloadContent?fileName=UW42.pdf",
			"lastUpdated": null,
			"version": "1",
			"type": "PDF",
			"isMandatory": "Yes",
			"language": "English",
			"fileSize": 432039,
			"description": " "
		},
		{
			"fileName": "UW43.pdf",
			"tabletFullPath": null,
			"publicURL": "https://gentouch.generali.co.th/omni-channel-admin-services/downloadContent?fileName=UW43.pdf",
			"lastUpdated": null,
			"version": "1",
			"type": "PDF",
			"isMandatory": "Yes",
			"language": "English",
			"fileSize": 145602,
			"description": " "
		},
		{
			"fileName": "UW44.pdf",
			"tabletFullPath": null,
			"publicURL": "https://gentouch.generali.co.th/omni-channel-admin-services/downloadContent?fileName=UW44.pdf",
			"lastUpdated": null,
			"version": "1",
			"type": "PDF",
			"isMandatory": "Yes",
			"language": "English",
			"fileSize": 143364,
			"description": " "
		},
		{
			"fileName": "UW45.pdf",
			"tabletFullPath": null,
			"publicURL": "https://gentouch.generali.co.th/omni-channel-admin-services/downloadContent?fileName=UW45.pdf",
			"lastUpdated": null,
			"version": "1",
			"type": "PDF",
			"isMandatory": "Yes",
			"language": "English",
			"fileSize": 189582,
			"description": " "
		},
		{
			"fileName": "UW46.pdf",
			"tabletFullPath": null,
			"publicURL": "https://gentouch.generali.co.th/omni-channel-admin-services/downloadContent?fileName=UW46.pdf",
			"lastUpdated": null,
			"version": "1",
			"type": "PDF",
			"isMandatory": "Yes",
			"language": "English",
			"fileSize": 184616,
			"description": " "
		},
		{
			"fileName": "UW47.pdf",
			"tabletFullPath": null,
			"publicURL": "https://gentouch.generali.co.th/omni-channel-admin-services/downloadContent?fileName=UW47.pdf",
			"lastUpdated": null,
			"version": "1",
			"type": "PDF",
			"isMandatory": "Yes",
			"language": "English",
			"fileSize": 149489,
			"description": " "
		},
		{
			"fileName": "UW48.pdf",
			"tabletFullPath": null,
			"publicURL": "https://gentouch.generali.co.th/omni-channel-admin-services/downloadContent?fileName=UW48.pdf",
			"lastUpdated": null,
			"version": "1",
			"type": "PDF",
			"isMandatory": "Yes",
			"language": "English",
			"fileSize": 149179,
			"description": " "
		},
		{
			"fileName": "UW49.pdf",
			"tabletFullPath": null,
			"publicURL": "https://gentouch.generali.co.th/omni-channel-admin-services/downloadContent?fileName=UW49.pdf",
			"lastUpdated": null,
			"version": "1",
			"type": "PDF",
			"isMandatory": "Yes",
			"language": "English",
			"fileSize": 124359,
			"description": " "
		},
		{
			"fileName": "UW50.pdf",
			"tabletFullPath": null,
			"publicURL": "https://gentouch.generali.co.th/omni-channel-admin-services/downloadContent?fileName=UW50.pdf",
			"lastUpdated": null,
			"version": "1",
			"type": "PDF",
			"isMandatory": "Yes",
			"language": "English",
			"fileSize": 96318,
			"description": " "
		},
		{
			"fileName": "UW51.pdf",
			"tabletFullPath": null,
			"publicURL": "https://gentouch.generali.co.th/omni-channel-admin-services/downloadContent?fileName=UW51.pdf",
			"lastUpdated": null,
			"version": "1",
			"type": "PDF",
			"isMandatory": "Yes",
			"language": "English",
			"fileSize": 138505,
			"description": " "
		},
		{
			"fileName": "UW52.pdf",
			"tabletFullPath": null,
			"publicURL": "https://gentouch.generali.co.th/omni-channel-admin-services/downloadContent?fileName=UW52.pdf",
			"lastUpdated": null,
			"version": "1",
			"type": "PDF",
			"isMandatory": "Yes",
			"language": "English",
			"fileSize": 146427,
			"description": " "
		},
		{
			"fileName": "UW53.pdf",
			"tabletFullPath": null,
			"publicURL": "https://gentouch.generali.co.th/omni-channel-admin-services/downloadContent?fileName=UW53.pdf",
			"lastUpdated": null,
			"version": "1",
			"type": "PDF",
			"isMandatory": "Yes",
			"language": "English",
			"fileSize": 201454,
			"description": " "
		},
		{
			"fileName": "UW54.pdf",
			"tabletFullPath": null,
			"publicURL": "https://gentouch.generali.co.th/omni-channel-admin-services/downloadContent?fileName=UW54.pdf",
			"lastUpdated": null,
			"version": "1",
			"type": "PDF",
			"isMandatory": "Yes",
			"language": "English",
			"fileSize": 96537,
			"description": " "
		},
		{
			"fileName": "UW55.pdf",
			"tabletFullPath": null,
			"publicURL": "https://gentouch.generali.co.th/omni-channel-admin-services/downloadContent?fileName=UW55.pdf",
			"lastUpdated": null,
			"version": "1",
			"type": "PDF",
			"isMandatory": "Yes",
			"language": "English",
			"fileSize": 172288,
			"description": " "
		},
		{
			"fileName": "UW56.pdf",
			"tabletFullPath": null,
			"publicURL": "https://gentouch.generali.co.th/omni-channel-admin-services/downloadContent?fileName=UW56.pdf",
			"lastUpdated": null,
			"version": "1",
			"type": "PDF",
			"isMandatory": "Yes",
			"language": "English",
			"fileSize": 145523,
			"description": " "
		},
		{
			"fileName": "UW57.pdf",
			"tabletFullPath": null,
			"publicURL": "https://gentouch.generali.co.th/omni-channel-admin-services/downloadContent?fileName=UW57.pdf",
			"lastUpdated": null,
			"version": "1",
			"type": "PDF",
			"isMandatory": "Yes",
			"language": "English",
			"fileSize": 234663,
			"description": " "
		},
		{
			"fileName": "UW58.pdf",
			"tabletFullPath": null,
			"publicURL": "https://gentouch.generali.co.th/omni-channel-admin-services/downloadContent?fileName=UW58.pdf",
			"lastUpdated": null,
			"version": "1",
			"type": "PDF",
			"isMandatory": "Yes",
			"language": "English",
			"fileSize": 152536,
			"description": " "
		},
		{
			"fileName": "UW59.pdf",
			"tabletFullPath": null,
			"publicURL": "https://gentouch.generali.co.th/omni-channel-admin-services/downloadContent?fileName=UW59.pdf",
			"lastUpdated": null,
			"version": "1",
			"type": "PDF",
			"isMandatory": "Yes",
			"language": "English",
			"fileSize": 101473,
			"description": " "
		},
		{
			"fileName": "UW60.pdf",
			"tabletFullPath": null,
			"publicURL": "https://gentouch.generali.co.th/omni-channel-admin-services/downloadContent?fileName=UW60.pdf",
			"lastUpdated": null,
			"version": "1",
			"type": "PDF",
			"isMandatory": "Yes",
			"language": "English",
			"fileSize": 82033,
			"description": " "
		},
		{
			"fileName": "UW61.pdf",
			"tabletFullPath": null,
			"publicURL": "https://gentouch.generali.co.th/omni-channel-admin-services/downloadContent?fileName=UW61.pdf",
			"lastUpdated": null,
			"version": "1",
			"type": "PDF",
			"isMandatory": "Yes",
			"language": "English",
			"fileSize": 66875,
			"description": " "
		},
		{
			"fileName": "BankForm1.pdf",
			"tabletFullPath": null,
			"publicURL": "https://gentouch.generali.co.th/omni-channel-admin-services/downloadContent?fileName=BankForm1.pdf",
			"lastUpdated": null,
			"version": "2",
			"type": "PDF",
			"isMandatory": "Yes",
			"language": "English",
			"fileSize": 183799,
			"description": " "
		},
		{
			"fileName": "ClaimForm1.pdf",
			"tabletFullPath": null,
			"publicURL": "https://gentouch.generali.co.th/omni-channel-admin-services/downloadContent?fileName=ClaimForm1.pdf",
			"lastUpdated": null,
			"version": "1",
			"type": "PDF",
			"isMandatory": "Yes",
			"language": "English",
			"fileSize": 62166,
			"description": " "
		},
		{
			"fileName": "ClaimForm2.pdf",
			"tabletFullPath": null,
			"publicURL": "https://gentouch.generali.co.th/omni-channel-admin-services/downloadContent?fileName=ClaimForm2.pdf",
			"lastUpdated": null,
			"version": "1",
			"type": "PDF",
			"isMandatory": "Yes",
			"language": "English",
			"fileSize": 45772,
			"description": " "
		},
		{
			"fileName": "ClaimForm3.pdf",
			"tabletFullPath": null,
			"publicURL": "https://gentouch.generali.co.th/omni-channel-admin-services/downloadContent?fileName=ClaimForm3.pdf",
			"lastUpdated": null,
			"version": "1",
			"type": "PDF",
			"isMandatory": "Yes",
			"language": "English",
			"fileSize": 271250,
			"description": " "
		},
		{
			"fileName": "ClaimForm4.pdf",
			"tabletFullPath": null,
			"publicURL": "https://gentouch.generali.co.th/omni-channel-admin-services/downloadContent?fileName=ClaimForm4.pdf",
			"lastUpdated": null,
			"version": "1",
			"type": "PDF",
			"isMandatory": "Yes",
			"language": "English",
			"fileSize": 274881,
			"description": " "
		},
		{
			"fileName": "ClaimForm5.pdf",
			"tabletFullPath": null,
			"publicURL": "https://gentouch.generali.co.th/omni-channel-admin-services/downloadContent?fileName=ClaimForm5.pdf",
			"lastUpdated": null,
			"version": "1",
			"type": "PDF",
			"isMandatory": "Yes",
			"language": "English",
			"fileSize": 56606,
			"description": " "
		},
		{
			"fileName": "POSForm1.pdf",
			"tabletFullPath": null,
			"publicURL": "https://gentouch.generali.co.th/omni-channel-admin-services/downloadContent?fileName=POSForm1.pdf",
			"lastUpdated": null,
			"version": "2",
			"type": "PDF",
			"isMandatory": "Yes",
			"language": "English",
			"fileSize": 215736,
			"description": " "
		},
		{
			"fileName": "POSForm2.pdf",
			"tabletFullPath": null,
			"publicURL": "https://gentouch.generali.co.th/omni-channel-admin-services/downloadContent?fileName=POSForm2.pdf",
			"lastUpdated": null,
			"version": "2",
			"type": "PDF",
			"isMandatory": "Yes",
			"language": "English",
			"fileSize": 124218,
			"description": " "
		},
		{
			"fileName": "HospitalNetwork.pdf",
			"tabletFullPath": null,
			"publicURL": "https://gentouch.generali.co.th/omni-channel-admin-services/downloadContent?fileName=HospitalNetwork.pdf",
			"lastUpdated": null,
			"version": "1",
			"type": "PDF",
			"isMandatory": "Yes",
			"language": "English",
			"fileSize": 188579,
			"description": " "
		},
		{
			"fileName": "Occupation_Information.pdf",
			"tabletFullPath": null,
			"publicURL": "https://gentouch.generali.co.th/omni-channel-admin-services/downloadContent?fileName=Occupation_Information.pdf",
			"lastUpdated": null,
			"version": "3",
			"type": "PDF",
			"isMandatory": "Yes",
			"language": "English",
			"fileSize": 273989,
			"description": " "
		},
		{
			"fileName": "2017_GEN_TH_Credential_converted_with_Clipchamp.mp4",
			"tabletFullPath": null,
			"publicURL": "https://gentouch.generali.co.th/omni-channel-admin-services/downloadContent?fileName=2017_GEN_TH_Credential_converted_with_Clipchamp.mp4",
			"lastUpdated": null,
			"version": "1",
			"type": "Video",
			"isMandatory": "Yes",
			"language": "English",
			"fileSize": 40682236,
			"description": ""
		},
		{
			"fileName": "FAQ_GENTOUCH.pdf",
			"tabletFullPath": null,
			"publicURL": "https://gentouch.generali.co.th/omni-channel-admin-services/downloadContent?fileName=FAQ_GENTOUCH.pdf",
			"lastUpdated": null,
			"version": "1",
			"type": "PDF",
			"isMandatory": "Yes",
			"language": "English",
			"fileSize": 766,
			"description": ""
		},
		{
			"fileName": "eAppFatcaQuestionnaireJson.json",
			"tabletFullPath": null,
			"publicURL": "https://gentouch.generali.co.th/omni-channel-admin-services/downloadContent?fileName=eAppFatcaQuestionnaireJson.json",
			"lastUpdated": null,
			"version": "1",
			"type": "Config Files",
			"isMandatory": "Yes",
			"language": "English",
			"fileSize": 20,
			"description": ""
		},
		{
			"fileName": "step2Payment.json",
			"tabletFullPath": null,
			"publicURL": "https://gentouch.generali.co.th/omni-channel-admin-services/downloadContent?fileName=step2Payment.json",
			"lastUpdated": null,
			"version": "2",
			"type": "Config Files",
			"isMandatory": "Yes",
			"language": "English",
			"fileSize": 20,
			"description": ""
		},
		{
			"fileName": "step3Payment.json",
			"tabletFullPath": null,
			"publicURL": "https://gentouch.generali.co.th/omni-channel-admin-services/downloadContent?fileName=step3Payment.json",
			"lastUpdated": null,
			"version": "1",
			"type": "Config Files",
			"isMandatory": "Yes",
			"language": "English",
			"fileSize": 20,
			"description": ""
		},
		{
			"fileName": "1.png",
			"tabletFullPath": null,
			"publicURL": "https://gentouch.generali.co.th/omni-channel-admin-services/downloadContent?fileName=1.png",
			"lastUpdated": null,
			"version": "1",
			"type": "Image",
			"isMandatory": "Yes",
			"language": "English",
			"fileSize": 100,
			"description": ""
		},
		{
			"fileName": "2.png",
			"tabletFullPath": null,
			"publicURL": "https://gentouch.generali.co.th/omni-channel-admin-services/downloadContent?fileName=2.png",
			"lastUpdated": null,
			"version": "1",
			"type": "Image",
			"isMandatory": "Yes",
			"language": "English",
			"fileSize": 100,
			"description": ""
		},
		{
			"fileName": "3.png",
			"tabletFullPath": null,
			"publicURL": "https://gentouch.generali.co.th/omni-channel-admin-services/downloadContent?fileName=3.png",
			"lastUpdated": null,
			"version": "1",
			"type": "Image",
			"isMandatory": "Yes",
			"language": "English",
			"fileSize": 100,
			"description": ""
		},
		{
			"fileName": "4.png",
			"tabletFullPath": null,
			"publicURL": "https://gentouch.generali.co.th/omni-channel-admin-services/downloadContent?fileName=4.png",
			"lastUpdated": null,
			"version": "1",
			"type": "Image",
			"isMandatory": "Yes",
			"language": "English",
			"fileSize": 100,
			"description": ""
		},
		{
			"fileName": "5.png",
			"tabletFullPath": null,
			"publicURL": "https://gentouch.generali.co.th/omni-channel-admin-services/downloadContent?fileName=5.png",
			"lastUpdated": null,
			"version": "1",
			"type": "Image",
			"isMandatory": "Yes",
			"language": "English",
			"fileSize": 100,
			"description": ""
		},
		{
			"fileName": "6.png",
			"tabletFullPath": null,
			"publicURL": "https://gentouch.generali.co.th/omni-channel-admin-services/downloadContent?fileName=6.png",
			"lastUpdated": null,
			"version": "1",
			"type": "Image",
			"isMandatory": "Yes",
			"language": "English",
			"fileSize": 100,
			"description": ""
		},
		{
			"fileName": "7.png",
			"tabletFullPath": null,
			"publicURL": "https://gentouch.generali.co.th/omni-channel-admin-services/downloadContent?fileName=7.png",
			"lastUpdated": null,
			"version": "1",
			"type": "Image",
			"isMandatory": "Yes",
			"language": "English",
			"fileSize": 100,
			"description": ""
		},
		{
			"fileName": "8.png",
			"tabletFullPath": null,
			"publicURL": "https://gentouch.generali.co.th/omni-channel-admin-services/downloadContent?fileName=8.png",
			"lastUpdated": null,
			"version": "1",
			"type": "Image",
			"isMandatory": "Yes",
			"language": "English",
			"fileSize": 100,
			"description": ""
		},
		{
			"fileName": "9.png",
			"tabletFullPath": null,
			"publicURL": "https://gentouch.generali.co.th/omni-channel-admin-services/downloadContent?fileName=9.png",
			"lastUpdated": null,
			"version": "1",
			"type": "Image",
			"isMandatory": "Yes",
			"language": "English",
			"fileSize": 100,
			"description": ""
		},
		{
			"fileName": "10.png",
			"tabletFullPath": null,
			"publicURL": "https://gentouch.generali.co.th/omni-channel-admin-services/downloadContent?fileName=10.png",
			"lastUpdated": null,
			"version": "1",
			"type": "Image",
			"isMandatory": "Yes",
			"language": "English",
			"fileSize": 100,
			"description": ""
		},
		{
			"fileName": "11.png",
			"tabletFullPath": null,
			"publicURL": "https://gentouch.generali.co.th/omni-channel-admin-services/downloadContent?fileName=11.png",
			"lastUpdated": null,
			"version": "1",
			"type": "Image",
			"isMandatory": "Yes",
			"language": "English",
			"fileSize": 100,
			"description": ""
		},
		{
			"fileName": "12.png",
			"tabletFullPath": null,
			"publicURL": "https://gentouch.generali.co.th/omni-channel-admin-services/downloadContent?fileName=12.png",
			"lastUpdated": null,
			"version": "1",
			"type": "Image",
			"isMandatory": "Yes",
			"language": "English",
			"fileSize": 100,
			"description": ""
		},
		{
			"fileName": "13.png",
			"tabletFullPath": null,
			"publicURL": "https://gentouch.generali.co.th/omni-channel-admin-services/downloadContent?fileName=13.png",
			"lastUpdated": null,
			"version": "1",
			"type": "Image",
			"isMandatory": "Yes",
			"language": "English",
			"fileSize": 100,
			"description": ""
		},
		{
			"fileName": "14.png",
			"tabletFullPath": null,
			"publicURL": "https://gentouch.generali.co.th/omni-channel-admin-services/downloadContent?fileName=14.png",
			"lastUpdated": null,
			"version": "1",
			"type": "Image",
			"isMandatory": "Yes",
			"language": "English",
			"fileSize": 100,
			"description": ""
		},
		{
			"fileName": "15.png",
			"tabletFullPath": null,
			"publicURL": "https://gentouch.generali.co.th/omni-channel-admin-services/downloadContent?fileName=15.png",
			"lastUpdated": null,
			"version": "1",
			"type": "Image",
			"isMandatory": "Yes",
			"language": "English",
			"fileSize": 100,
			"description": ""
		},
		{
			"fileName": "16.png",
			"tabletFullPath": null,
			"publicURL": "https://gentouch.generali.co.th/omni-channel-admin-services/downloadContent?fileName=16.png",
			"lastUpdated": null,
			"version": "1",
			"type": "Image",
			"isMandatory": "Yes",
			"language": "English",
			"fileSize": 100,
			"description": ""
		},
		{
			"fileName": "17.png",
			"tabletFullPath": null,
			"publicURL": "https://gentouch.generali.co.th/omni-channel-admin-services/downloadContent?fileName=17.png",
			"lastUpdated": null,
			"version": "1",
			"type": "Image",
			"isMandatory": "Yes",
			"language": "English",
			"fileSize": 100,
			"description": ""
		},
		{
			"fileName": "18.png",
			"tabletFullPath": null,
			"publicURL": "https://gentouch.generali.co.th/omni-channel-admin-services/downloadContent?fileName=18.png",
			"lastUpdated": null,
			"version": "1",
			"type": "Image",
			"isMandatory": "Yes",
			"language": "English",
			"fileSize": 100,
			"description": ""
		},
		{
			"fileName": "19.png",
			"tabletFullPath": null,
			"publicURL": "https://gentouch.generali.co.th/omni-channel-admin-services/downloadContent?fileName=19.png",
			"lastUpdated": null,
			"version": "1",
			"type": "Image",
			"isMandatory": "Yes",
			"language": "English",
			"fileSize": 100,
			"description": ""
		},
		{
			"fileName": "20.png",
			"tabletFullPath": null,
			"publicURL": "https://gentouch.generali.co.th/omni-channel-admin-services/downloadContent?fileName=20.png",
			"lastUpdated": null,
			"version": "1",
			"type": "Image",
			"isMandatory": "Yes",
			"language": "English",
			"fileSize": 100,
			"description": ""
		},
		{
			"fileName": "21.png",
			"tabletFullPath": null,
			"publicURL": "https://gentouch.generali.co.th/omni-channel-admin-services/downloadContent?fileName=21.png",
			"lastUpdated": null,
			"version": "1",
			"type": "Image",
			"isMandatory": "Yes",
			"language": "English",
			"fileSize": 100,
			"description": ""
		},
		{
			"fileName": "22.png",
			"tabletFullPath": null,
			"publicURL": "https://gentouch.generali.co.th/omni-channel-admin-services/downloadContent?fileName=22.png",
			"lastUpdated": null,
			"version": "1",
			"type": "Image",
			"isMandatory": "Yes",
			"language": "English",
			"fileSize": 100,
			"description": ""
		},
		{
			"fileName": "23.png",
			"tabletFullPath": null,
			"publicURL": "https://gentouch.generali.co.th/omni-channel-admin-services/downloadContent?fileName=23.png",
			"lastUpdated": null,
			"version": "1",
			"type": "Image",
			"isMandatory": "Yes",
			"language": "English",
			"fileSize": 100,
			"description": ""
		},
		{
			"fileName": "24.png",
			"tabletFullPath": null,
			"publicURL": "https://gentouch.generali.co.th/omni-channel-admin-services/downloadContent?fileName=24.png",
			"lastUpdated": null,
			"version": "1",
			"type": "Image",
			"isMandatory": "Yes",
			"language": "English",
			"fileSize": 100,
			"description": ""
		},
		{
			"fileName": "25.png",
			"tabletFullPath": null,
			"publicURL": "https://gentouch.generali.co.th/omni-channel-admin-services/downloadContent?fileName=25.png",
			"lastUpdated": null,
			"version": "1",
			"type": "Image",
			"isMandatory": "Yes",
			"language": "English",
			"fileSize": 100,
			"description": ""
		},
		{
			"fileName": "26.png",
			"tabletFullPath": null,
			"publicURL": "https://gentouch.generali.co.th/omni-channel-admin-services/downloadContent?fileName=26.png",
			"lastUpdated": null,
			"version": "1",
			"type": "Image",
			"isMandatory": "Yes",
			"language": "English",
			"fileSize": 100,
			"description": ""
		},
		{
			"fileName": "27.png",
			"tabletFullPath": null,
			"publicURL": "https://gentouch.generali.co.th/omni-channel-admin-services/downloadContent?fileName=27.png",
			"lastUpdated": null,
			"version": "1",
			"type": "Image",
			"isMandatory": "Yes",
			"language": "English",
			"fileSize": 100,
			"description": ""
		},
		{
			"fileName": "28.png",
			"tabletFullPath": null,
			"publicURL": "https://gentouch.generali.co.th/omni-channel-admin-services/downloadContent?fileName=28.png",
			"lastUpdated": null,
			"version": "2",
			"type": "Image",
			"isMandatory": "Yes",
			"language": "English",
			"fileSize": 100,
			"description": ""
		},
		{
			"fileName": "29.png",
			"tabletFullPath": null,
			"publicURL": "https://gentouch.generali.co.th/omni-channel-admin-services/downloadContent?fileName=29.png",
			"lastUpdated": null,
			"version": "1",
			"type": "Image",
			"isMandatory": "Yes",
			"language": "English",
			"fileSize": 100,
			"description": ""
		},
		{
			"fileName": "30.png",
			"tabletFullPath": null,
			"publicURL": "https://gentouch.generali.co.th/omni-channel-admin-services/downloadContent?fileName=30.png",
			"lastUpdated": null,
			"version": "1",
			"type": "Image",
			"isMandatory": "Yes",
			"language": "English",
			"fileSize": 100,
			"description": ""
		},
		{
			"fileName": "31.png",
			"tabletFullPath": null,
			"publicURL": "https://gentouch.generali.co.th/omni-channel-admin-services/downloadContent?fileName=31.png",
			"lastUpdated": null,
			"version": "1",
			"type": "Image",
			"isMandatory": "Yes",
			"language": "English",
			"fileSize": 100,
			"description": ""
		},
		{
			"fileName": "32.png",
			"tabletFullPath": null,
			"publicURL": "https://gentouch.generali.co.th/omni-channel-admin-services/downloadContent?fileName=32.png",
			"lastUpdated": null,
			"version": "1",
			"type": "Image",
			"isMandatory": "Yes",
			"language": "English",
			"fileSize": 100,
			"description": ""
		},
		{
			"fileName": "33.png",
			"tabletFullPath": null,
			"publicURL": "https://gentouch.generali.co.th/omni-channel-admin-services/downloadContent?fileName=33.png",
			"lastUpdated": null,
			"version": "1",
			"type": "Image",
			"isMandatory": "Yes",
			"language": "English",
			"fileSize": 100,
			"description": ""
		},
		{
			"fileName": "34.png",
			"tabletFullPath": null,
			"publicURL": "https://gentouch.generali.co.th/omni-channel-admin-services/downloadContent?fileName=34.png",
			"lastUpdated": null,
			"version": "1",
			"type": "Image",
			"isMandatory": "Yes",
			"language": "English",
			"fileSize": 100,
			"description": ""
		},
		{
			"fileName": "35.png",
			"tabletFullPath": null,
			"publicURL": "https://gentouch.generali.co.th/omni-channel-admin-services/downloadContent?fileName=35.png",
			"lastUpdated": null,
			"version": "1",
			"type": "Image",
			"isMandatory": "Yes",
			"language": "English",
			"fileSize": 100,
			"description": ""
		},
		{
			"fileName": "36.png",
			"tabletFullPath": null,
			"publicURL": "https://gentouch.generali.co.th/omni-channel-admin-services/downloadContent?fileName=36.png",
			"lastUpdated": null,
			"version": "1",
			"type": "Image",
			"isMandatory": "Yes",
			"language": "English",
			"fileSize": 100,
			"description": ""
		},
		{
			"fileName": "37.png",
			"tabletFullPath": null,
			"publicURL": "https://gentouch.generali.co.th/omni-channel-admin-services/downloadContent?fileName=37.png",
			"lastUpdated": null,
			"version": "1",
			"type": "Image",
			"isMandatory": "Yes",
			"language": "English",
			"fileSize": 100,
			"description": ""
		},
		{
			"fileName": "HealthGoalCalculator.js",
			"tabletFullPath": null,
			"publicURL": "https://gentouch.generali.co.th/omni-channel-admin-services/downloadContent?fileName=HealthGoalCalculator.js",
			"lastUpdated": null,
			"version": "2",
			"type": "Validation Rule",
			"isMandatory": "Yes",
			"language": "English",
			"fileSize": 5349,
			"description": ""
		},
		{
			"fileName": "eappshortquestionnaire.json",
			"tabletFullPath": null,
			"publicURL": "https://gentouch.generali.co.th/omni-channel-admin-services/downloadContent?fileName=eappshortquestionnaire.json",
			"lastUpdated": null,
			"version": "2",
			"type": "Validation Rule",
			"isMandatory": "Yes",
			"language": "English",
			"fileSize": 5349,
			"description": ""
		},
		{
			"fileName": "FnaSummaryGraphRetirement.json",
			"tabletFullPath": null,
			"publicURL": "https://gentouch.generali.co.th/omni-channel-admin-services/downloadContent?fileName=FnaSummaryGraphRetirement.json",
			"lastUpdated": null,
			"version": "2",
			"type": "Config Files",
			"isMandatory": "Yes",
			"language": "English",
			"fileSize": 5349,
			"description": ""
		},
		{
			"fileName": "General_Provision-GENCANCERSUPERPROTECTION_[GP0E_GCN85].pdf",
			"tabletFullPath": null,
			"publicURL": "https://gentouch.generali.co.th/omni-channel-admin-services/downloadContent?fileName=General_Provision-GENCANCERSUPERPROTECTION_[GP0E_GCN85].pdf",
			"lastUpdated": null,
			"version": "1",
			"type": "PDF",
			"isMandatory": "Yes",
			"language": "English",
			"fileSize": 1574579,
			"description": " "
		},
		{
			"fileName": "B9910_ADB.pdf",
			"tabletFullPath": null,
			"publicURL": "https://gentouch.generali.co.th/omni-channel-admin-services/downloadContent?fileName=B9910_ADB.pdf",
			"lastUpdated": null,
			"version": "1",
			"type": "PDF",
			"isMandatory": "Yes",
			"language": "English",
			"fileSize": 1574579,
			"description": " "
		},
		{
			"fileName": "B9431_PB.pdf",
			"tabletFullPath": null,
			"publicURL": "https://gentouch.generali.co.th/omni-channel-admin-services/downloadContent?fileName=B9431_PB.pdf",
			"lastUpdated": null,
			"version": "1",
			"type": "PDF",
			"isMandatory": "Yes",
			"language": "English",
			"fileSize": 1574579,
			"description": " "
		},
		{
			"fileName": "GENBUMNAN8_[GB04_GBN8].pdf",
			"tabletFullPath": null,
			"publicURL": "https://gentouch.generali.co.th/omni-channel-admin-services/downloadContent?fileName=GENBUMNAN8_[GB04_GBN8].pdf",
			"lastUpdated": null,
			"version": "1",
			"type": "PDF",
			"isMandatory": "Yes",
			"language": "English",
			"fileSize": 1574579,
			"description": " "
		},
		{
			"fileName": "B9443_WPCancer.pdf",
			"tabletFullPath": null,
			"publicURL": "https://gentouch.generali.co.th/omni-channel-admin-services/downloadContent?fileName=B9443_WPCancer.pdf",
			"lastUpdated": null,
			"version": "1",
			"type": "PDF",
			"isMandatory": "Yes",
			"language": "English",
			"fileSize": 1574579,
			"description": " "
		},
		{
			"fileName": "B9922_ADDExtra(CHS).pdf",
			"tabletFullPath": null,
			"publicURL": "https://gentouch.generali.co.th/omni-channel-admin-services/downloadContent?fileName=B9922_ADDExtra(CHS).pdf",
			"lastUpdated": null,
			"version": "1",
			"type": "PDF",
			"isMandatory": "Yes",
			"language": "English",
			"fileSize": 1574579,
			"description": " "
		},
		{
			"fileName": "GENPROLIFE20_[GP04_GP20].pdf",
			"tabletFullPath": null,
			"publicURL": "https://gentouch.generali.co.th/omni-channel-admin-services/downloadContent?fileName=GENPROLIFE20_[GP04_GP20].pdf",
			"lastUpdated": null,
			"version": "1",
			"type": "PDF",
			"isMandatory": "Yes",
			"language": "English",
			"fileSize": 1574579,
			"description": " "
		},
		{
			"fileName": "B9414_DD.pdf",
			"tabletFullPath": null,
			"publicURL": "https://gentouch.generali.co.th/omni-channel-admin-services/downloadContent?fileName=B9414_DD.pdf",
			"lastUpdated": null,
			"version": "1",
			"type": "PDF",
			"isMandatory": "Yes",
			"language": "English",
			"fileSize": 1574579,
			"description": " "
		},
		{
			"fileName": "B9920_ADD.pdf",
			"tabletFullPath": null,
			"publicURL": "https://gentouch.generali.co.th/omni-channel-admin-services/downloadContent?fileName=B9920_ADD.pdf",
			"lastUpdated": null,
			"version": "1",
			"type": "PDF",
			"isMandatory": "Yes",
			"language": "English",
			"fileSize": 1574579,
			"description": " "
		},
		{
			"fileName": "B9942_HBExtra(CHS).pdf",
			"tabletFullPath": null,
			"publicURL": "https://gentouch.generali.co.th/omni-channel-admin-services/downloadContent?fileName=B9942_HBExtra(CHS).pdf",
			"lastUpdated": null,
			"version": "1",
			"type": "PDF",
			"isMandatory": "Yes",
			"language": "English",
			"fileSize": 1574579,
			"description": " "
		},
		{
			"fileName": "General_Provision-GENCOMPLETEHEALTH_[B4M80_CHS].pdf",
			"tabletFullPath": null,
			"publicURL": "https://gentouch.generali.co.th/omni-channel-admin-services/downloadContent?fileName=General_Provision-GENCOMPLETEHEALTH_[B4M80_CHS].pdf",
			"lastUpdated": null,
			"version": "1",
			"type": "PDF",
			"isMandatory": "Yes",
			"language": "English",
			"fileSize": 1574579,
			"description": " "
		},
		{
			"fileName": "GENPROLIFE25_[GP04_GP25].pdf",
			"tabletFullPath": null,
			"publicURL": "https://gentouch.generali.co.th/omni-channel-admin-services/downloadContent?fileName=GENPROLIFE25_[GP04_GP25].pdf",
			"lastUpdated": null,
			"version": "1",
			"type": "PDF",
			"isMandatory": "Yes",
			"language": "English",
			"fileSize": 1574579,
			"description": " "
		},
		{
			"fileName": "GENSAVE20PLUS_[GP04_GS20+].pdf",
			"tabletFullPath": null,
			"publicURL": "https://gentouch.generali.co.th/omni-channel-admin-services/downloadContent?fileName=GENSAVE20PLUS_[GP04_GS20+].pdf",
			"lastUpdated": null,
			"version": "1",
			"type": "PDF",
			"isMandatory": "Yes",
			"language": "English",
			"fileSize": 1574579,
			"description": " "
		},
		{
			"fileName": "B9911_RCCADB.pdf",
			"tabletFullPath": null,
			"publicURL": "https://gentouch.generali.co.th/omni-channel-admin-services/downloadContent?fileName=B9911_RCCADB.pdf",
			"lastUpdated": null,
			"version": "1",
			"type": "PDF",
			"isMandatory": "Yes",
			"language": "English",
			"fileSize": 1574579,
			"description": " "
		},
		{
			"fileName": "B9954_HSExtra(CHS).pdf",
			"tabletFullPath": null,
			"publicURL": "https://gentouch.generali.co.th/omni-channel-admin-services/downloadContent?fileName=B9954_HSExtra(CHS).pdf",
			"lastUpdated": null,
			"version": "1",
			"type": "PDF",
			"isMandatory": "Yes",
			"language": "English",
			"fileSize": 1574579,
			"description": " "
		},
		{
			"fileName": "B9413_CIExtra(CHS).pdf",
			"tabletFullPath": null,
			"publicURL": "https://gentouch.generali.co.th/omni-channel-admin-services/downloadContent?fileName=B9413_CIExtra(CHS).pdf",
			"lastUpdated": null,
			"version": "1",
			"type": "PDF",
			"isMandatory": "Yes",
			"language": "English",
			"fileSize": 1574579,
			"description": " "
		},
		{
			"fileName": "B9440_WP.pdf",
			"tabletFullPath": null,
			"publicURL": "https://gentouch.generali.co.th/omni-channel-admin-services/downloadContent?fileName=B9440_WP.pdf",
			"lastUpdated": null,
			"version": "1",
			"type": "PDF",
			"isMandatory": "Yes",
			"language": "English",
			"fileSize": 1574579,
			"description": " "
		},
		{
			"fileName": "B9941_HB.pdf",
			"tabletFullPath": null,
			"publicURL": "https://gentouch.generali.co.th/omni-channel-admin-services/downloadContent?fileName=B9941_HB.pdf",
			"lastUpdated": null,
			"version": "1",
			"type": "PDF",
			"isMandatory": "Yes",
			"language": "English",
			"fileSize": 1574579,
			"description": " "
		},
		{
			"fileName": "GenCancerSuperProtection_Brochure.pdf",
			"tabletFullPath": null,
			"publicURL": "https://gentouch.generali.co.th/omni-channel-admin-services/downloadContent?fileName=GenCancerSuperProtection_Brochure.pdf",
			"lastUpdated": null,
			"version": "1",
			"type": "PDF",
			"isMandatory": "Yes",
			"language": "English",
			"fileSize": 1574579,
			"description": " "
		},
		{
			"fileName": "B9953_HSExtra.pdf",
			"tabletFullPath": null,
			"publicURL": "https://gentouch.generali.co.th/omni-channel-admin-services/downloadContent?fileName=B9953_HSExtra.pdf",
			"lastUpdated": null,
			"version": "1",
			"type": "PDF",
			"isMandatory": "Yes",
			"language": "English",
			"fileSize": 1574579,
			"description": " "
		},
		{
			"fileName": "General_Provision-GENPROLIFE20_[B1620_GP20].pdf",
			"tabletFullPath": null,
			"publicURL": "https://gentouch.generali.co.th/omni-channel-admin-services/downloadContent?fileName=General_Provision-GENPROLIFE20_[B1620_GP20].pdf",
			"lastUpdated": null,
			"version": "1",
			"type": "PDF",
			"isMandatory": "Yes",
			"language": "English",
			"fileSize": 1574579,
			"description": " "
		},
		{
			"fileName": "General_Provision-GENPROLIFE25_[B1625_GP25].pdf",
			"tabletFullPath": null,
			"publicURL": "https://gentouch.generali.co.th/omni-channel-admin-services/downloadContent?fileName=General_Provision-GENPROLIFE25_[B1625_GP25].pdf",
			"lastUpdated": null,
			"version": "1",
			"type": "PDF",
			"isMandatory": "Yes",
			"language": "English",
			"fileSize": 1574579,
			"description": " "
		},
		{
			"fileName": "General_Provision-GENBUMNAN8_[B7B08_GBN8].pdf",
			"tabletFullPath": null,
			"publicURL": "https://gentouch.generali.co.th/omni-channel-admin-services/downloadContent?fileName=General_Provision-GENBUMNAN8_[B7B08_GBN8].pdf",
			"lastUpdated": null,
			"version": "1",
			"type": "PDF",
			"isMandatory": "Yes",
			"language": "English",
			"fileSize": 1574579,
			"description": " "
		},
		{
			"fileName": "B9921_RCCADD.pdf",
			"tabletFullPath": null,
			"publicURL": "https://gentouch.generali.co.th/omni-channel-admin-services/downloadContent?fileName=B9921_RCCADD.pdf",
			"lastUpdated": null,
			"version": "1",
			"type": "PDF",
			"isMandatory": "Yes",
			"language": "English",
			"fileSize": 1574579,
			"description": " "
		},
		{
			"fileName": "B9931_RCCAI.pdf",
			"tabletFullPath": null,
			"publicURL": "https://gentouch.generali.co.th/omni-channel-admin-services/downloadContent?fileName=B9931_RCCAI.pdf",
			"lastUpdated": null,
			"version": "1",
			"type": "PDF",
			"isMandatory": "Yes",
			"language": "English",
			"fileSize": 1574579,
			"description": " "
		},
		{
			"fileName": "B9415_InvasiveCancerRider.pdf",
			"tabletFullPath": null,
			"publicURL": "https://gentouch.generali.co.th/omni-channel-admin-services/downloadContent?fileName=B9415_InvasiveCancerRider.pdf",
			"lastUpdated": null,
			"version": "1",
			"type": "PDF",
			"isMandatory": "Yes",
			"language": "English",
			"fileSize": 1574579,
			"description": " "
		},
		{
			"fileName": "B9930_AI.pdf",
			"tabletFullPath": null,
			"publicURL": "https://gentouch.generali.co.th/omni-channel-admin-services/downloadContent?fileName=B9930_AI.pdf",
			"lastUpdated": null,
			"version": "1",
			"type": "PDF",
			"isMandatory": "Yes",
			"language": "English",
			"fileSize": 1574579,
			"description": " "
		},
		{
			"fileName": "GENCANCERSUPERPROTECTION_[B4N85_GCN85].pdf",
			"tabletFullPath": null,
			"publicURL": "https://gentouch.generali.co.th/omni-channel-admin-services/downloadContent?fileName=GENCANCERSUPERPROTECTION_[B4N85_GCN85].pdf",
			"lastUpdated": null,
			"version": "1",
			"type": "PDF",
			"isMandatory": "Yes",
			"language": "English",
			"fileSize": 1574579,
			"description": " "
		},
		{
			"fileName": "GENCOMPLETEHEALTH_[GP0D_CHS].pdf",
			"tabletFullPath": null,
			"publicURL": "https://gentouch.generali.co.th/omni-channel-admin-services/downloadContent?fileName=GENCOMPLETEHEALTH_[GP0D_CHS].pdf",
			"lastUpdated": null,
			"version": "1",
			"type": "PDF",
			"isMandatory": "Yes",
			"language": "English",
			"fileSize": 1574579,
			"description": " "
		},
		{
			"fileName": "General_Provision-GENSAVE20PLUS_ [B3620_GS20+].pdf",
			"tabletFullPath": null,
			"publicURL": "https://gentouch.generali.co.th/omni-channel-admin-services/downloadContent?fileName=General_Provision-GENSAVE20PLUS_ [B3620_GS20+].pdf",
			"lastUpdated": null,
			"version": "1",
			"type": "PDF",
			"isMandatory": "Yes",
			"language": "English",
			"fileSize": 1574579,
			"description": " "
		},
		{
			"fileName": "GenCancerSuperProtection.jpg",
			"tabletFullPath": null,
			"publicURL": "https://gentouch.generali.co.th/omni-channel-admin-services/downloadContent?fileName=GenCancerSuperProtection.jpg",
			"lastUpdated": null,
			"version": "1",
			"type": "Image",
			"isMandatory": "Yes",
			"language": "English",
			"fileSize": 2955276,
			"description": ""
		},
		{
			"fileName": "Gen_CNC_Illustrations.js",
			"tabletFullPath": null,
			"publicURL": "https://gentouch.generali.co.th/omni-channel-admin-services/downloadContent?fileName=Gen_CNC_Illustrations.js",
			"lastUpdated": null,
			"version": "1",
			"type": "Illustration Rule",
			"isMandatory": "Yes",
			"language": "English",
			"fileSize": 14798,
			"description": ""
		},
		{
			"fileName": "Gen_CNC_Validations.js",
			"tabletFullPath": null,
			"publicURL": "https://gentouch.generali.co.th/omni-channel-admin-services/downloadContent?fileName=Gen_CNC_Validations.js",
			"lastUpdated": null,
			"version": "2",
			"type": "Validation Rule",
			"isMandatory": "Yes",
			"language": "English",
			"fileSize": 19741,
			"description": ""
		},
		{
			"fileName": "4N85Products.db",
			"tabletFullPath": null,
			"publicURL": "https://gentouch.generali.co.th/omni-channel-admin-services/downloadContent?fileName=4N85Products.db",
			"lastUpdated": null,
			"version": "1",
			"type": "Offline DB",
			"isMandatory": "Yes",
			"language": "English",
			"fileSize": 314368,
			"description": ""
		},
		{
			"fileName": "4N85_IllustrationOutput.json",
			"tabletFullPath": null,
			"publicURL": "https://gentouch.generali.co.th/omni-channel-admin-services/downloadContent?fileName=4N85_IllustrationOutput.json",
			"lastUpdated": null,
			"version": "1",
			"type": "Config Files",
			"isMandatory": "Yes",
			"language": "English",
			"fileSize": 26043,
			"description": ""
		},
		{
			"fileName": "WholeLife.jpg",
			"tabletFullPath": null,
			"publicURL": "https://gentouch.generali.co.th/omni-channel-admin-services/downloadContent?fileName=WholeLife.jpg",
			"lastUpdated": null,
			"version": "1",
			"type": "Image",
			"isMandatory": "Yes",
			"language": "English",
			"fileSize": 2956,
			"description": ""
		},
		{
			"fileName": "WholeLife905_Guideline.js",
			"tabletFullPath": null,
			"publicURL": "https://gentouch.generali.co.th/omni-channel-admin-services/downloadContent?fileName=WholeLife905_Guideline.js",
			"lastUpdated": null,
			"version": "1",
			"type": "Validation Rule",
			"isMandatory": "Yes",
			"language": "English",
			"fileSize": 75668,
			"description": ""
		},
		{
			"fileName": "WholeLife905_Validations.js",
			"tabletFullPath": null,
			"publicURL": "https://gentouch.generali.co.th/omni-channel-admin-services/downloadContent?fileName=WholeLife905_Validations.js",
			"lastUpdated": null,
			"version": "2",
			"type": "Validation Rule",
			"isMandatory": "Yes",
			"language": "English",
			"fileSize": 125513,
			"description": ""
		},
		{
			"fileName": "WholeLife905_Illustrations.js",
			"tabletFullPath": null,
			"publicURL": "https://gentouch.generali.co.th/omni-channel-admin-services/downloadContent?fileName=WholeLife905_Illustrations.js",
			"lastUpdated": null,
			"version": "2",
			"type": "Illustration Rule",
			"isMandatory": "Yes",
			"language": "English",
			"fileSize": 142438,
			"description": ""
		},
		{
			"fileName": "WholeLife_Brochure.pdf",
			"tabletFullPath": null,
			"publicURL": "https://gentouch.generali.co.th/omni-channel-admin-services/downloadContent?fileName=WholeLife_Brochure.pdf",
			"lastUpdated": null,
			"version": "2",
			"type": "PDF",
			"isMandatory": "Yes",
			"language": "English",
			"fileSize": 1574579,
			"description": " "
		},
		{
			"fileName": "WHOLELIFE-90-5-EXTRA_[P0F_1P05].pdf",
			"tabletFullPath": null,
			"publicURL": "https://gentouch.generali.co.th/omni-channel-admin-services/downloadContent?fileName=WHOLELIFE-90-5-EXTRA_[P0F_1P05].pdf",
			"lastUpdated": null,
			"version": "1",
			"type": "PDF",
			"isMandatory": "Yes",
			"language": "English",
			"fileSize": 1574579,
			"description": " "
		},
		{
			"fileName": "General_Provision-WHOLELIFE-90-5-EXTRA_[P0F_1P05].pdf",
			"tabletFullPath": null,
			"publicURL": "https://gentouch.generali.co.th/omni-channel-admin-services/downloadContent?fileName=General_Provision-WHOLELIFE-90-5-EXTRA_[P0F_1P05].pdf",
			"lastUpdated": null,
			"version": "1",
			"type": "PDF",
			"isMandatory": "Yes",
			"language": "English",
			"fileSize": 1574579,
			"description": " "
		},
		{
			"fileName": "1P05Products.db",
			"tabletFullPath": null,
			"publicURL": "https://gentouch.generali.co.th/omni-channel-admin-services/downloadContent?fileName=1P05Products.db",
			"lastUpdated": null,
			"version": "1",
			"type": "Offline DB",
			"isMandatory": "Yes",
			"language": "English",
			"fileSize": 1909760,
			"description": ""
		},
		{
			"fileName": "1P05_IllustrationOutput.json",
			"tabletFullPath": null,
			"publicURL": "https://gentouch.generali.co.th/omni-channel-admin-services/downloadContent?fileName=1P05_IllustrationOutput.json",
			"lastUpdated": null,
			"version": "2",
			"type": "Config Files",
			"isMandatory": "Yes",
			"language": "English",
			"fileSize": 26043,
			"description": ""
		},
		{
			"fileName": "GenSave10Plus_Guideline.js",
			"tabletFullPath": null,
			"publicURL": "https://gentouch.generali.co.th/omni-channel-admin-services/downloadContent?fileName=GenSave10Plus_Guideline.js",
			"lastUpdated": null,
			"version": "1",
			"type": "Validation Rule",
			"isMandatory": "Yes",
			"language": "English",
			"fileSize": 75668,
			"description": ""
		},
		{
			"fileName": "GenSave10Plus_Validations.js",
			"tabletFullPath": null,
			"publicURL": "https://gentouch.generali.co.th/omni-channel-admin-services/downloadContent?fileName=GenSave10Plus_Validations.js",
			"lastUpdated": null,
			"version": "1",
			"type": "Validation Rule",
			"isMandatory": "Yes",
			"language": "English",
			"fileSize": 125513,
			"description": ""
		},
		{
			"fileName": "GenSave10Plus_Illustration.js",
			"tabletFullPath": null,
			"publicURL": "https://gentouch.generali.co.th/omni-channel-admin-services/downloadContent?fileName=GenSave10Plus_Illustration.js",
			"lastUpdated": null,
			"version": "1",
			"type": "Illustration Rule",
			"isMandatory": "Yes",
			"language": "English",
			"fileSize": 142438,
			"description": ""
		},
		{
			"fileName": "GenSave10Plus_Brochure.pdf",
			"tabletFullPath": null,
			"publicURL": "https://gentouch.generali.co.th/omni-channel-admin-services/downloadContent?fileName=GenSave10Plus_Brochure.pdf",
			"lastUpdated": null,
			"version": "1",
			"type": "PDF",
			"isMandatory": "Yes",
			"language": "English",
			"fileSize": 1574579,
			"description": " "
		},
		{
			"fileName": "GENSAVE10PLUS_[GP04_GS10+].pdf",
			"tabletFullPath": null,
			"publicURL": "https://gentouch.generali.co.th/omni-channel-admin-services/downloadContent?fileName=GENSAVE10PLUS_[GP04_GS10+].pdf",
			"lastUpdated": null,
			"version": "1",
			"type": "PDF",
			"isMandatory": "Yes",
			"language": "English",
			"fileSize": 1574579,
			"description": " "
		},
		{
			"fileName": "General_Provision-GENSAVE10PLUS_ [B3620_GS10+].pdf",
			"tabletFullPath": null,
			"publicURL": "https://gentouch.generali.co.th/omni-channel-admin-services/downloadContent?fileName=General_Provision-GENSAVE10PLUS_ [B3620_GS10+].pdf",
			"lastUpdated": null,
			"version": "1",
			"type": "PDF",
			"isMandatory": "Yes",
			"language": "English",
			"fileSize": 1574579,
			"description": " "
		},
		{
			"fileName": "4P10Products.db",
			"tabletFullPath": null,
			"publicURL": "https://gentouch.generali.co.th/omni-channel-admin-services/downloadContent?fileName=4P10Products.db",
			"lastUpdated": null,
			"version": "1",
			"type": "Offline DB",
			"isMandatory": "Yes",
			"language": "English",
			"fileSize": 1909760,
			"description": ""
		},
		{
			"fileName": "4P10_IllustrationOutput.json",
			"tabletFullPath": null,
			"publicURL": "https://gentouch.generali.co.th/omni-channel-admin-services/downloadContent?fileName=4P10_IllustrationOutput.json",
			"lastUpdated": null,
			"version": "1",
			"type": "Config Files",
			"isMandatory": "Yes",
			"language": "English",
			"fileSize": 26043,
			"description": ""
		},
		{
			"fileName": "GenSave10Plus.jpg",
			"tabletFullPath": null,
			"publicURL": "https://gentouch.generali.co.th/omni-channel-admin-services/downloadContent?fileName=GenSave10Plus.jpg",
			"lastUpdated": null,
			"version": "1",
			"type": "Image",
			"isMandatory": "Yes",
			"language": "English",
			"fileSize": 5537498,
			"description": ""
		},
		{
			"fileName": "GenSave4Plus_Guideline.js",
			"tabletFullPath": null,
			"publicURL": "https://gentouch.generali.co.th/omni-channel-admin-services/downloadContent?fileName=GenSave4Plus_Guideline.js",
			"lastUpdated": null,
			"version": "1",
			"type": "Validation Rule",
			"isMandatory": "Yes",
			"language": "English",
			"fileSize": 75668,
			"description": ""
		},
		{
			"fileName": "GenSave4Plus_Validations.js",
			"tabletFullPath": null,
			"publicURL": "https://gentouch.generali.co.th/omni-channel-admin-services/downloadContent?fileName=GenSave4Plus_Validations.js",
			"lastUpdated": null,
			"version": "1",
			"type": "Validation Rule",
			"isMandatory": "Yes",
			"language": "English",
			"fileSize": 125513,
			"description": ""
		},
		{
			"fileName": "GenSave4Plus_Illustration.js",
			"tabletFullPath": null,
			"publicURL": "https://gentouch.generali.co.th/omni-channel-admin-services/downloadContent?fileName=GenSave4Plus_Illustration.js",
			"lastUpdated": null,
			"version": "1",
			"type": "Illustration Rule",
			"isMandatory": "Yes",
			"language": "English",
			"fileSize": 142438,
			"description": ""
		},
		{
			"fileName": "GenSave4Plus_Brochure.pdf",
			"tabletFullPath": null,
			"publicURL": "https://gentouch.generali.co.th/omni-channel-admin-services/downloadContent?fileName=GenSave4Plus_Brochure.pdf",
			"lastUpdated": null,
			"version": "1",
			"type": "PDF",
			"isMandatory": "Yes",
			"language": "English",
			"fileSize": 1574579,
			"description": " "
		},
		{
			"fileName": "GENSAVE4PLUS_[GP04_GS4+].pdf",
			"tabletFullPath": null,
			"publicURL": "https://gentouch.generali.co.th/omni-channel-admin-services/downloadContent?fileName=GENSAVE4PLUS_[GP04_GS4+].pdf",
			"lastUpdated": null,
			"version": "1",
			"type": "PDF",
			"isMandatory": "Yes",
			"language": "English",
			"fileSize": 1574579,
			"description": " "
		},
		{
			"fileName": "General_Provision-GENSAVE4PLUS_ [B3620_GS4+].pdf",
			"tabletFullPath": null,
			"publicURL": "https://gentouch.generali.co.th/omni-channel-admin-services/downloadContent?fileName=General_Provision-GENSAVE4PLUS_ [B3620_GS4+].pdf",
			"lastUpdated": null,
			"version": "1",
			"type": "PDF",
			"isMandatory": "Yes",
			"language": "English",
			"fileSize": 1574579,
			"description": " "
		},
		{
			"fileName": "4P04Products.db",
			"tabletFullPath": null,
			"publicURL": "https://gentouch.generali.co.th/omni-channel-admin-services/downloadContent?fileName=4P04Products.db",
			"lastUpdated": null,
			"version": "1",
			"type": "Offline DB",
			"isMandatory": "Yes",
			"language": "English",
			"fileSize": 1909760,
			"description": ""
		},
		{
			"fileName": "4P04_IllustrationOutput.json",
			"tabletFullPath": null,
			"publicURL": "https://gentouch.generali.co.th/omni-channel-admin-services/downloadContent?fileName=4P04_IllustrationOutput.json",
			"lastUpdated": null,
			"version": "1",
			"type": "Config Files",
			"isMandatory": "Yes",
			"language": "English",
			"fileSize": 26043,
			"description": ""
		},
		{
			"fileName": "GenSave4Plus.jpg",
			"tabletFullPath": null,
			"publicURL": "https://gentouch.generali.co.th/omni-channel-admin-services/downloadContent?fileName=GenSave4Plus.jpg",
			"lastUpdated": null,
			"version": "1",
			"type": "Image",
			"isMandatory": "Yes",
			"language": "English",
			"fileSize": 5537498,
			"description": ""
		}
	]
}