{
  "Version": "5",
  "Views": [
    {
      "id": "fnaCalculatorTabsInvestment",
      "enableCache": "false",
      "sections": [
        {
          "sectionId": 1,
          "subsections": [
            {
              "controlGroups": [
                {
                  "controls": [
                    {
                      "noSlider": true,
                      "controlElement": "onlyAlphabets",
                      "control": "rider_slider",
                      "slidername": "investmentPurposeSlider",
                      "id": "investmentPurposeSlider",
                      "type": "input",
                      "flag1": "true",
                      "inputId": "investmentPurposeInput",
                      "description": "What is purpose of your Investment goal?",
                      "translate-id": "fna.investmentPurpose",
                      "name": "investmentPurposeSliderTextBoxvalue",
                      "ngmodel": "FNAObject.FNA.goals[FNAObject.FNA.activeGoalIndex].parameters[0].value",
                      "textBoxValue": "FNAObject.FNA.goals[FNAObject.FNA.activeGoalIndex].parameters[0].textBoxValue",
                      "min": "",
                      "max": "",
                      "defaultValue": "",
                      "blur": "textboxfnew(FNAObject.FNA.goals[FNAObject.FNA.activeGoalIndex].parameters[0].textBoxValue,'investmentPurposeSlider','FNAObject.FNA.goals[FNAObject.FNA.activeGoalIndex].parameters[0].value');updateErrorCount('fnaCalculatorTabsInvestment')",
                      "defaultUnit": "NA",
                      "currentUnit": "FNAObject.FNA.goals[FNAObject.FNA.activeGoalIndex].parameters[0].unit",
                      "regexExpression": "leadNewNamePattern",
                      "sliderValidationMessage": "fna.investmentPurposeInputSliderWealthAccumulation",
                      "sliderValidationMessageModel": "fnaCalculatorTabsInvestment.investmentPurposeSliderTextBoxvalue.$error.pattern]]Pattern",
                      "noOfDivisions": "10",
                      "maxlength": "100",
                      "step" : "1",
                      "index": 0,
                      "required": "yes",
                      "validationModel": "fnaCalculatorTabsInvestment.investmentPurposeSliderTextBoxvalue",
                      "requiredMessage": "fna.investmentPurposeInputSliderWealthAccumulation"
                    },
                    {
                      "control": "rider_slider",
                      "slidername": "currentAgeSlider",
                      "id": "currentAgeSlider",
                      "type": "input",
                      "noSlider": true,
                      "inputId": "currentAgeInput",
                      "description": "Current Age",
                      "translate-id": "fna.currentAge",
                      "name": "currentAgeSliderTextBoxvalue",
                      "ngmodel": "FNAObject.FNA.goals[FNAObject.FNA.activeGoalIndex].parameters[1].value",
                      "textBoxValue": "FNAObject.FNA.goals[FNAObject.FNA.activeGoalIndex].parameters[1].textBoxValue",
                      "min": "",
                      "max": "",
                      "defaultValue": "FNAMyself.BasicDetails.age",
                      "defaultUnit": "NA",
                      "blur": "updateErrorCount('fnaCalculatorTabsInvestment')",
                      "currentUnit": "FNAObject.FNA.goals[FNAObject.FNA.activeGoalIndex].parameters[1].unit",
                      "noOfDivisions": "10",
                      "step" : "1",
                      "index": 1,
                      "disabled": "true",
                      "maxlength": "2",
                      "required": "yes",
                      "validationModel": "fnaCalculatorTabsInvestment.currentAgeSliderTextBoxvalue",
                      "requiredMessage": "fna.investmentPurposeInputSliderWealthAccumulation"
                    },
                    {
                      "control": "rider_slider",
                      "slidername": "investmentCostSlider",
                      "id": "investmentCostSlider",
                      "type": "input",
                      "inputId": "investmentCostInput",
                      "description": "How Much it will cost now?",
                      "translate-id": "fna.investmentCost",
                      "name": "investmentCostSliderTextBoxvalue",
                      "ngmodel": "FNAObject.FNA.goals[FNAObject.FNA.activeGoalIndex].parameters[2].value",
                      "textBoxValue": "FNAObject.FNA.goals[FNAObject.FNA.activeGoalIndex].parameters[2].textBoxValue",
                      "min": "1000000",
                      "max": "10000000000",
                      "defaultValue": "1000000000",
					  "isCurrency":true,
                      "defaultUnit": "K",
                      "blur": "textboxfn(FNAObject.FNA.goals[FNAObject.FNA.activeGoalIndex].parameters[2].textBoxValue,'investmentCostSlider','FNAObject.FNA.goals[FNAObject.FNA.activeGoalIndex].parameters[2].value');updateErrorCount('fnaCalculatorTabsInvestment')",
                      "sliderValidationMessage": "fna.investmentCostSliderWealthAccumulation",
                      "sliderValidationMessageModel": "fnaCalculatorTabsInvestment.investmentCostSliderTextBoxvalue.$error.gliNumericValidation]]Valid",
                      "currentUnit": "FNAObject.FNA.goals[FNAObject.FNA.activeGoalIndex].parameters[2].unit",
                      "noOfDivisions": "10",
                      "maxlength": "[[getMaxFieldLength(17)]]",
                      "step" : "1",
                      "index": 2
                    },
                    {
                      "control": "rider_slider",
                      "slidername": "investmentRealiseSlider",
                      "id": "investmentRealiseSlider",
                      "type": "input",
                      "numbersOnly": true,
                      "inputId": "investmentRealiseInput",
                      "description": "When do you want to realise your plan (at the Age of)",
                      "translate-id": "fna.investmentRealisePlan",
                      "name": "investmentRealiseSliderTextBoxvalue",
                      "ngmodel": "FNAObject.FNA.goals[FNAObject.FNA.activeGoalIndex].parameters[3].value",
                      "textBoxValue": "FNAObject.FNA.goals[FNAObject.FNA.activeGoalIndex].parameters[3].textBoxValue",
                      "min": "1",
                      "max": "99",
                      "defaultValue": "FNAMyself.BasicDetails.age+3",
                      "defaultUnit": "NA",
                      "blur": "textboxfn(FNAObject.FNA.goals[FNAObject.FNA.activeGoalIndex].parameters[3].textBoxValue,'investmentRealiseSlider','FNAObject.FNA.goals[FNAObject.FNA.activeGoalIndex].parameters[3].value');textboxfnew(FNAObject.FNA.goals[FNAObject.FNA.activeGoalIndex].parameters[3].textBoxValue,'investmentRealiseSlider','FNAObject.FNA.goals[FNAObject.FNA.activeGoalIndex].parameters[3].value');updateErrorCount('fnaCalculatorTabsInvestment')",
                      "sliderValidationMessage": "fna.investmentRealiseSliderWealthAccumulation",
                      "sliderValidationMessageModel": "fnaCalculatorTabsInvestment.investmentRealiseSliderTextBoxvalue.$error.gliNumericValidation]]Valid",
                      "currentUnit": "FNAObject.FNA.goals[FNAObject.FNA.activeGoalIndex].parameters[3].unit",
                      "noOfDivisions": "10",
                      "maxlength": "2",
                      "step" : "1",
                      "index": 3
                    },
                    {
                      "control": "rider_slider",
                      "slidername": "infaltionRateSlider",
                      "id": "infaltionRateSlider",
                      "type": "input",
                      "numbersOnly": true,
                      "inputId": "infaltionRateInput",
                      "description": "Inflation Rate",
                      "translate-id": "fna.infaltionRate",
                      "name": "infaltionRateSliderTextBoxvalue",
                      "ngmodel": "FNAObject.FNA.goals[FNAObject.FNA.activeGoalIndex].parameters[4].value",
                      "textBoxValue": "FNAObject.FNA.goals[FNAObject.FNA.activeGoalIndex].parameters[4].textBoxValue",
                      "min": "0",
                      "max": "15",
                      "defaultValue": "4",
                      "defaultUnit": "NA",
                      "blur": "textboxfn(FNAObject.FNA.goals[FNAObject.FNA.activeGoalIndex].parameters[4].textBoxValue,'infaltionRateSlider','FNAObject.FNA.goals[FNAObject.FNA.activeGoalIndex].parameters[4].value');updateErrorCount('fnaCalculatorTabsInvestment')",
                      "sliderValidationMessage": "fna.infaltionRateSliderWealthAccumulation",
                      "sliderValidationMessageModel": "fnaCalculatorTabsInvestment.infaltionRateSliderTextBoxvalue.$error.gliNumericValidation]]Valid",
                      "currentUnit": "FNAObject.FNA.goals[FNAObject.FNA.activeGoalIndex].parameters[4].unit",
                      "noOfDivisions": "10",
                      "maxlength": "2",
                      "step" : "1",
                      "index": 4
                    },
                    {
                      "control": "rider_slider",
                      "slidername": "investmentReturnRateSlider",
                      "id": "investmentReturnRateSlider",
                      "type": "input",
                      "numbersOnly": true,
                      "inputId": "investmentReturnRateInput",
                      "description": "Rate of Investment Return",
                      "translate-id": "fna.investmentReturnRate",
                      "name": "investmentReturnRateSliderTextBoxvalue",
                      "ngmodel": "FNAObject.FNA.goals[FNAObject.FNA.activeGoalIndex].parameters[5].value",
                      "textBoxValue": "FNAObject.FNA.goals[FNAObject.FNA.activeGoalIndex].parameters[5].textBoxValue",
                      "min": "0",
                      "max": "10",
                      "defaultValue": "6",
                      "defaultUnit": "NA",
                      "blur": "textboxfn(FNAObject.FNA.goals[FNAObject.FNA.activeGoalIndex].parameters[5].textBoxValue,'investmentReturnRateSlider','FNAObject.FNA.goals[FNAObject.FNA.activeGoalIndex].parameters[5].value');updateErrorCount('fnaCalculatorTabsInvestment')",
                      "sliderValidationMessage": "fna.investmentReturnRateSliderWealthAccumulation",
                      "sliderValidationMessageModel": "fnaCalculatorTabsInvestment.investmentReturnRateSliderTextBoxvalue.$error.gliNumericValidation]]Valid",
                      "currentUnit": "FNAObject.FNA.goals[FNAObject.FNA.activeGoalIndex].parameters[5].unit",
                      "noOfDivisions": "10",
                      "maxlength": "2",
                      "step" : "1",
                      "index": 5
                    },
                    {
                      "control": "rider_slider",
                      "slidername": "investmentFundSlider",
                      "id": "investmentFundSlider",
                      "type": "input",
                      "inputId": "investmentFundInput",
                      "description": "How much of existing fund allocated for the plan",
                      "translate-id": "fna.investmentFund",
                      "name": "investmentFundSliderTextBoxvalue",
                      "ngmodel": "FNAObject.FNA.goals[FNAObject.FNA.activeGoalIndex].parameters[6].value",
                      "textBoxValue": "FNAObject.FNA.goals[FNAObject.FNA.activeGoalIndex].parameters[6].textBoxValue",
                      "min": "0",
					  "isCurrency":true,
                      "max": "10000000000",
                      "defaultValue": "0",
                      "defaultUnit": "K",
                      "blur": "textboxfn(FNAObject.FNA.goals[FNAObject.FNA.activeGoalIndex].parameters[6].textBoxValue,'investmentFundSlider','FNAObject.FNA.goals[FNAObject.FNA.activeGoalIndex].parameters[6].value');updateErrorCount('fnaCalculatorTabsInvestment')",
                      "sliderValidationMessage": "fna.investmentFundSliderWealthAccumulation",
                      "sliderValidationMessageModel": "fnaCalculatorTabsInvestment.investmentFundSliderTextBoxvalue.$error.gliNumericValidation]]Valid",
                      "currentUnit": "FNAObject.FNA.goals[FNAObject.FNA.activeGoalIndex].parameters[6].unit",
                      "noOfDivisions": "10",
                      "maxlength": "[[getMaxFieldLength(17)]]",
                      "step" : "1",
                      "index": 6
                    }
                  ]
                }
              ],
              "title": ""
            }
          ]
        }
      ],
      "templateID": "TwoColumnCollapsibleSectionsWithSliders",
      "enableValidation": "YES"
    },
    {
      "id": "fnaCalculatorTabsRetirementGoal",
      "enableCache": "false",
      "sections": [
        {
          "sectionId": 1,
          "subsections": [
            {
              "controlGroups": [
                {
                  "controls": [
                    {
                      "control": "rider_slider",
                      "slidername": "currentAgeSlider",
                      "noSlider": true,
                      "id": "currentAgeSlider",
                      "type": "input",
                      "inputId": "currentAgeInput",
                      "description": "Current Age",
                      "translate-id": "fna.currentAge",
                      "name": "currentAgeSliderTextBoxvalue",
                      "ngmodel": "FNAObject.FNA.goals[FNAObject.FNA.activeGoalIndex].parameters[0].value",
                      "textBoxValue": "FNAObject.FNA.goals[FNAObject.FNA.activeGoalIndex].parameters[0].textBoxValue",
                      "min": "",
                      "max": "",
                      "defaultUnit": "NA",
                      "defaultValue": "FNAMyself.BasicDetails.age",
                      "blur": "textboxfn(FNAObject.FNA.goals[FNAObject.FNA.activeGoalIndex].parameters[0].textBoxValue,'currentAgeSlider','FNAObject.FNA.goals[FNAObject.FNA.activeGoalIndex].parameters[0].value');updateErrorCount('fnaCalculatorTabsRetirementGoal')",
                      "currentUnit": "FNAObject.FNA.goals[FNAObject.FNA.activeGoalIndex].parameters[0].unit",
                      "noOfDivisions": "10",
                      "index": 0,
                      "maxlength": "2",
                      "step" : "1",
                      "disabled": "true"
                    },
                    {
                      "control": "rider_slider",
                      "slidername": "retirementApproxLifeSlider",
                      "id": "retirementApproxLifeSlider",
                      "type": "input",
                      "numbersOnly": true,
                      "inputId": "retirementApproxLifeInput",
                      "description": "Approx life expectancy",
                      "translate-id": "fna.retireApproxLife",
                      "name": "retirementApproxLifeSliderTextBoxvalue",
                      "ngmodel": "FNAObject.FNA.goals[FNAObject.FNA.activeGoalIndex].parameters[1].value",
                      "textBoxValue": "FNAObject.FNA.goals[FNAObject.FNA.activeGoalIndex].parameters[1].textBoxValue",
                      "min": "1",
                      "max": "100",
                      "defaultValue": "70",
                      "defaultValueMale": "75",
                      "defaultValueFemale": "85",
                      "blur": "textboxfn(FNAObject.FNA.goals[FNAObject.FNA.activeGoalIndex].parameters[1].textBoxValue,'retirementApproxLifeSlider','FNAObject.FNA.goals[FNAObject.FNA.activeGoalIndex].parameters[1].value');textboxfnew(FNAObject.FNA.goals[FNAObject.FNA.activeGoalIndex].parameters[1].textBoxValue,'retirementApproxLifeSlider','FNAObject.FNA.goals[FNAObject.FNA.activeGoalIndex].parameters[1].value');updateErrorCount('fnaCalculatorTabsRetirementGoal')",
                      "sliderValidationMessage": "fna.retirementApproxLifeSlider",
                      "sliderValidationMessageModel": "[[fnaCalculatorTabsRetirementGoal.retirementApproxLifeSliderTextBoxvalue.$error.gliNumericValidation]]Valid",
                      "defaultUnit": "NA",
                      "currentUnit": "FNAObject.FNA.goals[FNAObject.FNA.activeGoalIndex].parameters[1].unit",
                      "noOfDivisions": "10",
                      "maxlength": "3",
                      "step" : "1",
                      "index": 1
                    },
                    {
                      "control": "rider_slider",
                      "slidername": "retirementPensionAgeSlider",
                      "id": "retirementPensionAgeSlider",
                      "type": "input",
                      "numbersOnly": true,
                      "inputId": "retirementPensionAgeInput",
                      "description": "Expected Pension Age",
                      "translate-id": "fna.retirePensionAge",
                      "name": "retirementPensionAgeSliderTextBoxvalue",
                      "ngmodel": "FNAObject.FNA.goals[FNAObject.FNA.activeGoalIndex].parameters[2].value",
                      "textBoxValue": "FNAObject.FNA.goals[FNAObject.FNA.activeGoalIndex].parameters[2].textBoxValue",
                      "min": "55",
                      "max": "100",
                      "defaultValue": "60",
                      "blur": "textboxfn(FNAObject.FNA.goals[FNAObject.FNA.activeGoalIndex].parameters[2].textBoxValue,'retirementPensionAgeSlider','FNAObject.FNA.goals[FNAObject.FNA.activeGoalIndex].parameters[2].value');updateErrorCount('fnaCalculatorTabsRetirementGoal')",
                      "sliderValidationMessage": "fna.retirementPensionAgeSlider",
                      "sliderValidationMessageModel": "[[fnaCalculatorTabsRetirementGoal.retirementPensionAgeSliderTextBoxvalue.$error.gliNumericValidation]]Valid",
                      "defaultUnit": "NA",
                      "currentUnit": "FNAObject.FNA.goals[FNAObject.FNA.activeGoalIndex].parameters[2].unit",
                      "noOfDivisions": "10",
                      "maxlength": "3",
                      "step" : "1",
                      "index": 2
                    },
                    {
                      "control": "rider_slider",
                      "slidername": "retirementMonthlyExpensesSlider",
                      "id": "retirementMonthlyExpensesSlider",
                      "type": "input",
					  "isCurrency":true,
                      "inputId": "retirementMonthlyExpensesInput",
                      "description": "Monthly expenses (if retiring today) ",
                      "translate-id": "fna.retireMonthlyExpenses",
                      "name": "retirementMonthlyExpensesSliderTextBoxvalue",
                      "ngmodel": "FNAObject.FNA.goals[FNAObject.FNA.activeGoalIndex].parameters[3].value",
                      "textBoxValue": "FNAObject.FNA.goals[FNAObject.FNA.activeGoalIndex].parameters[3].textBoxValue",
                      "min": "1000000",
                      "max": "10000000000",
                      "defaultValue": "50000000",
                      "blur": "textboxfn(FNAObject.FNA.goals[FNAObject.FNA.activeGoalIndex].parameters[3].textBoxValue,'retirementMonthlyExpensesSlider','FNAObject.FNA.goals[FNAObject.FNA.activeGoalIndex].parameters[3].value');updateErrorCount('fnaCalculatorTabsRetirementGoal')",
                      "sliderValidationMessage": "fna.retirementMonthlyExpensesSlider",
                      "sliderValidationMessageModel": "[[fnaCalculatorTabsRetirementGoal.retirementMonthlyExpensesSliderTextBoxvalue.$error.gliNumericValidation]]Valid",
                      "defaultUnit": "K",
                      "currentUnit": "FNAObject.FNA.goals[FNAObject.FNA.activeGoalIndex].parameters[3].unit",
                      "noOfDivisions": "10",
                      "maxlength": "[[getMaxFieldLength(16)]]",
                      "step" : "1",
                      "index": 3
                    },
                    {
                      "control": "rider_slider",
                      "slidername": "infaltionRateSlider",
                      "id": "infaltionRateSlider",
                      "type": "input",
                      "numbersOnly": true,
                      "inputId": "infaltionRateInput",
                      "description": "Inflation Rate",
                      "translate-id": "fna.infaltionRate",
                      "name": "infaltionRateSliderTextBoxvalue",
                      "ngmodel": "FNAObject.FNA.goals[FNAObject.FNA.activeGoalIndex].parameters[4].value",
                      "textBoxValue": "FNAObject.FNA.goals[FNAObject.FNA.activeGoalIndex].parameters[4].textBoxValue",
                      "min": "0",
                      "max": "15",
                      "defaultValue": "4",
                      "defaultUnit": "NA",
                      "blur": "textboxfn(FNAObject.FNA.goals[FNAObject.FNA.activeGoalIndex].parameters[4].textBoxValue,'infaltionRateSlider','FNAObject.FNA.goals[FNAObject.FNA.activeGoalIndex].parameters[4].value');updateErrorCount('fnaCalculatorTabsRetirementGoal')",
                      "sliderValidationMessage": "fna.infaltionRateSlider",
                      "sliderValidationMessageModel": "[[fnaCalculatorTabsRetirementGoal.infaltionRateSliderTextBoxvalue.$error.gliNumericValidation]]Valid",
                      "currentUnit": "FNAObject.FNA.goals[FNAObject.FNA.activeGoalIndex].parameters[4].unit",
                      "noOfDivisions": "10",
                      "maxlength": "2",
                      "step" : "1",
                      "index": 4
                    },
                    {
                      "control": "rider_slider",
                      "slidername": "interestRateSlider",
                      "id": "interestRateSlider",
                      "type": "input",
                      "numbersOnly": true,
                      "inputId": "interestRateInput",
                      "description": "Interest rate",
                      "translate-id": "fna.interestRate",
                      "name": "interestRateSliderTextBoxvalue",
                      "ngmodel": "FNAObject.FNA.goals[FNAObject.FNA.activeGoalIndex].parameters[5].value",
                      "textBoxValue": "FNAObject.FNA.goals[FNAObject.FNA.activeGoalIndex].parameters[5].textBoxValue",
                      "min": "0",
                      "max": "15",
                      "defaultValue": "6",
                      "blur": "textboxfn(FNAObject.FNA.goals[FNAObject.FNA.activeGoalIndex].parameters[5].textBoxValue,'interestRateSlider','FNAObject.FNA.goals[FNAObject.FNA.activeGoalIndex].parameters[5].value');updateErrorCount('fnaCalculatorTabsRetirementGoal')",
                      "sliderValidationMessage": "fna.interestRateSlider",
                      "sliderValidationMessageModel": "[[fnaCalculatorTabsRetirementGoal.interestRateSliderTextBoxvalue.$error.gliNumericValidation]]Valid",
                      "defaultUnit": "NA",
                      "currentUnit": "FNAObject.FNA.goals[FNAObject.FNA.activeGoalIndex].parameters[5].unit",
                      "noOfDivisions": "10",
                      "maxlength": "2",
                      "step" : "1",
                      "index": 5
                    }, 
                    {
                      "control": "rider_slider",
                      "slidername": "retirementPensionBalanceSlider",
                      "id": "retirementPensionBalanceSlider",
                      "type": "input",
                      "inputId": "retirementPensionBalanceInput",
                      "description": "Existing balance of pension fund (lumpsum)",
                      "translate-id": "fna.retirePensionBalance",
                      "name": "retirementPensionBalanceSliderTextBoxvalue",
                      "ngmodel": "FNAObject.FNA.goals[FNAObject.FNA.activeGoalIndex].parameters[6].value",
                      "textBoxValue": "FNAObject.FNA.goals[FNAObject.FNA.activeGoalIndex].parameters[6].textBoxValue",
                      "min": "0",
                      "max": "10000000000",
					  "isCurrency":true,
                      "defaultValue": "0",
                      "blur": "textboxfn(FNAObject.FNA.goals[FNAObject.FNA.activeGoalIndex].parameters[6].textBoxValue,'retirementPensionBalanceSlider','FNAObject.FNA.goals[FNAObject.FNA.activeGoalIndex].parameters[6].value');updateErrorCount('fnaCalculatorTabsRetirementGoal')",
                      "sliderValidationMessage": "fna.retirementPensionBalanceSlider",
                      "sliderValidationMessageModel": "[[fnaCalculatorTabsRetirementGoal.retirementPensionBalanceSliderTextBoxvalue.$error.gliNumericValidation]]Valid",
                      "defaultUnit": "K",
                      "currentUnit": "FNAObject.FNA.goals[FNAObject.FNA.activeGoalIndex].parameters[6].unit",
                      "noOfDivisions": "10",
                      "maxlength": "[[getMaxFieldLength(16)]]",
                      "step" : "1",
                      "index": 6
                    },
                    {
                      "control": "rider_slider",
                      "slidername": "savingsRateSlider",
                      "id": "savingsRateSlider",
                      "type": "input",
                      "numbersOnly": true,
                      "inputId": "savingsRateInput",
                      "description": "Savings Rate",
                      "translate-id": "fna.savingsRate",
                      "name": "savingsRateSliderTextBoxvalue",
                      "ngmodel": "FNAObject.FNA.goals[FNAObject.FNA.activeGoalIndex].parameters[7].value",
                      "textBoxValue": "FNAObject.FNA.goals[FNAObject.FNA.activeGoalIndex].parameters[7].textBoxValue",
                      "min": "0",
                      "max": "15",
                      "defaultValue": "4",
                      "blur": "textboxfn(FNAObject.FNA.goals[FNAObject.FNA.activeGoalIndex].parameters[7].textBoxValue,'savingsRateSlider','FNAObject.FNA.goals[FNAObject.FNA.activeGoalIndex].parameters[7].value');updateErrorCount('fnaCalculatorTabsRetirementGoal')",
                      "sliderValidationMessage": "fna.savingsRateSlider",
                      "sliderValidationMessageModel": "[[fnaCalculatorTabsRetirementGoal.savingsRateSliderTextBoxvalue.$error.gliNumericValidation]]Valid",
                      "defaultUnit": "NA",
                      "currentUnit": "FNAObject.FNA.goals[FNAObject.FNA.activeGoalIndex].parameters[7].unit",
                      "noOfDivisions": "10",
                      "maxlength": "2",
                      "step" : "1",
                      "index": 7
                    },
                    {
                      "control": "rider_slider",
                      "slidername": "retirementMonthlySavingsPensionSlider",
                      "id": "retirementMonthlySavingsPensionSlider",
                      "type": "input",
                      "inputId": "retirementMonthlySavingsPensionInput",
                      "description": "Monthly Savings towards Pension",
                      "translate-id": "fna.retireMonthlySavingsPension",
                      "name": "retirementMonthlySavingsPensionSliderTextBoxvalue",
                      "ngmodel": "FNAObject.FNA.goals[FNAObject.FNA.activeGoalIndex].parameters[8].value",
                      "textBoxValue": "FNAObject.FNA.goals[FNAObject.FNA.activeGoalIndex].parameters[8].textBoxValue",
                      "min": "5000000",
                      "max": "10000000000",
                      "defaultValue": "10000000",
					  "isCurrency":true,
                      "blur": "textboxfn(FNAObject.FNA.goals[FNAObject.FNA.activeGoalIndex].parameters[8].textBoxValue,'retirementMonthlySavingsPensionSlider','FNAObject.FNA.goals[FNAObject.FNA.activeGoalIndex].parameters[8].value');updateErrorCount('fnaCalculatorTabsRetirementGoal')",
                      "sliderValidationMessage": "fna.retirementMonthlySavingsPensionSlider",
                      "sliderValidationMessageModel": "[[fnaCalculatorTabsRetirementGoal.retirementMonthlySavingsPensionSliderTextBoxvalue.$error.gliNumericValidation]]Valid",
                      "defaultUnit": "K",
                      "currentUnit": "FNAObject.FNA.goals[FNAObject.FNA.activeGoalIndex].parameters[8].unit",
                      "noOfDivisions": "10",
                      "maxlength": "[[getMaxFieldLength(16)]]",
                      "step" : "1",
                      "index": 8
                    },
                    {
                      "control": "rider_slider",
                      "slidername": "retirementAnnualIncreaseSlider",
                      "id": "retirementAnnualIncreaseSlider",
                      "type": "input",
                      "numbersOnly": true,
                      "inputId": "retirementAnnualIncreaseInput",
                      "description": "Annual Increase in Savings (Salary growth rate)",
                      "translate-id": "fna.retireAnnualIncrease",
                      "name": "retirementAnnualIncreaseSliderTextBoxvalue",
                      "ngmodel": "FNAObject.FNA.goals[FNAObject.FNA.activeGoalIndex].parameters[9].value",
                      "textBoxValue": "FNAObject.FNA.goals[FNAObject.FNA.activeGoalIndex].parameters[9].textBoxValue",
                      "min": "1",
                      "max": "5",
                      "defaultValue": "5",
                      "blur": "textboxfn(FNAObject.FNA.goals[FNAObject.FNA.activeGoalIndex].parameters[9].textBoxValue,'retirementAnnualIncreaseSlider','FNAObject.FNA.goals[FNAObject.FNA.activeGoalIndex].parameters[9].value');updateErrorCount('fnaCalculatorTabsRetirementGoal')",
                      "sliderValidationMessage": "fna.retirementAnnualIncreaseSlider",
                      "sliderValidationMessageModel": "[[fnaCalculatorTabsRetirementGoal.retirementAnnualIncreaseSliderTextBoxvalue.$error.gliNumericValidation]]Valid",
                      "defaultUnit": "NA",
                      "currentUnit": "FNAObject.FNA.goals[FNAObject.FNA.activeGoalIndex].parameters[9].unit",
                      "noOfDivisions": "10",
                      "maxlength": "2",
                      "step" : "1",
                      "index": 9
                    },
                    {
                      "control": "rider_slider",
                      "slidername": "retirementPensionRateSlider",
                      "id": "retirementPensionRateSlider",
                      "type": "input",
                      "numbersOnly": true,
                      "inputId": "retirementPensionRateInput",
                      "description": "Pension Rate",
                      "translate-id": "fna.retirePensionRate",
                      "name": "retirementPensionRateSliderTextBoxvalue",
                      "ngmodel": "FNAObject.FNA.goals[FNAObject.FNA.activeGoalIndex].parameters[10].value",
                      "textBoxValue": "FNAObject.FNA.goals[FNAObject.FNA.activeGoalIndex].parameters[10].textBoxValue",
                      "min": "10",
                      "max": "50",
                      "defaultValue": "10",
                      "blur": "textboxfn(FNAObject.FNA.goals[FNAObject.FNA.activeGoalIndex].parameters[10].textBoxValue,'retirementPensionRateSlider','FNAObject.FNA.goals[FNAObject.FNA.activeGoalIndex].parameters[10].value');updateErrorCount('fnaCalculatorTabsRetirementGoal')",
                      "sliderValidationMessage": "fna.retirementPensionRateSlider",
                      "sliderValidationMessageModel": "[[fnaCalculatorTabsRetirementGoal.retirementPensionRateSliderTextBoxvalue.$error.gliNumericValidation]]Valid",
                      "defaultUnit": "NA",
                      "currentUnit": "FNAObject.FNA.goals[FNAObject.FNA.activeGoalIndex].parameters[10].unit",
                      "noOfDivisions": "10",
                      "maxlength": "2",
                      "step" : "1",
                      "index": 10
                    }
                  ]
                }
              ],
              "title": ""
            }
          ]
        }
      ],
      "templateID": "TwoColumnCollapsibleSectionsWithSliders",
      "enableValidation": "YES"
    },
    {
      "id": "fnaCalculatorTabsEducation",
      "enableCache": "false",
      "sections": [
        {
          "sectionId": 1,
          "subsections": [
            {
              "controlGroups": [
                {
                  "controls": [
                    {
                      "control": "rider_slider",
                      "slidername": "educationChildAgeSlider",
                      "id": "educationChildAgeSlider",
                      "type": "input",
                      "numbersOnly": true,
                      "inputId": "educationChildAgeInput",
                      "description": "Current Age of Child",
                      "translate-id": "fna.educationChildAge",
                      "name": "educationChildAgeSliderTextBoxvalue",
                      "ngmodel": "FNAObject.FNA.goals[FNAObject.FNA.activeGoalIndex].parameters[0].value",
                      "textBoxValue": "FNAObject.FNA.goals[FNAObject.FNA.activeGoalIndex].parameters[0].textBoxValue",
                      "min": "0",
                      "max": "19",
                      "defaultValue": "0",
                      "blur": "textboxfn(FNAObject.FNA.goals[FNAObject.FNA.activeGoalIndex].parameters[0].textBoxValue,'educationChildAgeSlider','FNAObject.FNA.goals[FNAObject.FNA.activeGoalIndex].parameters[0].value');updateErrorCount('fnaCalculatorTabsEducation')",
                      "sliderValidationMessage": "fna.educationChildAgeSlider",
                      "sliderValidationMessageModel": "[[fnaCalculatorTabsEducation.educationChildAgeSliderTextBoxvalue.$error.gliNumericValidation]]Valid",
                      "defaultUnit": "NA",
                      "currentUnit": "FNAObject.FNA.goals[FNAObject.FNA.activeGoalIndex].parameters[0].unit",
                      "noOfDivisions": "10",
                      "maxlength": "2",
                       "step" : "1",
                      "index": 0
                    },                    
                    {
                      "noSlider": true,
                      "controlElement": "onlyAlphabets",
                      "control": "rider_slider",
                      "slidername": "educationChildNameSlider",
                      "id": "educationChildNameSlider",
                      "type": "input",
                      "flag1": "true",
                      "inputId": "educationChildNameInput",
                      "description": "Name of The Child",
                      "translate-id": "fna.educationChildName",
                      "name": "educationChildNameSliderTextBoxvalue",
                      "ngmodel": "FNAObject.FNA.goals[FNAObject.FNA.activeGoalIndex].parameters[1].value",
                      "textBoxValue": "FNAObject.FNA.goals[FNAObject.FNA.activeGoalIndex].parameters[1].textBoxValue",
                      "upperCase":true,
                      "min": "",
                      "max": "",
                      "defaultValue": "",
                      "blur": "textboxfnew(FNAObject.FNA.goals[FNAObject.FNA.activeGoalIndex].parameters[1].textBoxValue,'educationChildNameSlider','FNAObject.FNA.goals[FNAObject.FNA.activeGoalIndex].parameters[1].value');updateErrorCount('fnaCalculatorTabsEducation')",
                      "regexExpression": "leadNewNamePattern",
                      "sliderValidationMessage": "fna.educationChildNameSlider",
                      "sliderValidationMessageModel": "[[fnaCalculatorTabsEducation.educationChildNameSliderTextBoxvalue.$error.pattern]]Pattern",
                      "defaultUnit": "NA",
                      "currentUnit": "FNAObject.FNA.goals[FNAObject.FNA.activeGoalIndex].parameters[1].unit",
                      "noOfDivisions": "10",
                      "maxlength": "30",
                      "step" : "1",
                      "index": 1,
                      "required": "yes",
                      "validationModel": "fnaCalculatorTabsEducation.educationChildNameSliderTextBoxvalue",
                      "requiredMessage": "fna.educationChildNameSlider"
                    },
                    {
                      "control": "rider_slider",
                      "slidername": "infaltionRateSlider",
                      "id": "infaltionRateSlider",
                      "type": "input",
                      "numbersOnly": true,
                      "inputId": "infaltionRateInput",
                      "description": "Inflation Rate",
                      "translate-id": "fna.infaltionRate",
                      "name": "infaltionRateSliderTextBoxvalue",
                      "ngmodel": "FNAObject.FNA.goals[FNAObject.FNA.activeGoalIndex].parameters[2].value",
                      "textBoxValue": "FNAObject.FNA.goals[FNAObject.FNA.activeGoalIndex].parameters[2].textBoxValue",
                      "min": "0",
                      "max": "15",
                      "defaultValue": "4",
                      "defaultUnit": "NA",
                      "blur": "textboxfn(FNAObject.FNA.goals[FNAObject.FNA.activeGoalIndex].parameters[2].textBoxValue,'infaltionRateSlider','FNAObject.FNA.goals[FNAObject.FNA.activeGoalIndex].parameters[2].value');updateErrorCount('fnaCalculatorTabsEducation')",
                      "sliderValidationMessage": "fna.infaltionRateSlider",
                      "sliderValidationMessageModel": "[[fnaCalculatorTabsEducation.infaltionRateSliderTextBoxvalue.$error.gliNumericValidation]]Valid",
                      "currentUnit": "FNAObject.FNA.goals[FNAObject.FNA.activeGoalIndex].parameters[2].unit",
                      "noOfDivisions": "10",
                      "maxlength": "2",
                       "step" : "1",
                      "index": 2
                    },
                    {
                      "control": "rider_slider",
                      "slidername": "educationInvestInterestRateSlider",
                      "id": "educationInvestInterestRateSlider",
                      "type": "input",
                      "numbersOnly": true,
                      "inputId": "educationInvestInterestRateInput",
                      "description": "Investment Interest rate",
                      "translate-id": "fna.educationInvestInterestRate",
                      "name": "educationInvestInterestRateSliderTextBoxvalue",
                      "ngmodel": "FNAObject.FNA.goals[FNAObject.FNA.activeGoalIndex].parameters[3].value",
                      "textBoxValue": "FNAObject.FNA.goals[FNAObject.FNA.activeGoalIndex].parameters[3].textBoxValue",
                      "min": "0",
                      "max": "10",
                      "defaultValue": "6",
                      "blur": "textboxfn(FNAObject.FNA.goals[FNAObject.FNA.activeGoalIndex].parameters[3].textBoxValue,'educationInvestInterestRateSlider','FNAObject.FNA.goals[FNAObject.FNA.activeGoalIndex].parameters[3].value');updateErrorCount('fnaCalculatorTabsEducation')",
                      "sliderValidationMessage": "fna.educationInvestInterestRateSlider",
                      "sliderValidationMessageModel": "[[fnaCalculatorTabsEducation.educationInvestInterestRateSliderTextBoxvalue.$error.gliNumericValidation]]Valid",
                      "defaultUnit": "NA",
                      "currentUnit": "FNAObject.FNA.goals[FNAObject.FNA.activeGoalIndex].parameters[3].unit",
                      "noOfDivisions": "10",
                      "maxlength": "2",
                       "step" : "1",
                      "index": 3
                    },
                    {
                      "control": "rider_slider",
                      "slidername": "savingsRateSlider",
                      "id": "savingsRateSlider",
                      "type": "input",
                      "numbersOnly": true,
                      "inputId": "savingsRateInput",
                      "description": "Savings Rate",
                      "translate-id": "fna.savingsRate",
                      "name": "savingsRateSliderTextBoxvalue",
                      "ngmodel": "FNAObject.FNA.goals[FNAObject.FNA.activeGoalIndex].parameters[4].value",
                      "textBoxValue": "FNAObject.FNA.goals[FNAObject.FNA.activeGoalIndex].parameters[4].textBoxValue",
                      "min": "0.00",
                      "max": "5.00",
                      "defaultValue": "2.00",
                      "blur": "textboxfn(FNAObject.FNA.goals[FNAObject.FNA.activeGoalIndex].parameters[4].textBoxValue,'savingsRateSlider','FNAObject.FNA.goals[FNAObject.FNA.activeGoalIndex].parameters[4].value');updateErrorCount('fnaCalculatorTabsEducation')",
                      "sliderValidationMessage": "fna.savingsRateSlider",
                      "sliderValidationMessageModel": "[[fnaCalculatorTabsEducation.savingsRateSliderTextBoxvalue.$error.gliNumericValidation]]Valid",
                      "defaultUnit": "NA",
                      "currentUnit": "FNAObject.FNA.goals[FNAObject.FNA.activeGoalIndex].parameters[4].unit",
                      "noOfDivisions": "10",
                      "maxlength": "2",
                       "step" : "1",
                      "index": 4
                    },
                    {
                      "control": "rider_slider",
                      "slidername": "educationLevelOfEducation1Slider",
                      "id": "educationLevelOfEducation1Slider",
                      "type": "input",
                      "noSlider": true,
                      "inputId": "educationLevelOfEducation1Input",
                      "description": "Level of Education",
                      "translate-id": "fna.educationLevelOfEducation",
                      "name": "educationLevelOfEducation1SliderTextBoxvalue",
                      "ngmodel": "FNAObject.FNA.goals[FNAObject.FNA.activeGoalIndex].parameters[5].value",
                      "textBoxValue": "FNAObject.FNA.goals[FNAObject.FNA.activeGoalIndex].parameters[5].textBoxValue",
                      "min": "",
                      "max": "",
                      "defaultValue": "[[s1BachelorDegree]]",
                      "defaultValueUsed": true,
                      "blur": "textboxfn(FNAObject.FNA.goals[FNAObject.FNA.activeGoalIndex].parameters[5].textBoxValue,'educationLevelOfEducation1Slider','FNAObject.FNA.goals[FNAObject.FNA.activeGoalIndex].parameters[5].value');updateErrorCount('fnaCalculatorTabsEducation')",
                      "sliderValidationMessage": "fna.sliderTextboxValidationMessage",
                      "sliderValidationMessageModel": "[[fnaCalculatorTabsEducation.educationLevelOfEducation1SliderTextBoxvalue.$error.gliNumericValidation]]Valid",
                      "defaultUnit": "NA",
                      "currentUnit": "FNAObject.FNA.goals[FNAObject.FNA.activeGoalIndex].parameters[5].unit",
                      "noOfDivisions": "10",
                      "maxlength": "30",
                      "disabled": "true",
                       "step" : "1",
                      "index": 5
                    },
                    {
                      "control": "rider_slider",
                      "slidername": "educationEntryAge1Slider",
                      "id": "educationEntryAge1Slider",
                      "type": "input",
                      "numbersOnly": true,
                      "inputId": "educationEntryAge1Input",
                      "description": "Entry age",
                      "translate-id": "fna.educationEntryAge",
                      "name": "educationEntryAge1SliderTextBoxvalue",
                      "ngmodel": "FNAObject.FNA.goals[FNAObject.FNA.activeGoalIndex].parameters[6].value",
                      "textBoxValue": "FNAObject.FNA.goals[FNAObject.FNA.activeGoalIndex].parameters[6].textBoxValue",
                      "min": "16",
                      "max": "50",
                      "defaultValue": "18",
                      "blur": "textboxfn(FNAObject.FNA.goals[FNAObject.FNA.activeGoalIndex].parameters[6].textBoxValue,'educationEntryAge1Slider','FNAObject.FNA.goals[FNAObject.FNA.activeGoalIndex].parameters[6].value');updateErrorCount('fnaCalculatorTabsEducation')",
                      "sliderValidationMessage": "fna.educationEntryAge1Slider",
                      "sliderValidationMessageModel": "[[fnaCalculatorTabsEducation.educationEntryAge1SliderTextBoxvalue.$error.gliNumericValidation]]Valid",
                      "defaultUnit": "NA",
                      "currentUnit": "FNAObject.FNA.goals[FNAObject.FNA.activeGoalIndex].parameters[6].unit",
                      "noOfDivisions": "10",
                      "maxlength": "2",
                       "step" : "1",
                      "index": 6
                    },
                    {
                      "control": "rider_slider",
                      "slidername": "educationEducationCost1Slider",
					  "activeLink":true,
					  "dataTarget":"EducationInfoMaps",
                      "id": "educationEducationCost1Slider",
                      "type": "input",
                      "inputId": "educationEducationCost1Input",
                      "description": "Total Education Cost",
                      "translate-id": "fna.educationEducationCost",
                      "name": "educationEducationCost1SliderTextBoxvalue",
                      "ngmodel": "FNAObject.FNA.goals[FNAObject.FNA.activeGoalIndex].parameters[7].value",
                      "textBoxValue": "FNAObject.FNA.goals[FNAObject.FNA.activeGoalIndex].parameters[7].textBoxValue",
                      "min": "600000000",
                      "max": "10000000000",
                      "defaultValue": "1000000000",
					  "isCurrency":true,
                      "blur": "textboxfn(FNAObject.FNA.goals[FNAObject.FNA.activeGoalIndex].parameters[7].textBoxValue,'educationEducationCost1Slider','FNAObject.FNA.goals[FNAObject.FNA.activeGoalIndex].parameters[7].value');updateErrorCount('fnaCalculatorTabsEducation')",
                      "sliderValidationMessage": "fna.educationEducationCost1Slider",
                      "sliderValidationMessageModel": "[[fnaCalculatorTabsEducation.educationEducationCost1SliderTextBoxvalue.$error.gliNumericValidation]]Valid",
                      "defaultUnit": "K",
                      "currentUnit": "FNAObject.FNA.goals[FNAObject.FNA.activeGoalIndex].parameters[7].unit",
                      "noOfDivisions": "10",
                      "maxlength": "[[getMaxFieldLength(17)]]",
                       "step" : "1",
                      "index": 7
                    },
                    {
                      "control": "rider_slider",
                      "slidername": "educationLivingCost1Slider",
                      "id": "educationLivingCost1Slider",
                      "type": "input",
                      "inputId": "educationLivingCost1Input",
                      "description": "Total Living Cost",
                      "translate-id": "fna.educationLivingCost",
                      "name": "educationLivingCost1SliderTextBoxvalue",
                      "ngmodel": "FNAObject.FNA.goals[FNAObject.FNA.activeGoalIndex].parameters[8].value",
                      "textBoxValue": "FNAObject.FNA.goals[FNAObject.FNA.activeGoalIndex].parameters[8].textBoxValue",
                      "min": "400000000",
                      "max": "5000000000",
                      "defaultValue": "1000000000",
					  "isCurrency":true,
                      "blur": "textboxfn(FNAObject.FNA.goals[FNAObject.FNA.activeGoalIndex].parameters[8].textBoxValue,'educationLivingCost1Slider','FNAObject.FNA.goals[FNAObject.FNA.activeGoalIndex].parameters[8].value');updateErrorCount('fnaCalculatorTabsEducation')",
                      "sliderValidationMessage": "fna.educationLivingCost1Slider",
                      "sliderValidationMessageModel": "[[fnaCalculatorTabsEducation.educationLivingCost1SliderTextBoxvalue.$error.gliNumericValidation]]Valid",
                      "defaultUnit": "K",
                      "currentUnit": "FNAObject.FNA.goals[FNAObject.FNA.activeGoalIndex].parameters[8].unit",
                      "noOfDivisions": "10",
                      "maxlength": "[[getMaxFieldLength(17)]]",
                       "step" : "1",
                      "index": 8
                    },
                    {
                      "control": "rider_slider",
                      "slidername": "educationLumpsum1Slider",
                      "id": "educationLumpsum1Slider",
                      "type": "input",
                      "inputId": "educationLumpsum1Input",
                      "description": "Available Lumpsum Savings",
                      "translate-id": "fna.educationLumpsum",
                      "name": "educationLumpsum1SliderTextBoxvalue",
                      "ngmodel": "FNAObject.FNA.goals[FNAObject.FNA.activeGoalIndex].parameters[9].value",
                      "textBoxValue": "FNAObject.FNA.goals[FNAObject.FNA.activeGoalIndex].parameters[9].textBoxValue",
                      "min": "0",
                      "max": "10000000000",
                      "defaultValue": "200000000",
					  "isCurrency":true,
                      "blur": "textboxfn(FNAObject.FNA.goals[FNAObject.FNA.activeGoalIndex].parameters[9].textBoxValue,'educationLumpsum1Slider','FNAObject.FNA.goals[FNAObject.FNA.activeGoalIndex].parameters[9].value');updateErrorCount('fnaCalculatorTabsEducation')",
                      "sliderValidationMessage": "fna.educationLumpsum1Slider",
                      "sliderValidationMessageModel": "[[fnaCalculatorTabsEducation.educationLumpsum1SliderTextBoxvalue.$error.gliNumericValidation]]Valid",
                      "defaultUnit": "K",
                      "currentUnit": "FNAObject.FNA.goals[FNAObject.FNA.activeGoalIndex].parameters[9].unit",
                      "noOfDivisions": "10",
                      "maxlength": "[[getMaxFieldLength(17)]]",
                       "step" : "1",
                      "index": 9
                    },
                    {
                      "control": "rider_slider",
                      "slidername": "monthlySavings1Slider",
                      "id": "monthlySavings1Slider",
                      "type": "input",
                      "inputId": "monthlySavings1Input",
                      "description": "Monthly Savings",
                      "translate-id": "fna.monthlySavings",
                      "name": "monthlySavings1SliderTextBoxvalue",
                      "ngmodel": "FNAObject.FNA.goals[FNAObject.FNA.activeGoalIndex].parameters[10].value",
                      "textBoxValue": "FNAObject.FNA.goals[FNAObject.FNA.activeGoalIndex].parameters[10].textBoxValue",
                      "min": "5000000",
                      "max": "10000000000",
					  "isCurrency":true,
                      "defaultValue": "15000000",
                      "blur": "textboxfn(FNAObject.FNA.goals[FNAObject.FNA.activeGoalIndex].parameters[10].textBoxValue,'monthlySavings1Slider','FNAObject.FNA.goals[FNAObject.FNA.activeGoalIndex].parameters[10].value');updateErrorCount('fnaCalculatorTabsEducation')",
                      "sliderValidationMessage": "fna.monthlySavings1Slider",
                      "sliderValidationMessageModel": "[[fnaCalculatorTabsEducation.monthlySavings1SliderTextBoxvalue.$error.gliNumericValidation]]Valid",
                      "defaultUnit": "K",
                      "currentUnit": "FNAObject.FNA.goals[FNAObject.FNA.activeGoalIndex].parameters[10].unit",
                      "noOfDivisions": "10",
                      "maxlength": "[[getMaxFieldLength(17)]]",
                       "step" : "1",
                      "index": 10
                    }
                  ]
                }
              ],
              "title": ""
            }
          ]
        }        
      ],
      "templateID": "TwoColumnCollapsibleSectionsWithSliders",
      "enableValidation": "YES"
    },
    {
      "id": "fnaCalculatorTabsHealth",
      "enableCache": "false",
      "sections": [
        {
          "sectionId": 1,
          "subsections": [
            {
              "controlGroups": [
                {
                  "controls": [
                    {
                      "control": "rider_slider",
                      "slidername": "annualRevenueSlider",
                      "id": "annualRevenueSlider",
                      "type": "input",
                      "inputId": "annualRevenueInput",
                      "description": "Annual Revenue",
                      "translate-id": "fna.healthAnnualRevenue",
                      "name": "annualRevenueTextBoxvalue",
                      "ngmodel": "FNAObject.FNA.goals[FNAObject.FNA.activeGoalIndex].parameters[0].value",
                      "defaultValue": "50000000",
                      "textBoxValue": "FNAObject.FNA.goals[FNAObject.FNA.activeGoalIndex].parameters[0].textBoxValue",
                      "min": "10000000",
                      "max": "5000000000",
					  "isCurrency":true,
                      "blur": "textboxfn(FNAObject.FNA.goals[FNAObject.FNA.activeGoalIndex].parameters[0].textBoxValue,'annualRevenueSlider','FNAObject.FNA.goals[FNAObject.FNA.activeGoalIndex].parameters[0].value');updateErrorCount('fnaCalculatorTabsHealth')",
                      "sliderValidationMessage": "fna.wealthTransferAmountOfAssetSlider",
                      "sliderValidationMessageModel": "[[fnaCalculatorTabsHealth.annualRevenueTextBoxvalue.$error.gliNumericValidation]]Valid",
                      "defaultUnit": "K",
                      "currentUnit": "FNAObject.FNA.goals[FNAObject.FNA.activeGoalIndex].parameters[0].unit",
                      "noOfDivisions": "10",
                      "maxlength": "[[getMaxFieldLength(17)]]",
                       "step" : "1",
                      "index": 0
                    },
                    {
                      "control": "rider_slider",
                      "slidername": "annualExpensesSlider",
                      "id": "annualExpensesSlider",
                      "type": "input",                      
                      "inputId": "annualExpensesInput",
                      "description": "Annual Expenses",
                      "translate-id": "fna.healthAnnualExpenses",
                      "name": "annualExpensesTextBoxvalue",
                      "ngmodel": "FNAObject.FNA.goals[FNAObject.FNA.activeGoalIndex].parameters[1].value",
                      "textBoxValue": "FNAObject.FNA.goals[FNAObject.FNA.activeGoalIndex].parameters[1].textBoxValue",
                      "min": "6000000",
                      "max": "3000000000",
                      "isCurrency":true,
                      "defaultValue": "30000000",
                      "blur": "textboxfn(FNAObject.FNA.goals[FNAObject.FNA.activeGoalIndex].parameters[1].textBoxValue,'annualExpensesSlider','FNAObject.FNA.goals[FNAObject.FNA.activeGoalIndex].parameters[1].value');updateErrorCount('fnaCalculatorTabsHealth')",
                      "sliderValidationMessage": "fna.wealthTransferAssetTransferSlider",
                      "sliderValidationMessageModel": "[[fnaCalculatorTabsHealth.annualExpensesTextBoxvalue.$error.gliNumericValidation]]Valid",
                      "defaultUnit": "K",
                      "currentUnit": "FNAObject.FNA.goals[FNAObject.FNA.activeGoalIndex].parameters[1].unit",
                      "noOfDivisions": "10",
                      "maxlength": "[[getMaxFieldLength(17)]]",
                       "step" : "1",
                      "index": 1
                    },
                    {
                      "control": "rider_slider",
                      "slidername": "depositSlider",
                      "id": "depositSlider",
                      "type": "input",                      
                      "inputId": "depositInput",
                      "description": "Deposit",
                      "translate-id": "fna.healthDeposit",
                      "name": "depositTextBoxvalue",
                      "ngmodel": "FNAObject.FNA.goals[FNAObject.FNA.activeGoalIndex].parameters[2].value",
                      "textBoxValue": "FNAObject.FNA.goals[FNAObject.FNA.activeGoalIndex].parameters[2].textBoxValue",
                      "defaultValue": "5000000",
                      "min": "0",
                      "max": "4500000000",
                      "isCurrency":true,
                      "blur": "textboxfn(FNAObject.FNA.goals[FNAObject.FNA.activeGoalIndex].parameters[2].textBoxValue,'depositSlider','FNAObject.FNA.goals[FNAObject.FNA.activeGoalIndex].parameters[2].value');updateErrorCount('fnaCalculatorTabsHealth')",
                      "sliderValidationMessage": "fna.wealthTransferTimeforAssetSlider",
                      "sliderValidationMessageModel": "[[fnaCalculatorTabsHealth.depositTextBoxvalue.$error.gliNumericValidation]]Valid",
                      "defaultUnit": "K",
                      "currentUnit": "FNAObject.FNA.goals[FNAObject.FNA.activeGoalIndex].parameters[2].unit",
                      "noOfDivisions": "10",
                      "maxlength": "[[getMaxFieldLength(17)]]",
                       "step" : "1",
                      "index": 2
                    },
					{
                        "control": "rider_slider",
                        "slidername": "healthRequiredSlider",
                        "id": "healthRequiredSlider",
                        "type": "input",
                        "inputId": "healthRequiredInput",
                        "description": "Health required",
                        "translate-id": "fna.healthHealthRequired",
                        "name": "healthRequiredTextBoxvalue",
                        "ngmodel": "FNAObject.FNA.goals[FNAObject.FNA.activeGoalIndex].parameters[3].value",
                        "textBoxValue": "FNAObject.FNA.goals[FNAObject.FNA.activeGoalIndex].parameters[3].textBoxValue",
                        "defaultValue": "100000000",
                        "min": "4000000",
                        "max": "4994000000",
						"isCurrency":true,
                        "blur": "textboxfn(FNAObject.FNA.goals[FNAObject.FNA.activeGoalIndex].parameters[3].textBoxValue,'healthRequiredSlider','FNAObject.FNA.goals[FNAObject.FNA.activeGoalIndex].parameters[3].value');updateErrorCount('fnaCalculatorTabsHealth')",
                        "sliderValidationMessage": "fna.wealthTransferAvailableLumpsumSlider",
                        "sliderValidationMessageModel": "[[fnaCalculatorTabsHealth.healthRequiredTextBoxvalue.$error.gliNumericValidation]]Valid",
                        "defaultUnit": "K",
                        "currentUnit": "FNAObject.FNA.goals[FNAObject.FNA.activeGoalIndex].parameters[3].unit",
                        "noOfDivisions": "10",
                        "maxlength": "[[getMaxFieldLength(17)]]",
                         "step" : "1",
                        "index": 3
                      },
                      {
                      "control": "rider_slider",
                      "slidername": "employeeBenefitSlider",
                      "id": "employeeBenefitSlider",
                      "type": "input",                      
                      "inputId": "employeeBenefitInput",
                      "description": "Employee benefit from HR (welfare)",
                      "translate-id": "fna.healthEmployeeBenefit",
                      "name": "employeeBenefitTextBoxvalue",
                      "ngmodel": "FNAObject.FNA.goals[FNAObject.FNA.activeGoalIndex].parameters[4].value",
                      "textBoxValue": "FNAObject.FNA.goals[FNAObject.FNA.activeGoalIndex].parameters[4].textBoxValue",
                      "defaultValue": "0",
                      "min": "0",
                      "max": "5000000000",
                      "isCurrency":true,
                      "defaultUnit": "K",
                      "blur": "textboxfn(FNAObject.FNA.goals[FNAObject.FNA.activeGoalIndex].parameters[4].textBoxValue,'employeeBenefitSlider','FNAObject.FNA.goals[FNAObject.FNA.activeGoalIndex].parameters[4].value');updateErrorCount('fnaCalculatorTabsHealth')",
                      "sliderValidationMessage": "fna.infaltionRateSlider",
                      "sliderValidationMessageModel": "[[fnaCalculatorTabsHealth.employeeBenefitTextBoxvalue.$error.gliNumericValidation]]Valid",
                      "currentUnit": "FNAObject.FNA.goals[FNAObject.FNA.activeGoalIndex].parameters[4].unit",
                      "noOfDivisions": "10",
                      "maxlength": "[[getMaxFieldLength(17)]]",
                       "step" : "1",
                      "index": 4
                    }
                  ]
                }
              ],
              "title": ""
            }
          ]
        }       
      ],
      "templateID": "TwoColumnCollapsibleSectionsWithSliders",
      "enableValidation": "YES"
    },
    {
      "id": "fnaCalculatorTabsProtectionGoal",
      "enableCache": "false",
      "sections": [
        {
          "sectionId": 1,
          "subsections": [
            {
              "controlGroups": [
                {
                  "controls": [
                    {
                      "control": "rider_slider",
                      "slidername": "protectionCurrentMonthlyExpensesSlider",
                      "id": "protectionCurrentMonthlyExpensesSlider",
                      "type": "input",
                      "inputId": "protectionCurrentMonthlyExpensesInput",
                      "description": "Current Monthly Expenses",
                      "translate-id": "fna.protectionCurrentMonthlyExpenses",
                      "name": "protectionCurrentMonthlyExpensesSliderTextBoxvalue",
                      "ngmodel": "FNAObject.FNA.goals[FNAObject.FNA.activeGoalIndex].parameters[0].value",
                      "textBoxValue": "FNAObject.FNA.goals[FNAObject.FNA.activeGoalIndex].parameters[0].textBoxValue",
                      "min": "5000000",
                      "max": "5000000000",
                      "defaultValue": "50000000",
					  "isCurrency":true,
                      "blur": "textboxfn(FNAObject.FNA.goals[FNAObject.FNA.activeGoalIndex].parameters[0].textBoxValue,'protectionCurrentMonthlyExpensesSlider','FNAObject.FNA.goals[FNAObject.FNA.activeGoalIndex].parameters[0].value');updateErrorCount('fnaCalculatorTabsProtectionGoal')",
                      "sliderValidationMessage": "fna.protectionCurrentMonthlyExpensesSlider",
                      "sliderValidationMessageModel": "[[fnaCalculatorTabsProtectionGoal.protectionCurrentMonthlyExpensesSliderTextBoxvalue.$error.gliNumericValidation]]Valid",
                      "defaultUnit": "K",
                      "currentUnit": "FNAObject.FNA.goals[FNAObject.FNA.activeGoalIndex].parameters[0].unit",
                      "noOfDivisions": "10",
                      "maxlength": "[[getMaxFieldLength(17)]]",
                       "step" : "1",
                      "index": 0
                    },
                    {
                      "control": "rider_slider",
                      "slidername": "protectionOutstandingLoansSlider",
                      "id": "protectionOutstandingLoansSlider",
                      "type": "input",
                      "inputId": "protectionOutstandingLoansInput",
                      "description": "Outstanding Loans/ Emergency Fund",
                      "translate-id": "fna.protectionOutstandingLoans",
                      "name": "protectionOutstandingLoansSliderTextBoxvalue",
                      "ngmodel": "FNAObject.FNA.goals[FNAObject.FNA.activeGoalIndex].parameters[1].value",
                      "textBoxValue": "FNAObject.FNA.goals[FNAObject.FNA.activeGoalIndex].parameters[1].textBoxValue",
                      "min": "0",
                      "max": "50000000000",
					  "isCurrency":true,
                      "defaultValue": "1000000000",
                      "blur": "textboxfn(FNAObject.FNA.goals[FNAObject.FNA.activeGoalIndex].parameters[1].textBoxValue,'protectionOutstandingLoansSlider','FNAObject.FNA.goals[FNAObject.FNA.activeGoalIndex].parameters[1].value');updateErrorCount('fnaCalculatorTabsProtectionGoal')",
                      "sliderValidationMessage": "fna.protectionOutstandingLoansSlider",
                      "sliderValidationMessageModel": "[[fnaCalculatorTabsProtectionGoal.protectionOutstandingLoansSliderTextBoxvalue.$error.gliNumericValidation]]Valid",
                      "defaultUnit": "K",
                      "currentUnit": "FNAObject.FNA.goals[FNAObject.FNA.activeGoalIndex].parameters[1].unit",
                      "noOfDivisions": "10",
                      "maxlength": "[[getMaxFieldLength(17)]]",
                       "step" : "1",
                      "index": 1
                    },
                    {
                      "control": "rider_slider",
                      "slidername": "protectionLiquidAssetsSlider",
                      "id": "protectionLiquidAssetsSlider",
                      "type": "input",
                      "inputId": "protectionLiquidAssetsInput",
                      "description": "Liquid Assets",
                      "translate-id": "fna.protectionLiquidAssets",
                      "name": "protectionLiquidAssetsSliderTextBoxvalue",
                      "ngmodel": "FNAObject.FNA.goals[FNAObject.FNA.activeGoalIndex].parameters[2].value",
                      "textBoxValue": "FNAObject.FNA.goals[FNAObject.FNA.activeGoalIndex].parameters[2].textBoxValue",
                      "min": "0",
                      "max": "60000000000",
                      "defaultValue": "100000000",
					  "isCurrency":true,
                      "blur": "textboxfn(FNAObject.FNA.goals[FNAObject.FNA.activeGoalIndex].parameters[2].textBoxValue,'protectionLiquidAssetsSlider','FNAObject.FNA.goals[FNAObject.FNA.activeGoalIndex].parameters[2].value');textboxfn(FNAObject.FNA.goals[FNAObject.FNA.activeGoalIndex].parameters[2].textBoxValue,'protectionLiquidAssetsSlider','FNAObject.FNA.goals[FNAObject.FNA.activeGoalIndex].parameters[2].value');updateErrorCount('fnaCalculatorTabsProtectionGoal')",
                      "sliderValidationMessage": "fna.protectionLiquidAssetsSlider",
                      "sliderValidationMessageModel": "[[fnaCalculatorTabsProtectionGoal.protectionLiquidAssetsSliderTextBoxvalue.$error.gliNumericValidation]]Valid",
                      "defaultUnit": "K",
                      "currentUnit": "FNAObject.FNA.goals[FNAObject.FNA.activeGoalIndex].parameters[2].unit",
                      "noOfDivisions": "10",
                      "maxlength": "[[getMaxFieldLength(17)]]",
                       "step" : "1",
                      "index": 2
                    },
                    {
                      "control": "rider_slider",
                      "slidername": "protectionLifeInsuranceCoverSlider",
                      "id": "protectionLifeInsuranceCoverSlider",
                      "type": "input",
                      "inputId": "protectionLifeInsuranceCoverInput",
                      "description": "Life Insurance Cover already taken",
                      "translate-id": "fna.protectionLifeInsuranceCover",
                      "name": "protectionLifeInsuranceCoverSliderTextBoxvalue",
                      "ngmodel": "FNAObject.FNA.goals[FNAObject.FNA.activeGoalIndex].parameters[4].value",
                      "textBoxValue": "FNAObject.FNA.goals[FNAObject.FNA.activeGoalIndex].parameters[4].textBoxValue",
                      "min": "6000000",
                      "max": "6000000000",
                      "defaultValue": "100000000",
					  "isCurrency":true,
                      "blur": "textboxfn(FNAObject.FNA.goals[FNAObject.FNA.activeGoalIndex].parameters[4].textBoxValue,'protectionLifeInsuranceCoverSlider','FNAObject.FNA.goals[FNAObject.FNA.activeGoalIndex].parameters[4].value');updateErrorCount('fnaCalculatorTabsProtectionGoal')",
                      "sliderValidationMessage": "fna.protectionLifeInsuranceCoverSlider",
                      "sliderValidationMessageModel": "[[fnaCalculatorTabsProtectionGoal.protectionLifeInsuranceCoverSliderTextBoxvalue.$error.gliNumericValidation]]Valid",
                      "defaultUnit": "K",
                      "currentUnit": "FNAObject.FNA.goals[FNAObject.FNA.activeGoalIndex].parameters[4].unit",
                      "noOfDivisions": "10",
                      "maxlength": "[[getMaxFieldLength(17)]]",
                       "step" : "1",
                      "index": 4
                    },
                    {
                      "control": "rider_slider",
                      "slidername": "protectionDependencyPeriodSlider",
                      "id": "protectionDependencyPeriodSlider",
                      "type": "input",
                      "numbersOnly": true,
                      "inputId": "protectionDependencyPeriodInput",
                      "description": "Number of Years of Monthly Expenses",
                      "translate-id": "fna.protectionNumberofYears",
                      "name": "protectionDependencyPeriodSliderTextBoxvalue",
                      "ngmodel": "FNAObject.FNA.goals[FNAObject.FNA.activeGoalIndex].parameters[3].value",
                      "textBoxValue": "FNAObject.FNA.goals[FNAObject.FNA.activeGoalIndex].parameters[3].textBoxValue",
                      "min": "0",
                      "max": "60",
                      "defaultValue": "1",
                      "defaultUnit": "NA",
                      "blur": "textboxfn(FNAObject.FNA.goals[FNAObject.FNA.activeGoalIndex].parameters[3].textBoxValue,'protectionDependencyPeriodSlider','FNAObject.FNA.goals[FNAObject.FNA.activeGoalIndex].parameters[3].value');updateErrorCount('fnaCalculatorTabsProtectionGoal')",
                      "sliderValidationMessage": "fna.protectionDependencyPeriodSlider",
                      "sliderValidationMessageModel": "[[fnaCalculatorTabsProtectionGoal.protectionDependencyPeriodSliderTextBoxvalue.$error.gliNumericValidation]]Valid",
                      "currentUnit": "FNAObject.FNA.goals[FNAObject.FNA.activeGoalIndex].parameters[3].unit",
                      "noOfDivisions": "10",
                      "maxlength": "2",
                       "step" : "1",
                      "index": 3
                    },
                    {
                      "control": "rider_slider",
                      "slidername": "assumptionInfaltionRateSlider",
                      "id": "assumptionInfaltionRateSlider",
                      "type": "input",
                      "numbersOnly": true,
                      "inputId": "assumptionInfaltionRateInput",
                      "description": "Inflation Rate",
                      "translate-id": "fna.protectionInflationRate",
                      "name": "assumptionInfaltionRateSliderTextBoxvalue",
                      "ngmodel": "FNAObject.FNA.goals[FNAObject.FNA.activeGoalIndex].parameters[5].value",
                      "textBoxValue": "FNAObject.FNA.goals[FNAObject.FNA.activeGoalIndex].parameters[5].textBoxValue",
                      "min": "0",
                      "max": "10",
                      "defaultValue": "4",
                      "defaultUnit": "NA",
                      "blur": "textboxfn(FNAObject.FNA.goals[FNAObject.FNA.activeGoalIndex].parameters[5].textBoxValue,'assumptionInfaltionRateSlider','FNAObject.FNA.goals[FNAObject.FNA.activeGoalIndex].parameters[5].value');updateErrorCount('fnaCalculatorTabsProtectionGoal')",
                      "sliderValidationMessage": "fna.assumptionInfaltionRateSlider",
                      "sliderValidationMessageModel": "[[fnaCalculatorTabsProtectionGoal.assumptionInfaltionRateSliderTextBoxvalue.$error.gliNumericValidation]]Valid",
                      "currentUnit": "FNAObject.FNA.goals[FNAObject.FNA.activeGoalIndex].parameters[5].unit",
                      "noOfDivisions": "10",
                      "maxlength": "2",
                       "step" : "1",
                      "index": 5
                    },
                    {
                      "control": "rider_slider",
                      "slidername": "protectionEstimatedReturnSlider",
                      "id": "protectionEstimatedReturnSlider",
                      "type": "input",
                      "numbersOnly": true,
                      "inputId": "protectionEstimatedReturnInput",
                      "description": "Estimated Return in Investment",
                      "translate-id": "fna.protectionEstimatedReturn",
                      "name": "protectionEstimatedReturnSliderTextBoxvalue",
                      "ngmodel": "FNAObject.FNA.goals[FNAObject.FNA.activeGoalIndex].parameters[6].value",
                      "textBoxValue": "FNAObject.FNA.goals[FNAObject.FNA.activeGoalIndex].parameters[6].textBoxValue",
                      "min": "0",
                      "max": "10",
                      "defaultValue": "6",
                      "blur": "textboxfn(FNAObject.FNA.goals[FNAObject.FNA.activeGoalIndex].parameters[6].textBoxValue,'protectionEstimatedReturnSlider','FNAObject.FNA.goals[FNAObject.FNA.activeGoalIndex].parameters[6].value');updateErrorCount('fnaCalculatorTabsProtectionGoal')",
                      "sliderValidationMessage": "fna.protectionEstimatedReturnSlider",
                      "sliderValidationMessageModel": "[[fnaCalculatorTabsProtectionGoal.protectionEstimatedReturnSliderTextBoxvalue.$error.gliNumericValidation]]Valid",
                      "defaultUnit": "NA",
                      "currentUnit": "FNAObject.FNA.goals[FNAObject.FNA.activeGoalIndex].parameters[6].unit",
                      "noOfDivisions": "10",
                      "maxlength": "2",
                       "step" : "1",
                      "index": 6
                    },
                    {
                      "control": "rider_slider",
                      "controlElement": "select",
                      "slidername": "protectionTravelInMonthSlider",
                      "id": "protectionTravelInMonthSlider",
                      "type": "input",
                      "inputId": "protectionTravelInMonthInput",
                      "description": "How often do you travel in a month?",
                      "translate-id": "fna.protectionTravelInMonth",
                      "name": "protectionTravelInMonthSliderTextBoxvalue",
                      "ngmodel": "FNAObject.FNA.goals[FNAObject.FNA.activeGoalIndex].parameters[7].value",
                      "textBoxValue": "FNAObject.FNA.goals[FNAObject.FNA.activeGoalIndex].parameters[7].textBoxValue",
                      "min": "0",
                      "max": "2",
                      "defaultValue": "1",
                      "values": [
                        {
                          "value": "0",
                          "translate-id": "fna.lessThanOne"
                        },
                        {
                          "value": "1",
                          "translate-id": "fna.oneToTwo",
                          "selected": true
                        },
                        {
                          "value": "2",
                          "translate-id": "fna.greaterThanTwo"
                        }
                      ],
                      "defaultUnit": "NA",
                      "currentUnit": "FNAObject.FNA.goals[FNAObject.FNA.activeGoalIndex].parameters[7].unit",
                      "noOfDivisions": "10",
                      "maxlength": "10",
                      "index": 7,
                      "required": "yes",
                       "step" : "1",
                      "validationModel": "fnaCalculatorTabsProtectionGoal.protectionTravelInMonthSliderTextBoxvalue",
                      "requiredMessage": "fna.investmentPurposeInputSliderWealthAccumulation"
                    },
                    {
                      "control": "rider_slider",
                      "controlElement": "select",
                      "slidername": "protectionChoiceofRoomSlider",
                      "id": "protectionChoiceofRoomSlider",
                      "type": "input",
                      "inputId": "protectionChoiceofRoomInput",
                      "description": "If need to be hospitalized, what would be your preferred choice of Room?",
                      "translate-id": "fna.protectionChoiceofRoom",
                      "name": "protectionChoiceofRoomSliderTextBoxvalue",
                      "ngmodel": "FNAObject.FNA.goals[FNAObject.FNA.activeGoalIndex].parameters[8].value",
                      "textBoxValue": "FNAObject.FNA.goals[FNAObject.FNA.activeGoalIndex].parameters[8].textBoxValue",
                      "min": "0",
                      "max": "4",
                       "step" : "1",
                      "defaultValue": "2",
                      "values": [
                        {
                          "value": "0",
                          "translate-id": "fna.class3"
                        },
                        {
                          "value": "1",
                          "translate-id": "fna.class2",
                          "selected": true
                        },
                        {
                          "value": "2",
                          "translate-id": "fna.class1"
                        },
                        {
                          "value": "3",
                          "translate-id": "fna.vip"
                        },
                        {
                          "value": "4",
                          "translate-id": "fna.vvip"
                        }
                      ],
                      "defaultUnit": "NA",
                      "currentUnit": "FNAObject.FNA.goals[FNAObject.FNA.activeGoalIndex].parameters[8].unit",
                      "noOfDivisions": "10",
                      "maxlength": "10",
                      "index": 8,
                      "required": "yes",
                      "validationModel": "fnaCalculatorTabsProtectionGoal.protectionChoiceofRoomSliderTextBoxvalue",
                      "requiredMessage": "fna.investmentPurposeInputSliderWealthAccumulation"
                    },
                    {
                      "control": "rider_slider",
                      "slidername": "protectionCostforCriticalIllnessSlider",
                      "id": "protectionCostforCriticalIllnessSlider",
                      "type": "input",
                      "inputId": "protectionCostforCriticalIllnessInput",
                      "description": "What do you think the cost for Critical illness nowadays?",
                      "translate-id": "fna.protectionCostforCriticalIllness",
                      "name": "protectionCostforCriticalIllnessSliderTextBoxvalue",
                      "ngmodel": "FNAObject.FNA.goals[FNAObject.FNA.activeGoalIndex].parameters[9].value",
                      "textBoxValue": "FNAObject.FNA.goals[FNAObject.FNA.activeGoalIndex].parameters[9].textBoxValue",
                      "min": "100000000",
                      "max": "10000000000",
                      "defaultValue": "500000000",
					  "isCurrency":true,
                      "blur": "textboxfn(FNAObject.FNA.goals[FNAObject.FNA.activeGoalIndex].parameters[9].textBoxValue,'protectionCostforCriticalIllnessSlider','FNAObject.FNA.goals[FNAObject.FNA.activeGoalIndex].parameters[9].value');updateErrorCount('fnaCalculatorTabsProtectionGoal')",
                      "sliderValidationMessage": "fna.protectionCostforCriticalIllnessSlider",
                      "sliderValidationMessageModel": "[[fnaCalculatorTabsProtectionGoal.protectionCostforCriticalIllnessSliderTextBoxvalue.$error.gliNumericValidation]]Valid",
                      "defaultUnit": "K",
                      "currentUnit": "FNAObject.FNA.goals[FNAObject.FNA.activeGoalIndex].parameters[9].unit",
                      "noOfDivisions": "10",
                      "maxlength": "[[getMaxFieldLength(17)]]",
                       "step" : "1",
                      "index": 9
                    },
                    {
                      "control": "rider_slider",
                      "slidername": "protectionYearsForCoverageSlider",
                      "id": "protectionYearsForCoverageSlider",
                      "type": "input",
                      "numbersOnly": true,
                      "inputId": "protectionYearsForCoverageInput",
                      "description": "How many years would you like to  be covered for Critical illness?",
                      "translate-id": "fna.protectionYearsForCoverage",
                      "name": "protectionYearsForCoverageSliderTextBoxvalue",
                      "ngmodel": "FNAObject.FNA.goals[FNAObject.FNA.activeGoalIndex].parameters[10].value",
                      "textBoxValue": "FNAObject.FNA.goals[FNAObject.FNA.activeGoalIndex].parameters[10].textBoxValue",
                      "min": "0",
                      "max": "80",
                      "defaultValue": "10",
                      "blur": "textboxfn(FNAObject.FNA.goals[FNAObject.FNA.activeGoalIndex].parameters[10].textBoxValue,'protectionYearsForCoverageSlider','FNAObject.FNA.goals[FNAObject.FNA.activeGoalIndex].parameters[10].value');updateErrorCount('fnaCalculatorTabsProtectionGoal')",
                      "sliderValidationMessage": "fna.protectionYearsForCoverageSlider",
                      "sliderValidationMessageModel": "[[fnaCalculatorTabsProtectionGoal.protectionYearsForCoverageSliderTextBoxvalue.$error.gliNumericValidation]]Valid",
                      "defaultUnit": "NA",
                      "currentUnit": "FNAObject.FNA.goals[FNAObject.FNA.activeGoalIndex].parameters[10].unit",
                      "noOfDivisions": "10",
                      "maxlength": "2",
                       "step" : "1",
                      "index": 10
                    }
                  ]
                }
              ],
              "title": ""
            }
          ]
        }
      ],
      "templateID": "TwoColumnCollapsibleSectionsWithSliders",
      "enableValidation": "YES"
    }
  ]
}