{
	"Version": "1",
	"Views": [
		{
			"id": "HeaderDetails",
			"enableCache": "false",
			"sections": [
				{
					"sectionId": "",
					"sectionHeader": "",
					"translate-id": "illustrator.productInformation",
					"sectionType": "fixedheader",
					"containerName": "personal_info_container",
					"sectionVisibility": "true",
					"viewName": "",
					"columnClass": "Illustration-printDownload",
					"subsections": [
						{
							"hasDivider": false,
							"classstyle": "illustrationSummary-header-container  clearfix",
							"controlGroups": [
								{
									"container": false,
									"controls": [
										{
											"control": "outputHeader",
											"columnClass": "col-sm-5",
											"dynamicTranslate": "illustratorProductHeader1AfterAppend"
										},
										{
											"control": "iconButton",
											"rowColumnStart": "yes",
											"rowColumnclass": "col-sm-7",
											"wrapperclass": "col-sm-4",
											"wrapperStart": "yes",
											"wrapperEnd": "yes",
											"buttonClass": "btn btn-block btn-large col-sm-12",
											"iconClass": "printPdfIcon",
											"columnClass": "text-black margin-left5",
											"ngclick": "printPDFfile()",
											"name": "printImageButton",
											"translate-id": "general.productPrintButton"
										},
										{
											"control": "iconButton",
											"wrapperStart": "yes",
											"wrapperclass": "col-sm-4",
											"wrapperEnd": "yes",
											"buttonClass": "btn btn-block btn-large col-sm-12",
											"iconClass": "downloadPdfIcon",
											"columnClass": "text-black margin-left5",
											"ngclick": "downloadApplicationPDF()",
											"name": "savePdfImageButton",
											"translate-id": "illustrator.download"
										},
										{
											"control": "iconButton",
											"rowColumnEnd": "yes",
											"wrapperStart": "yes",
											"wrapperclass": "col-sm-4 padding-right5",
											"wrapperEnd": "yes",
											"buttonClass": "btn btn-block btn-large col-sm-12",
											"iconClass": "emailPdfIcon",
											"columnClass": "text-black margin-left5",
											"ngclick": "showEmailPopup()",
											"name": "sendPdfEmailButton",
											"translate-id": "illustrator.payorEmail"
										}
									]
								}
							]
						}
					]
				}
			],
			"templateID": "TwoColumnCollapsibleSectionsWithSubBlocks",
			"enableValidation": "NO"
		},
		{
			"id": "IllustrationDetails",
			"enableCache": "false",
			"sections": [
				{
					"sectionId": "9",
					"sectionHeader": "",
					"translate-id": "illustrator.productInformation",
					"sectionType": "Tab",
					"illustrationOutputJson": true,
					"containerName": "personal_info_container",
					"sectionVisibility": "true",
					"viewName": "",
					"collapsible": false,
					"columnClass": "tab-content",
					"subsections": [
						{
							"id": "tab1",
							"hasDivider": false,
							"classstyle": "illustration_wrapper_container tab-pane active",
							"controlGroups": [
								{
									"container": false,
									"controls": [
										{
											"control": "customTable",
											"ngshow": true,
											"name": "glivnIlustrationopPolicyInformation",
											"id": "glivnIlustrationopPolicyInformation",
											"class": "illustrationoutputtable",
											"caption": "",
											"translate-id": "",
											"type": "table_normal illustrationoutputtable",
											"headerNeed": true,
											"subHeaderNeed": true,
											"mappingOrder": false,
											"headers": "[{'row':[{'order':1,'value':'','translateid':'illustrator.illustrationOutputLifeInsurance'},{'order':2,'value':'','translateid':'illustrator.illustrationOutputProtectionPeriod'},{'order':3,'value':'','translateid':'illustrator.illustrationOutputPaymentPeriod'},{'order':4,'value':'','translateid':'illustrator.illustrationOutputSumInsuredTH'},{'order':5,'value':'','translateid':'illustrator.illustrationOutputPremiums'}]}]",
											"tableValues": "$scope.Illustration.IllustrationOutput.summaryTableData",
											"sortable": false,
											"pagination": false,
											"headerNeedColumnsName": "headerNeedglivnIlustrationopPolicyInformation",
											"ngShowNeedColumnsName": "ngshowglivnIlustrationopPolicyInformation",
											"tableTypeNeedColumnsName": "tableTypeglivnIlustrationopPolicyInformation",
											"mappingOrderNeedColumnsName": "mappingOrderglivnIlustrationopPolicyInformation",
											"headerColumnsNeedColumnsName": "headersglivnIlustrationopPolicyInformation",
											"subHeaderColumnsNeedColumnsName": "subHeadersglivnIlustrationopPolicyInformation",
											"tableValueRowsNeedColumnsName": "tableValuesglivnIlustrationopPolicyInformation"
										}
									]
								}
							]
						},
						{
							"id": "tab2",
							"hasDivider": false,
							"classstyle": "illustration_wrapper_container tab-pane",
							"controlGroups": [
								{
									"container": false,
									"controls": [
										{
											"control": "customGensaveplus20"
										},
										{
											"control": "customTable",
											"ngshow": true,
											"name": "Summary",
											"id": "illustrationpolicyvaluetable",
											"translate-id": "illustrator.illustrationOutputSummayHeading",
											"caption": "illustrator.illustrationOutputSummayHeading",
											"type": "table_normal",
											"headerNeed": true,
											"subHeaderNeed": true,
											"mappingOrder": true,
											"headers": "[{'row':[{'translateid':'illustrator.illustrationOutputBenefitTableYears','rowspan':'2'},{'translateid':'illustrator.illustrationOutputBenefitTableAge','rowspan':'2'},{'translateid':'illustrator.illustrationOutputBenefitTablePremiumPerYear','rowspan':'3'},{'translateid':'illustrator.illustrationOutputBenefitTableReimbursementPolicyYear','colspan':'2'},{'translateid':$scope.taxOutput,'colspan':'1'},{'translateid':'illustrator.illustrationOutputBenefitTableLifeCoverage','colspan':'2'}]},{'row':[{'translateid':'illustrator.illustrationOutputBenefitTableAnnualPensionPercentage'},{'translateid':'illustrator.illustrationOutputBenefitTableAnnualPensionAmount'},{'translateid':'illustrator.illustrationOutputBenefitTableTotalTaxDeductionAmount'},{'translateid':'illustrator.illustrationOutputBenefitTableAnnualPensionPercentage'},{'translateid':'illustrator.illustrationOutputBenefitTableAnnualPensionAmount'}]}]",
											"subHeaders": "[{'map':'policyYear'},{'map':'age'},{'map':'annualisedPremium'},{'map':'benefitRate'},{'map':'benefitAmount'},{'map':'benefitTaxAmount'},{'map':'benefitLifeRate'},{'map':'benefitLifeAmount'}] ",
											"ngModel": "Illustration.IllustrationOutput.benefitTableData",
											"tableValues": "$scope.Illustration.IllustrationOutput.benefitTableData",
											"sortable": false,
											"pagination": false,
											"noOfRowsPerPage": 10,
											"headerNeedColumnsName": "headerNeedSummary",
											"ngShowNeedColumnsName": "ngshowSummary",
											"tableTypeNeedColumnsName": "tableTypeSummary",
											"mappingOrderNeedColumnsName": "mappingOrderSummary",
											"headerColumnsNeedColumnsName": "headersSummary",
											"subHeaderColumnsNeedColumnsName": "subHeadersSummary",
											"tableValueRowsNeedColumnsName": "tableValuesSummary"
										}
									]
								}
							]
						},
						{
							"id": "tab3",
							"hasDivider": false,
							"classstyle": "illustration_wrapper_container tab-pane",
							"controlGroups": [
								{
									"container": false,
									"controls": [
										{
											"control": "customTable",
											"ngshow": true,
											"name": "PolicyValue",
											"translate-id": "illustrator.illustrationOutputSummayHeading",
											"caption": "illustrator.illustrationOutputSummayHeading",
											"type": "table_normal",
											"headerNeed": true,
											"subHeaderNeed": true,
											"mappingOrder": true,
											"headers": "[{'row':[{'translateid':'illustrator.illustrationOutputBenefitTableYears','rowspan':'2'},{'translateid':'illustrator.illustrationOutputBenefitTableAge','rowspan':'3'},{'translateid':'illustrator.illustrationOutputIllustrationTableDataReinsurancePremiums','rowspan':'3'},{'translateid':'illustrator.illustrationOutputIllustrationTableDataPolicyApplys','colspan':'2'},{'translateid':'illustrator.illustrationOutputIllustrationTableDataExtendedInsurance','colspan':'4'}]},{'row':[{'translateid':'illustrator.illustrationOutputIllustrationTableDataInstantPayout'},{'translateid':'illustrator.illustrationOutputIllustrationTableDataWorthMoney'},{'translateid':'illustrator.illustrationOutputIllustrationTableDataYear'},{'translateid':'illustrator.illustrationOutputIllustrationTableDataDay'},{'translateid':'illustrator.illustrationOutputIllustrationTableDataInstantPayout'},{'translateid':'illustrator.illustrationOutputIllustrationTableDataMaturity'}]}]",
											"subHeaders": "[{'map':'policyYear'},{'map':'age'},{'map':'cashValue'},{'map':'rpuCash'},{'map':'rpuSA'},{'map':'extPeriodYear'},{'map':'extPeriodDay'},{'map':'etiCash'},{'map':'etiSA'}]",
											"ngModel": "Illustration.IllustrationOutput.illustrationTableData",
											"tableValues": "$scope.Illustration.IllustrationOutput.illustrationTableData",
											"sortable": false,
											"pagination": false,
											"noOfRowsPerPage": 10,
											"headerNeedColumnsName": "headerNeedPolicyValue",
											"ngShowNeedColumnsName": "ngshowPolicyValue",
											"tableTypeNeedColumnsName": "tableTypePolicyValue",
											"mappingOrderNeedColumnsName": "mappingOrderPolicyValue",
											"headerColumnsNeedColumnsName": "headersPolicyValue",
											"subHeaderColumnsNeedColumnsName": "subHeadersPolicyValue",
											"tableValueRowsNeedColumnsName": "tableValuesPolicyValue"
										}
									]
								}
							]
						},
						{
							"id": "tab4",
							"hasDivider": false,
							"classstyle": "illustration_wrapper_container tab-pane",
							"controlGroups": [
								{
									"container": false,
									"controls": [
										{
											"control": "tablePassage",
											"tablePassageText": "illustrator.PBRider",
											"columnClass": "illustration_box",
											"ngshow": "Illustration.IllustrationOutput.PBRider.isRequired=='Yes'"
										},
										{
											"control": "line",
											"ngshow": "Illustration.IllustrationOutput.PBRider.isRequired=='Yes'"
										},
										{
											"control": "tablePassage",
											"tablePassageText": "illustrator.PBRidersTop1",
											"ngshow": "Illustration.IllustrationOutput.PBRider.isRequired=='Yes'"
										},
										{
											"control": "tablePassage",
											"tablePassageText": "illustrator.PBRiderPoints",
											"ngshow": "Illustration.IllustrationOutput.PBRider.isRequired=='Yes'"
										},
										{
											"control": "tablePassage",
											"tablePassageText": "illustrator.PBRiderNote1",
											"ngshow": "Illustration.IllustrationOutput.PBRider.isRequired=='Yes'"
										},
										{
											"control": "tablePassage",
											"tablePassageText": "illustrator.riderNote",
											"ngshow": "Illustration.IllustrationOutput.PBRider.isRequired=='Yes'"
										},
										{
											"control": "tablePassage",
											"tablePassageText": "illustrator.PBRiderNote2",
											"ngshow": "Illustration.IllustrationOutput.PBRider.isRequired=='Yes'"
										},
										{
											"control": "line",
											"ngshow": "Illustration.IllustrationOutput.WPRider.isRequired=='Yes'"
										},
										{
											"control": "tablePassage",
											"tablePassageText": "illustrator.WPRider",
											"columnClass": "illustration_box",
											"ngshow": "Illustration.IllustrationOutput.WPRider.isRequired=='Yes'"
										},
										{
											"control": "line",
											"ngshow": "Illustration.IllustrationOutput.WPRider.isRequired=='Yes'"
										},
										{
											"control": "tablePassage",
											"tablePassageText": "illustrator.WPRiderTop",
											"ngshow": "Illustration.IllustrationOutput.WPRider.isRequired=='Yes'"
										},
										{
											"control": "tablePassage",
											"tablePassageText": "illustrator.WPRiderTop1",
											"ngshow": "Illustration.IllustrationOutput.WPRider.isRequired=='Yes'"
										},
										{
											"control": "tablePassage",
											"tablePassageText": "illustrator.WPRiderTop2",
											"ngshow": "Illustration.IllustrationOutput.WPRider.isRequired=='Yes'"
										},
										{
											"control": "tablePassage",
											"tablePassageText": "illustrator.WPRiderTop3",
											"ngshow": "Illustration.IllustrationOutput.WPRider.isRequired=='Yes'"
										},
										{
											"control": "tablePassage",
											"tablePassageText": "illustrator.WPRiderNote1",
											"ngshow": "Illustration.IllustrationOutput.WPRider.isRequired=='Yes'"
										},
										{
											"control": "tablePassage",
											"tablePassageText": "illustrator.riderNote",
											"ngshow": "Illustration.IllustrationOutput.WPRider.isRequired=='Yes'"
										},
										{
											"control": "tablePassage",
											"tablePassageText": "illustrator.WPRiderNote2",
											"ngshow": "Illustration.IllustrationOutput.WPRider.isRequired=='Yes'"
										},
										{
											"control": "line"
										},
										{
											"control": "tablePassage",
											"tablePassageText": "illustrator.ADBRider",
											"columnClass": "illustration_box",
											"ngshow": "Illustration.IllustrationOutput.ADBRider.isRequired=='Yes'"
										},
										{
											"control": "line",
											"ngshow": "Illustration.IllustrationOutput.ADBRider.isRequired=='Yes'"
										},
										{
											"control": "tablePassage",
											"tablePassageText": "illustrator.ADBRiderTop",
											"ngshow": "Illustration.IllustrationOutput.ADBRider.isRequired=='Yes'"
										},
										{
											"control": "customTable",
											"ngshow": "Illustration.IllustrationOutput.ADBRider.isRequired=='Yes'",
											"name": "ADBRiderSub",
											"id": "illustrationbenefit25",
											"columnClass": "illustrationbenefit25",
											"translate-id": "illustrator.illustrationOutputSummayHeading",
											"caption": "illustrator.illustrationOutputSummayHeading",
											"type": "table_normal content_left_aligned illustrationbenefit25",
											"headerNeed": true,
											"subHeaderNeed": false,
											"mappingOrder": false,
											"headers": "[{'row':[{'order':1,'translateid':'illustrator.ADBRiderSubHeaderLeft','rowspan':'6'},{'order':2,'translateid':'illustrator.ADBRiderSubHeaderRight','rowspan':'4'}]}]",
											"subHeaders": "",
											"ngModel": "",
											"tableValues": "[{'col1':'illustrator.ADBRiderRow1Left','col2':$scope.Illustration.IllustrationOutput.ADBSumAssuredCover},{'col1':'illustrator.ADBRiderRow2Left','col2':$scope.Illustration.IllustrationOutput.ADBSumAssured200Percent},{'col1':'illustrator.ADBRiderRow3Left','col2':''},{'col1':'illustrator.ADBRiderRow4Left','col2':''},{'col1':'illustrator.ADBRiderRow5Left','col2':''},{'col1':'illustrator.ADBRiderRow6Left','col2':''},{'col1':'illustrator.ADBRiderRow7Left','col2':''}]",
											"sortable": false,
											"pagination": false,
											"noOfRowsPerPage": 10,
											"headerNeedColumnsName": "headerNeedADBRiderSub",
											"ngShowNeedColumnsName": "ngshowADBRiderSub",
											"tableTypeNeedColumnsName": "tableTypeADBRiderSub",
											"mappingOrderNeedColumnsName": "mappingOrderADBRiderSub",
											"headerColumnsNeedColumnsName": "headersADBRiderSub",
											"subHeaderColumnsNeedColumnsName": "subHeadersADBRiderSub",
											"tableValueRowsNeedColumnsName": "tableValuesADBRiderSub"
										},
										{
											"control": "tablePassage",
											"tablePassageText": "illustrator.ADBriderNoteGenSave",
											"ngshow": "Illustration.IllustrationOutput.ADBRider.isRequired=='Yes'"
										},
										{
											"control": "tablePassage",
											"tablePassageText": "illustrator.riderNote",
											"ngshow": "Illustration.IllustrationOutput.ADBRider.isRequired=='Yes'"
										},
										{
											"control": "tablePassage",
											"tablePassageText": "illustrator.ADBriderNote1GenSave",
											"ngshow": "Illustration.IllustrationOutput.ADBRider.isRequired=='Yes'"
										},
										{
											"control": "line",
											"ngshow": "Illustration.IllustrationOutput.ADBRider.isRequired=='Yes'"
										},
										{
											"control": "tablePassage",
											"tablePassageText": "illustrator.RCCADBRider",
											"columnClass": "illustration_box",
											"ngshow": "Illustration.IllustrationOutput.RCCADBRider.isRequired=='Yes'"
										},
										{
											"control": "line",
											"ngshow": "Illustration.IllustrationOutput.RCCADBRider.isRequired=='Yes'"
										},
										{
											"control": "tablePassage",
											"tablePassageText": "illustrator.RCCADBRiderTop",
											"ngshow": "Illustration.IllustrationOutput.RCCADBRider.isRequired=='Yes'"
										},
										{
											"control": "tablePassage",
											"tablePassageText": "illustrator.RCCADBRiderTop1",
											"ngshow": "Illustration.IllustrationOutput.RCCADBRider.isRequired=='Yes'"
										},
										{
											"control": "tablePassage",
											"tablePassageText": "illustrator.RCCADBRiderTop2",
											"ngshow": "Illustration.IllustrationOutput.RCCADBRider.isRequired=='Yes'"
										},
										{
											"control": "tablePassage",
											"tablePassageText": "illustrator.RCCADBRiderTop3",
											"ngshow": "Illustration.IllustrationOutput.RCCADBRider.isRequired=='Yes'"
										},
										{
											"control": "tablePassage",
											"tablePassageText": "illustrator.riderNote",
											"ngshow": "Illustration.IllustrationOutput.RCCADBRider.isRequired=='Yes'"
										},
										{
											"control": "tablePassage",
											"tablePassageText": "illustrator.RCCADBriderNote",
											"ngshow": "Illustration.IllustrationOutput.RCCADBRider.isRequired=='Yes'"
										},
										{
											"control": "line",
											"ngshow": "Illustration.IllustrationOutput.RCCADBRider.isRequired=='Yes'"
										},
										{
											"control": "tablePassage",
											"tablePassageText": "illustrator.ADDRiders",
											"columnClass": "illustration_box",
											"ngshow": "Illustration.IllustrationOutput.ADDRiders.isRequired=='Yes'"
										},
										{
											"control": "line",
											"ngshow": "Illustration.IllustrationOutput.ADDRiders.isRequired=='Yes'"
										},
										{
											"control": "tablePassage",
											"tablePassageText": "illustrator.ADDRidersTop",
											"ngshow": "Illustration.IllustrationOutput.ADDRiders.isRequired=='Yes'"
										},
										{
											"control": "customTable",
											"ngshow": "Illustration.IllustrationOutput.ADDRiders.isRequired=='Yes'",
											"name": "ADDRidersSub",
											"id": "illustrationbenefit",
											"translate-id": "illustrator.illustrationOutputSummayHeading",
											"caption": "illustrator.illustrationOutputSummayHeading",
											"type": "table_normal content_left_aligned illustrationoutputtabletab4",
											"headerNeed": true,
											"subHeaderNeed": false,
											"mappingOrder": false,
											"headers": "[{'row':[{'order':1,'translateid':'illustrator.AddRiderSubHeaderLeft','rowspan':'6'},{'order':2,'translateid':'illustrator.AddRiderSubHeaderRight','rowspan':'4'}]}]",
											"subHeaders": "",
											"ngModel": "",
											"tableValues": "[{'col1':'illustrator.ADBRiderRow1Left','col2':$scope.Illustration.IllustrationOutput.ADDRiders.sumAssured},{'col1':'illustrator.AddRiderRow2','col2':''},{'col1':'illustrator.AddRiderRow2-1','col2':$scope.Illustration.IllustrationOutput.ADDRiders.sumAssured},{'col1':'illustrator.ADBRiderRow3Left','col2':$scope.Illustration.IllustrationOutput.ADDRiders.sumAssured},{'col1':'illustrator.AddRiderRow2-3','col2':$scope.Illustration.IllustrationOutput.ADDSumAssured60Percent},{'col1':'illustrator.ADBRiderRow6-1Left','col2':$scope.Illustration.IllustrationOutput.ADDSumAssured25Percent},{'col1':'illustrator.AddRiderRow3','col2':$scope.Illustration.IllustrationOutput.ADDSumAssured200Percent},{'col1':'illustrator.AddRiderRow3-1','col2':''},{'col1':'illustrator.AddRiderRow3-2','col2':''},{'col1':'illustrator.AddRiderRow3-3','col2':''},{'col1':'illustrator.AddRiderRow3-4','col2':''},{'col1':'illustrator.AddRiderRow3-5','col2':''}]",
											"sortable": false,
											"pagination": false,
											"noOfRowsPerPage": 10,
											"headerNeedColumnsName": "headerNeedADDRidersSub",
											"ngShowNeedColumnsName": "ngshowADDRidersSub",
											"tableTypeNeedColumnsName": "tableTypeADDRidersSub",
											"mappingOrderNeedColumnsName": "mappingOrderADDRidersSub",
											"headerColumnsNeedColumnsName": "headersADDRidersSub",
											"subHeaderColumnsNeedColumnsName": "subHeadersADDRidersSub",
											"tableValueRowsNeedColumnsName": "tableValuesADDRidersSub"
										},
										{
											"control": "tablePassage",
											"tablePassageText": "illustrator.ADDriderNote1",
											"ngshow": "Illustration.IllustrationOutput.ADDRiders.isRequired=='Yes'"
										},
										{
											"control": "tablePassage",
											"tablePassageText": "illustrator.riderNote",
											"ngshow": "Illustration.IllustrationOutput.ADDRiders.isRequired=='Yes'"
										},
										{
											"control": "tablePassage",
											"tablePassageText": "illustrator.ADDriderNote2",
											"ngshow": "Illustration.IllustrationOutput.ADDRiders.isRequired=='Yes'"
										},
										{
											"control": "line",
											"ngshow": "Illustration.IllustrationOutput.ADDRiders.isRequired=='Yes'"
										},
										{
											"control": "tablePassage",
											"tablePassageText": "illustrator.RCCADDRider",
											"columnClass": "illustration_box",
											"ngshow": "Illustration.IllustrationOutput.RCCADDRider.isRequired=='Yes'"
										},
										{
											"control": "line",
											"ngshow": "Illustration.IllustrationOutput.RCCADDRider.isRequired=='Yes'"
										},
										{
											"control": "tablePassage",
											"tablePassageText": "illustrator.RCCADDRiderTop",
											"ngshow": "Illustration.IllustrationOutput.RCCADDRider.isRequired=='Yes'"
										},
										{
											"control": "tablePassage",
											"tablePassageText": "illustrator.RCCADDRiderTop1",
											"ngshow": "Illustration.IllustrationOutput.RCCADDRider.isRequired=='Yes'"
										},
										{
											"control": "tablePassage",
											"tablePassageText": "illustrator.RCCADDRiderTop2",
											"ngshow": "Illustration.IllustrationOutput.RCCADDRider.isRequired=='Yes'"
										},
										{
											"control": "tablePassage",
											"tablePassageText": "illustrator.RCCADDRiderTop3",
											"ngshow": "Illustration.IllustrationOutput.RCCADDRider.isRequired=='Yes'"
										},
										{
											"control": "tablePassage",
											"tablePassageText": "illustrator.riderNote",
											"ngshow": "Illustration.IllustrationOutput.RCCADDRider.isRequired=='Yes'"
										},
										{
											"control": "tablePassage",
											"tablePassageText": "illustrator.RCCADDriderNote",
											"ngshow": "Illustration.IllustrationOutput.RCCADDRider.isRequired=='Yes'"
										},
										{
											"control": "line",
											"ngshow": "Illustration.IllustrationOutput.RCCADDRider.isRequired=='Yes'"
										},
										{
											"control": "tablePassage",
											"tablePassageText": "illustrator.AIRider",
											"columnClass": "illustration_box",
											"ngshow": "Illustration.IllustrationOutput.AIRider.isRequired=='Yes'"
										},
										{
											"control": "line",
											"ngshow": "Illustration.IllustrationOutput.AIRider.isRequired=='Yes'"
										},
										{
											"control": "tablePassage",
											"tablePassageText": "illustrator.AIRiderTop",
											"ngshow": "Illustration.IllustrationOutput.AIRider.isRequired=='Yes'"
										},
										{
											"control": "customTable",
											"ngshow": "Illustration.IllustrationOutput.AIRider.isRequired=='Yes'",
											"name": "AIRiderSub",
											"id": "illustrationbenefit20plus",
											"columnClass": "illustrationbenefit20plus",
											"translate-id": "illustrator.illustrationOutputSummayHeading",
											"caption": "illustrator.illustrationOutputSummayHeading",
											"type": "table_normal content_left_aligned illustrationbenefit20plus",
											"headerNeed": true,
											"subHeaderNeed": false,
											"mappingOrder": false,
											"headers": "[{'row':[{'order':1,'translateid':'illustrator.AddRiderSubHeaderLeft','rowspan':'6'},{'order':2,'translateid':'illustrator.AddRiderSubHeaderRight','rowspan':'4'}]}]",
											"subHeaders": "",
											"ngModel": "",
											"tableValues": "[{'col1':'illustrator.ADBRiderRow1Left','col2':$scope.Illustration.IllustrationOutput.AIRider.sumAssured},{'col1':'illustrator.AddRiderRow2','col2':''},{'col1':'illustrator.AddRiderRow2-1','col2':$scope.Illustration.IllustrationOutput.AIRider.sumAssured},{'col1':'illustrator.ADBRiderRow3Left','col2':$scope.Illustration.IllustrationOutput.AIRider.sumAssured},{'col1':'illustrator.AddRiderRow2-3','col2':$scope.Illustration.IllustrationOutput.AISumAssured60Percent},{'col1':'illustrator.AIRider7-1Left','col2':$scope.Illustration.IllustrationOutput.AISumAssured60Percent},{'col1':'illustrator.AIRider7-2Left','col2':$scope.Illustration.IllustrationOutput.AISumAssured6Percent},{'col1':'illustrator.AIRider7-3Left','col2':$scope.Illustration.IllustrationOutput.AISumAssured2Percent},{'col1':'illustrator.AIRider8-1Left','col2':$scope.Illustration.IllustrationOutput.AISumAssured10Percent},{'col1':'illustrator.AIRider9-1Left','col2':$scope.Illustration.IllustrationOutput.AISumAssured3Percent},{'col1':'illustrator.AIRider10-1Left','col2':'illustrator.AIRider10-1Right'},{'col1':'illustrator.AIRider11-1Left','col2':$scope.Illustration.IllustrationOutput.AISumAssured200Percent},{'col1':'illustrator.AddRiderRow3-1','col2':''},{'col1':'illustrator.AddRiderRow3-2','col2':''},{'col1':'illustrator.AddRiderRow3-3','col2':''},{'col1':'illustrator.AddRiderRow3-4','col2':''},{'col1':'illustrator.AddRiderRow3-5','col2':''}]",
											"sortable": false,
											"pagination": false,
											"noOfRowsPerPage": 10,
											"headerNeedColumnsName": "headerNeedAIRiderSub",
											"ngShowNeedColumnsName": "ngshowAIRiderSub",
											"tableTypeNeedColumnsName": "tableTypeAIRiderSub",
											"mappingOrderNeedColumnsName": "mappingOrderAIRiderSub",
											"headerColumnsNeedColumnsName": "headersAIRiderSub",
											"subHeaderColumnsNeedColumnsName": "subHeadersAIRiderSub",
											"tableValueRowsNeedColumnsName": "tableValuesAIRiderSub"
										},
										{
											"control": "tablePassage",
											"tablePassageText": "illustrator.AIriderNote1",
											"ngshow": "Illustration.IllustrationOutput.AIRider.isRequired=='Yes'"
										},
										{
											"control": "tablePassage",
											"tablePassageText": "illustrator.riderNote",
											"ngshow": "Illustration.IllustrationOutput.AIRider.isRequired=='Yes'"
										},
										{
											"control": "tablePassage",
											"tablePassageText": "illustrator.AIriderNote2",
											"ngshow": "Illustration.IllustrationOutput.AIRider.isRequired=='Yes'"
										},
										{
											"control": "line",
											"ngshow": "Illustration.IllustrationOutput.AIRider.isRequired=='Yes'"
										},
										{
											"control": "tablePassage",
											"tablePassageText": "illustrator.RCCAIRider",
											"columnClass": "illustration_box",
											"ngshow": "Illustration.IllustrationOutput.RCCAIRider.isRequired=='Yes'"
										},
										{
											"control": "line",
											"ngshow": "Illustration.IllustrationOutput.RCCAIRider.isRequired=='Yes'"
										},
										{
											"control": "tablePassage",
											"tablePassageText": "illustrator.RCCAIRiderTop",
											"ngshow": "Illustration.IllustrationOutput.RCCAIRider.isRequired=='Yes'"
										},
										{
											"control": "tablePassage",
											"tablePassageText": "illustrator.RCCAIRiderTop1",
											"ngshow": "Illustration.IllustrationOutput.RCCAIRider.isRequired=='Yes'"
										},
										{
											"control": "tablePassage",
											"tablePassageText": "illustrator.RCCAIRiderTop2",
											"ngshow": "Illustration.IllustrationOutput.RCCAIRider.isRequired=='Yes'"
										},
										{
											"control": "tablePassage",
											"tablePassageText": "illustrator.RCCAIRiderTop3",
											"ngshow": "Illustration.IllustrationOutput.RCCAIRider.isRequired=='Yes'"
										},
										{
											"control": "tablePassage",
											"tablePassageText": "illustrator.riderNote",
											"ngshow": "Illustration.IllustrationOutput.RCCAIRider.isRequired=='Yes'"
										},
										{
											"control": "tablePassage",
											"tablePassageText": "illustrator.RCCAIriderNote",
											"ngshow": "Illustration.IllustrationOutput.RCCAIRider.isRequired=='Yes'"
										},
										{
											"control": "line",
											"ngshow": "Illustration.IllustrationOutput.RCCAIRider.isRequired=='Yes'"
										},
										{
											"control": "tablePassage",
											"tablePassageText": "illustrator.HSRider",
											"columnClass": "illustration_box",
											"ngshow": "Illustration.IllustrationOutput.HSRiders.isRequired=='Yes'"
										},
										{
											"control": "line",
											"ngshow": "Illustration.IllustrationOutput.HSRiders.isRequired=='Yes'"
										},
										{
											"control": "tablePassage",
											"tablePassageText": "illustrator.HSRiderTop1",
											"ngshow": "Illustration.IllustrationOutput.HSRiders.isRequired=='Yes'"
										},
										{
											"control": "customTable",
											"ngshow": "Illustration.IllustrationOutput.HSRiders.isRequired=='Yes'",
											"name": "HSRidersSub",
											"id": "IlustrationopPolicybenefittable",
											"translate-id": "illustrator.illustrationOutputSummayHeading",
											"caption": "illustrator.illustrationOutputSummayHeading",
											"type": "table_normal content_left_aligned",
											"headerNeed": true,
											"subHeaderNeed": false,
											"mappingOrder": false,
											"headers": "[{'row':[{'order':1,'translateid':'illustrator.HSRiderSubHeaderLeft','rowspan':'6'},{'order':2,'translateid':$scope.dynamicPlan,'rowspan':'4'}]}]",
											"subHeaders": "",
											"ngModel": "",
											"tableValues": "[{'col1':'illustrator.HSRiderRow1','col2':$scope.Illustration.IllustrationOutput.HSDetails[0]},{'col1':'illustrator.HSRiderRow2','col2':$scope.Illustration.IllustrationOutput.HSDetails[1]},{'col1':'illustrator.HSRiderRow3','col2':$scope.Illustration.IllustrationOutput.HSDetails[2]},{'col1':'illustrator.HSRiderRow4','col2':$scope.Illustration.IllustrationOutput.HSDetails[3]},{'col1':'illustrator.HSRiderRow5','col2':$scope.Illustration.IllustrationOutput.HSDetails[4]},{'col1':'illustrator.HSRiderRow6','col2':$scope.Illustration.IllustrationOutput.HSDetails[5]},{'col1':'illustrator.HSRiderRow7','col2':$scope.Illustration.IllustrationOutput.HSDetails[6]},{'col1':'illustrator.HSRiderRow8','col2':$scope.Illustration.IllustrationOutput.HSDetails[7]},{'col1':'illustrator.HSRiderRow9','col2':$scope.Illustration.IllustrationOutput.HSDetails[8]}]",
											"sortable": false,
											"pagination": false,
											"noOfRowsPerPage": 10,
											"headerNeedColumnsName": "headerNeedHSRidersSub",
											"ngShowNeedColumnsName": "ngshowHSRidersSub",
											"tableTypeNeedColumnsName": "tableTypeHSRidersSub",
											"mappingOrderNeedColumnsName": "mappingOrderHSRidersSub",
											"headerColumnsNeedColumnsName": "headersHSRidersSub",
											"subHeaderColumnsNeedColumnsName": "subHeadersHSRidersSub",
											"tableValueRowsNeedColumnsName": "tableValuesHSRidersSub"
										},
										{
											"control": "tablePassage",
											"tablePassageText": "illustrator.riderTermsCoverageHead",
											"ngshow": "Illustration.IllustrationOutput.HSRiders.isRequired=='Yes'"
										},
										{
											"control": "tablePassage",
											"tablePassageText": "illustrator.HSriderTermsCoverage",
											"ngshow": "Illustration.IllustrationOutput.HSRiders.isRequired=='Yes'"
										},
										{
											"control": "tablePassage",
											"tablePassageText": "illustrator.riderConditionBeforeInsuranceHead",
											"ngshow": "Illustration.IllustrationOutput.HSRiders.isRequired=='Yes'"
										},
										{
											"control": "tablePassage",
											"tablePassageText": "illustrator.HSriderConditionBeforeInsurance",
											"ngshow": "Illustration.IllustrationOutput.HSRiders.isRequired=='Yes'"
										},
										{
											"control": "tablePassage",
											"tablePassageText": "illustrator.riderWaitingPeriodHead",
											"ngshow": "Illustration.IllustrationOutput.HSRiders.isRequired=='Yes'"
										},
										{
											"control": "tablePassage",
											"tablePassageText": "illustrator.HSriderWaitingPeriodContent",
											"ngshow": "Illustration.IllustrationOutput.HSRiders.isRequired=='Yes'"
										},
										{
											"control": "tablePassage",
											"tablePassageText": "illustrator.HSriderWaitingPeriodNote1",
											"ngshow": "Illustration.IllustrationOutput.HSRiders.isRequired=='Yes'"
										},
										{
											"control": "line",
											"ngshow": "Illustration.IllustrationOutput.HSRiders.isRequired=='Yes'"
										},
										{
											"control": "tablePassage",
											"tablePassageText": "illustrator.HSriderNote1",
											"ngshow": "Illustration.IllustrationOutput.HSRiders.isRequired=='Yes'"
										},
										{
											"control": "tablePassage",
											"tablePassageText": "illustrator.riderNote",
											"ngshow": "Illustration.IllustrationOutput.HSRiders.isRequired=='Yes'"
										},
										{
											"control": "tablePassage",
											"tablePassageText": "illustrator.HSriderNote2",
											"ngshow": "Illustration.IllustrationOutput.HSRiders.isRequired=='Yes'"
										},
										{
											"control": "line",
											"ngshow": "Illustration.IllustrationOutput.HSRiders.isRequired=='Yes'"
										},
										{
											"control": "tablePassage",
											"tablePassageText": "illustrator.OPDRider",
											"columnClass": "illustration_box",
											"ngshow": "Illustration.IllustrationOutput.OPDRiders.isRequired=='Yes'"
										},
										{
											"control": "tablePassage",
											"tablePassageText": "illustrator.OPDRiderTop1",
											"ngshow": "Illustration.IllustrationOutput.OPDRiders.isRequired=='Yes'"
										},
										{
											"control": "tablePassage",
											"tablePassageText": "illustrator.OPDRiderTop2",
											"ngshow": "Illustration.IllustrationOutput.OPDRiders.isRequired=='Yes'"
										},
										{
											"control": "tablePassage",
											"tablePassageText": "illustrator.OPDRiderTop4",
											"ngshow": "Illustration.IllustrationOutput.OPDRiders.isRequired=='Yes'"
										},
										{
											"control": "tablePassage",
											"tablePassageText": "illustrator.OPDRiderTop5",
											"ngshow": "Illustration.IllustrationOutput.OPDRiders.isRequired=='Yes'"
										},
										{
											"control": "tablePassage",
											"tablePassageText": "illustrator.OPDRiderTop6",
											"ngshow": "Illustration.IllustrationOutput.OPDRiders.isRequired=='Yes'"
										},
										{
											"control": "tablePassage",
											"tablePassageText": "illustrator.OPDRiderTop7",
											"ngshow": "Illustration.IllustrationOutput.OPDRiders.isRequired=='Yes'"
										},
										{
											"control": "tablePassage",
											"tablePassageText": "illustrator.OPDRiderTop8",
											"ngshow": "Illustration.IllustrationOutput.OPDRiders.isRequired=='Yes'"
										},
										{
											"control": "tablePassage",
											"tablePassageText": "illustrator.OPDRiderTop9",
											"ngshow": "Illustration.IllustrationOutput.OPDRiders.isRequired=='Yes'"
										},
										{
											"control": "tablePassage",
											"tablePassageText": "illustrator.OPDRiderTop10",
											"ngshow": "Illustration.IllustrationOutput.OPDRiders.isRequired=='Yes'"
										},
										{
											"control": "tablePassage",
											"tablePassageText": "illustrator.OPDRiderTop11",
											"ngshow": "Illustration.IllustrationOutput.OPDRiders.isRequired=='Yes'"
										},
										{
											"control": "tablePassage",
											"tablePassageText": "illustrator.OPDRiderTop12",
											"ngshow": "Illustration.IllustrationOutput.OPDRiders.isRequired=='Yes'"
										},
										{
											"control": "tablePassage",
											"tablePassageText": "illustrator.OPDRiderTop13",
											"ngshow": "Illustration.IllustrationOutput.OPDRiders.isRequired=='Yes'"
										},
										{
											"control": "tablePassage",
											"tablePassageText": "illustrator.OPDRiderTop14",
											"ngshow": "Illustration.IllustrationOutput.OPDRiders.isRequired=='Yes'"
										},
										{
											"control": "tablePassage",
											"tablePassageText": "illustrator.OPDRiderTop15",
											"ngshow": "Illustration.IllustrationOutput.OPDRiders.isRequired=='Yes'"
										},
										{
											"control": "tablePassage",
											"tablePassageText": "illustrator.OPDRiderTop16",
											"ngshow": "Illustration.IllustrationOutput.OPDRiders.isRequired=='Yes'"
										},
										{
											"control": "tablePassage",
											"tablePassageText": "illustrator.OPDRiderTop17",
											"ngshow": "Illustration.IllustrationOutput.OPDRiders.isRequired=='Yes'"
										},
										{
											"control": "tablePassage",
											"tablePassageText": "illustrator.OPDRiderTop18",
											"ngshow": "Illustration.IllustrationOutput.OPDRiders.isRequired=='Yes'"
										},
										{
											"control": "tablePassage",
											"tablePassageText": "illustrator.OPDRiderTop19",
											"ngshow": "Illustration.IllustrationOutput.OPDRiders.isRequired=='Yes'"
										},
										{
											"control": "tablePassage",
											"tablePassageText": "illustrator.OPDRiderTop20",
											"ngshow": "Illustration.IllustrationOutput.OPDRiders.isRequired=='Yes'"
										},
										{
											"control": "tablePassage",
											"tablePassageText": "illustrator.OPDRiderTop21",
											"ngshow": "Illustration.IllustrationOutput.OPDRiders.isRequired=='Yes'"
										},
										{
											"control": "tablePassage",
											"tablePassageText": "illustrator.OPDRiderTop22",
											"ngshow": "Illustration.IllustrationOutput.OPDRiders.isRequired=='Yes'"
										},
										{
											"control": "tablePassage",
											"tablePassageText": "illustrator.OPDRiderTop23",
											"ngshow": "Illustration.IllustrationOutput.OPDRiders.isRequired=='Yes'"
										},
										{
											"control": "tablePassage",
											"tablePassageText": "illustrator.HBRider",
											"columnClass": "illustration_box",
											"ngshow": "Illustration.IllustrationOutput.HBRiders.isRequired=='Yes'"
										},
										{
											"control": "line",
											"ngshow": "Illustration.IllustrationOutput.HBRiders.isRequired=='Yes'"
										},
										{
											"control": "tablePassage",
											"tablePassageText": "illustrator.HBRiderTop1",
											"ngshow": "Illustration.IllustrationOutput.HBRiders.isRequired=='Yes'"
										},
										{
											"control": "tablePassage",
											"tablePassageText": "illustrator.HBRiderTop2",
											"ngshow": "Illustration.IllustrationOutput.HBRiders.isRequired=='Yes'"
										},
										{
											"control": "tablePassage",
											"tablePassageText": "illustrator.HBRiderTop3",
											"ngshow": "Illustration.IllustrationOutput.HBRiders.isRequired=='Yes'"
										},
										{
											"control": "tablePassage",
											"tablePassageText": "illustrator.HBRiderTop4",
											"ngshow": "Illustration.IllustrationOutput.HBRiders.isRequired=='Yes'"
										},
										{
											"control": "line",
											"ngshow": "Illustration.IllustrationOutput.HBRiders.isRequired=='Yes'"
										},
										{
											"control": "tablePassage",
											"tablePassageText": "illustrator.HBriderNote1",
											"ngshow": "Illustration.IllustrationOutput.HBRiders.isRequired=='Yes'"
										},
										{
											"control": "tablePassage",
											"tablePassageText": "illustrator.riderNote",
											"ngshow": "Illustration.IllustrationOutput.HBRiders.isRequired=='Yes'"
										},
										{
											"control": "tablePassage",
											"tablePassageText": "illustrator.HBriderNote2",
											"ngshow": "Illustration.IllustrationOutput.HBRiders.isRequired=='Yes'"
										},
										{
											"control": "line",
											"ngshow": "Illustration.IllustrationOutput.HBRiders.isRequired=='Yes'"
										},
										{
											"control": "tablePassage",
											"tablePassageText": "illustrator.DDRider",
											"columnClass": "illustration_box",
											"ngshow": "Illustration.IllustrationOutput.DDRider.isRequired=='Yes'"
										},
										{
											"control": "line",
											"ngshow": "Illustration.IllustrationOutput.DDRider.isRequired=='Yes'"
										},
										{
											"control": "tablePassage",
											"tablePassageText": "illustrator.DDRiderTop1",
											"ngshow": "Illustration.IllustrationOutput.DDRider.isRequired=='Yes'"
										},
										{
											"control": "tablePassage",
											"tablePassageText": "illustrator.DDRiderTop2",
											"ngshow": "Illustration.IllustrationOutput.DDRider.isRequired=='Yes'"
										},
										{
											"control": "tablePassage",
											"tablePassageText": "illustrator.DDRiderTop3",
											"ngshow": "Illustration.IllustrationOutput.DDRider.isRequired=='Yes'"
										},
										{
											"control": "tablePassage",
											"tablePassageText": "illustrator.DDRiderTop4",
											"ngshow": "Illustration.IllustrationOutput.DDRider.isRequired=='Yes'"
										},
										{
											"control": "tablePassage",
											"tablePassageText": "illustrator.DDRiderTop5",
											"ngshow": "Illustration.IllustrationOutput.DDRider.isRequired=='Yes'"
										},
										{
											"control": "line",
											"ngshow": "Illustration.IllustrationOutput.DDRider.isRequired=='Yes'"
										},
										{
											"control": "customTable",
											"ngshow": "Illustration.IllustrationOutput.DDRider.isRequired=='Yes'",
											"name": "DDRiderSub",
											"id": "DDRiderSub",
											"caption": "",
											"translate-id": "",
											"type": "table_normal no_mrg  content_left_aligned  illustrationoutputtable3",
											"headerNeed": true,
											"subHeaderNeed": false,
											"mappingOrder": false,
											"headers": "[{'row':[{'order':1,'translateid':'illustrator.deadlyDiseasesHeadDD','rowspan':'4'},{'order':2,'translateid':'illustrator.deadlyDiseasesHeadDD','rowspan':'4'}]}]",
											"tableValues": "[{'col1':'illustrator.deadlyDiseasesDD1','col2':'illustrator.deadlyDiseasesDD17'},{'col1':'illustrator.deadlyDiseasesDD2','col2':'illustrator.deadlyDiseasesDD18'},{'col1':'illustrator.deadlyDiseasesDD3','col2':'illustrator.deadlyDiseasesDD19'},{'col1':'illustrator.deadlyDiseasesDD4','col2':'illustrator.deadlyDiseasesDD20'},{'col1':'illustrator.deadlyDiseasesDD5','col2':'illustrator.deadlyDiseasesDD21'},{'col1':'illustrator.deadlyDiseasesDD6','col2':'illustrator.deadlyDiseasesDD22'},{'col1':'illustrator.deadlyDiseasesDD7','col2':'illustrator.deadlyDiseasesDD23'},{'col1':'illustrator.deadlyDiseasesDD8','col2':'illustrator.deadlyDiseasesDD24'},{'col1':'illustrator.deadlyDiseasesDD9','col2':'illustrator.deadlyDiseasesDD25'},{'col1':'illustrator.deadlyDiseasesDD10','col2':'illustrator.deadlyDiseasesDD26'},{'col1':'illustrator.deadlyDiseasesDD11','col2':'illustrator.deadlyDiseasesDD27'},{'col1':'illustrator.deadlyDiseasesDD12','col2':'illustrator.deadlyDiseasesDD28'},{'col1':'illustrator.deadlyDiseasesDD13','col2':'illustrator.deadlyDiseasesDD29'},{'col1':'illustrator.deadlyDiseasesDD14','col2':'illustrator.deadlyDiseasesDD30'},{'col1':'illustrator.deadlyDiseasesDD15','col2':'illustrator.deadlyDiseasesDD31'},{'col1':'illustrator.deadlyDiseasesDD16','col2':'illustrator.deadlyDiseasesDD32'}]",
											"sortable": false,
											"pagination": false,
											"headerNeedColumnsName": "headerNeedDDRiderSub",
											"ngShowNeedColumnsName": "ngshowDDRiderSub",
											"tableTypeNeedColumnsName": "tableTypeDDRiderSub",
											"mappingOrderNeedColumnsName": "mappingOrderDDRiderSub",
											"headerColumnsNeedColumnsName": "headersDDRiderSub",
											"subHeaderColumnsNeedColumnsName": "subHeadersDDRiderSub",
											"tableValueRowsNeedColumnsName": "tableValuesDDRiderSub"
										},
										{
											"control": "tablePassage",
											"tablePassageText": "illustrator.DDriderNote3",
											"ngshow": "Illustration.IllustrationOutput.DDRider.isRequired=='Yes'"
										},
										{
											"control": "tablePassage",
											"tablePassageText": "illustrator.DDriderNote4",
											"ngshow": "Illustration.IllustrationOutput.DDRider.isRequired=='Yes'"
										},
										{
											"control": "tablePassage",
											"tablePassageText": "illustrator.riderNote",
											"ngshow": "Illustration.IllustrationOutput.DDRider.isRequired=='Yes'"
										},
										{
											"control": "tablePassage",
											"tablePassageText": "illustrator.DDriderNote1",
											"ngshow": "Illustration.IllustrationOutput.DDRider.isRequired=='Yes'"
										},
										{
											"control": "line",
											"ngshow": "Illustration.IllustrationOutput.DDRider.isRequired=='Yes'"
										}
									]
								}
							]
						},
						{
							"id": "tab5",
							"hasDivider": false,
							"classstyle": "illustration_wrapper_container tab-pane",
							"controlGroups": [
								{
									"container": false,
									"controls": [
										{
											"control": "customStaticaccordion"
										}
									]
								}
							]
						}
					]
				}
			],
			"templateID": "TwoColumnCollapsibleSectionsWithSubBlocks",
			"enableValidation": "NO"
		}
	]
}