{
  "Version": "6",
  "Views": [
	{
	  "enableValidation": "YES",
	  "id": "leadListingWithTabs",
	  "enableCache": "false",
	  "ngShow": "true",
	  "templateType": "accordionPlusTable",
	   
"sections": [{
			"sectionId": "1",
			"sectionType": "",
			"ngClass": "{'visible minHeight':toggleListing,'visible-hidden':!toggleListing}",
			"container": "yes",
			"subsections": [{
				"subsectionType": "",
				"subsectionId": "1",
				"controls": [
                    {
					"control": "Table",
					"name": "leadListTbl",
					"overflowClass": "{'overflow':overflowClass,'':!overflowClass}",
					"headerClass": "list_table_head_bg",
					"tableClass": "min",
					"oddRowClass": "row_odd",
					"evenRowClass": "row_even",
					"headers": [{
									"control": "emptyHeader",
									"columnClass": "text-left padding-right6 visible-tablet-table",
									"stRatio": "4",
									"ngClass": "{'isWeb' :$root.isWeb}"
								},
								{
									"control": "header",
									"columnClass": "text-center padding-right6 visible-tablet-table hidden-phone",
									"value": "Sync Status",
									"translate-id": "SyncstatusHeaderText",
									"sorterArrow": false,
									"stRatio": "6",
									"ngClass": "{'isWeb' :$root.isWeb}"
								},
								{
									"control": "header",
									"columnClass": "text-left padding-right6",
									"value": "Nick Name",
									"stSort": "Key26",
									"stSkipNatural": true,
									"translate-id": "lms.leadNickName",
									"ngClass": "{'hide-col':isBankUser}",
									"sorterArrow": true,
									"className": "{'fa fa-sort-desc':!tblhead4,'fa fa-sort-asc':tblhead4}",
									"ngclick": "toggleSorter('4')",
									"stRatio": "10"
								},
								{
									"control": "header",
									"columnClass": "text-center padding-right6",
									"value": "Lead Name",
									"stSort": "fullName",
									"stSkipNatural": true,
									"translate-id": "lms.fullNameListing",
									"ngClass": "{'hide-col':isBankUser}",
									"sorterArrow": true,
									"className": "{'fa fa-sort-desc':!tblhead5,'fa fa-sort-asc':tblhead5}",
									"ngclick": "toggleSorter('5')",
									"stRatio": "10"
								},
								{
									"control": "header",
									"columnClass": "text-center padding-right6",
									"value": "Mobile number",
									"stSkipNatural": true,
									"translate-id": "lms.mobileNumber",
									"ngClass": "{'hide-col':isBankUser}",
									"sorterArrow": true,
									"ngclick": "toggleSorter('6')",
									"stRatio": "12"
								},
								{
									"control": "header",
									"columnClass": "text-center padding-right6",
									"value": "email",
									"stSkipNatural": true,
									"translate-id": "lms.email",
									"ngClass": "{'hide-col':isBankUser}",
									"sorterArrow": true,
									"ngclick": "toggleSorter('7')",
									"stRatio": "7"
								},
								{
									"control": "header",
									"columnClass": "text-left padding-right6",
									"value": "Next Meeting Date",
									"stSort": "Key19",
									"stSkipNatural": true,
									"ngClass": "{'hide-col':isBankUser}",
									"translate-id": "lms.nextMeetingDate",
									"sorterArrow": true,
									"className": "{'fa fa-sort-desc':!tblhead2,'fa fa-sort-asc':tblhead2}",
									"ngclick": "toggleSorter('2')",
									"stRatio": "16"
								},
								{
									"control": "header",
									"columnClass": "text-center padding-right6",   
									"value": "Priority",
									"stSort": "Key18",
									"stSkipNatural": "true",
									"translate-id": "lms.priority",
									"sorterArrow": true,
									"className": "{'fa fa-sort-desc':!tblhead1,'fa fa-sort-asc':tblhead1}",
									"ngclick": "toggleSorter('1')",
									"stRatio": "12"
								},
								{
									"control": "header",
									"columnClass": "text-left padding-right6",
									"translate-id": "menuFna",
									"stRatio": "8"
								},
								{
									"control": "header",
									"columnClass": "text-left padding-right6",
									"ngShow": "!isBankUser",
									"translate-id": "bi",
									"ngClass": "{'hide-col':isBankUser}",
									"stRatio": "8"
								},
								{
									"control": "header",
									"columnClass": "text-left padding-right6",
									"ngShow": "!isBankUser",
									"translate-id": "eApp",
									"ngClass": "{'hide-col':isBankUser}",
									"stRatio": "7"
								}
							],
					"stsafesrc": "leads",
					"sttable": "tableLeads",
					"ngrepeat": "lead in tableLeads | KMCfilter:leadName:contactNumber:source:nextMeetingDate:status |leadStatusFilter:searchLead:searchKey ",
					"columns": [{
						"control": "checkbox",
						"name": "leadCheckBox",
						"columnClass": "text-left cursor_pointer visible-tablet-table",
						"ngmodel": "",
						"value": "lead.Key4",
						"ngchecked": "selection.indexOf(lead) > -1",
						"ngclass": "getSelectedClass(lead)",
						"ngclick": "toggleSelection(lead)",
						"ngTdClass": "{'isWeb' :$root.isWeb}"
					},
					{
						"control": "icon",
						"type": "syncstatus",
						"popoverPlacement": "right",
						"columnClass": "text-center visible-tablet visible-tablet-table cursor_pointer",
						"ngmodel": "lead.Key16",
						"errorPopup": "lead.Key17",
						"ngTdClass": "{'isWeb' :$root.isWeb}", 
						"ngClass": "{'fa-check circle-green': lead.Key16== 'Synced'|| lead.Key16== 'SUCCESS', 'fa-close circle-red': lead.Key16 == 'SyncError'|| lead.Key16== 'REJECTED' || lead.Key16 == 'FAILURE','fa-refresh circle-yellow': lead.Key16 == 'NotSynced' || lead.Key16 == ''}"
					},
					{
						"control": "text",
						"columnClass": "text-left cursor_pointer",
						"ngmodel": "lead.Key26",
						"ngclick": "editLead(lead.Id,lead.Key1)"
					},
					{
						"control": "text",
						"columnClass": "text-center cursor_pointer mediumWidth wordBreak",
						"ngmodel": "lead.Key2",
						"ngclick": "editLead(lead.Id,lead.Key1)"
					},
					{
						"control": "text",
						"columnClass": " text-center red-text phonenumber padding-right6",
						"style": "underline",
						"ngmodel": "lead.Key4",
						"popoverPlacement": "right"
					},
					{
						"control": "icon",
						"columnClass": "text-center cursor_pointer",
						"type": "email",
						"value": "lead.Key20",
						"ngmodel": "lead.Key20"
					},
					{
						"control": "formatedDate",
						"formatString": "appDateFormat",
						"columnClass": "text-left cursor_pointer",
						"ngmodel": "lead.Key19",
                        "ngclick": "editLead(lead.Id,lead.Key1)"
					},
					{
						"control": "text",
						"columnClass": " text-center cursor_pointer",
						"ngmodel": "(lead.Key18==='VeryHot' || lead.Key18==='null')?severityValidate(lead.Key18):lead.Key18",
						"ngclick": "editLead(lead.Id,lead.Key1)"
					},
					{
						"control": "proceedBtns",
						"columnClass": "btn logicBtn countBtn padding-right6",
						"ngmodel": "lead.fnaCount",
						"ng-click": "navigateToFna(lead)"
					},
					{
						"control": "proceedBtns",
						"columnClass": "btn logicBtn countBtn padding-right6",
						"ngmodel": "lead.illustrationCount",
						"ng-click": "navigateToIllustration(lead)"
					},
					{
						"control": "proceedBtns",
						"columnClass": "btn logicBtn countBtn padding-right6",
						"ngmodel": "lead.eAppCount",
						"ng-click": "navigateToEApp(lead)"
					}]
				}],
				"title": ""
			}]
		},
        {
         "sectionId": "2",
         "sectionType": "collapsible",
         "ngClass": "{'visible-hidden':toggleListing,'visible':!toggleListing}",
			"subsections": [{
				"subsectionId": "0",
				"subsectionType": "collapsible",
				"sectionHeader": "redHot",
				"translate-id": "lms.redHot",
				"controls": [{
					"control": "Table",
					"name": "leadListTblredHot",
					"headerClass": "list_table_head_bg",
					"overflowClass": "{'overflow':overflowClass,'':!overflowClass}",
					"oddRowClass": "row_odd",
					"tableClass": "min",
					"evenRowClass": "row_even",
					"headers": [{
									"control": "emptyHeader",
									"columnClass": "text-left padding-right6",
									"stRatio": "4",
									"ngClass": "{'isWeb' :$root.isWeb}"
                                   
								},
								{
									"control": "header",
									"columnClass": "text-center padding-right6 visible-tablet-table hidden-phone",
									"value": "Sync Status",
									"translate-id": "SyncstatusHeaderText",
									"sorterArrow": false,
									"stRatio": "6",
									"ngClass": "{'isWeb' :$root.isWeb}"
								},
								{
									"control": "header",
									"columnClass": "text-left padding-right6",
									"value": "Nick Name",
									"stSort": "Key26",
									"stSkipNatural": true,
									"translate-id": "lms.leadNickName",
									"ngClass": "{'hide-col':isBankUser}",
									"sorterArrow": true,
									"className": "{'fa fa-sort-desc':!tblhead4,'fa fa-sort-asc':tblhead4}",
									"ngclick": "toggleSorter('4')",
									"stRatio": "10"
								},
								{
									"control": "header",
									"columnClass": "text-left padding-right6",
									"value": "Lead Name",
									"stSort": "fullName",
									"stSkipNatural": true,
									"translate-id": "lms.fullNameListing",
									"ngClass": "{'hide-col':isBankUser}",
									"sorterArrow": true,
									"className": "{'fa fa-sort-desc':!tblhead5,'fa fa-sort-asc':tblhead5}",
									"ngclick": "toggleSorter('5')",
									"stRatio": "10"
								},
								{
									"control": "header",
									"columnClass": "text-center padding-right6",
									"value": "Mobile number",
									"stSkipNatural": true,
									"translate-id": "lms.mobileNumber",
									"ngClass": "{'hide-col':isBankUser}",
									"sorterArrow": true,
									"ngclick": "toggleSorter('6')",
									"stRatio": "12"
								},
								{
									"control": "header",
									"columnClass": "text-center padding-right6",
									"value": "email",
									"stSkipNatural": true,
									"translate-id": "lms.email",
									"ngClass": "{'hide-col':isBankUser}",
									"sorterArrow": true,
									"ngclick": "toggleSorter('7')",
									"stRatio": "7"
								},
								{
									"control": "header",
									"columnClass": "text-left padding-right6",
									"value": "Next Meeting Date",
									"stSort": "Key19",
									"stSkipNatural": true,
									"ngClass": "{'hide-col':isBankUser}",
									"translate-id": "lms.nextMeetingDate",
									"sorterArrow": true,
									"className": "{'fa fa-sort-desc':!tblhead2,'fa fa-sort-asc':tblhead2}",
									"ngclick": "toggleSorter('2')",
									"stRatio": "16"
								},
								{
									"control": "header",
									"columnClass": "text-center padding-right6",   
									"value": "Priority",
									"stSort": "Key21",
									"stSkipNatural": "true",
									"translate-id": "lms.priority",
									"sorterArrow": true,
									"className": "{'fa fa-sort-desc':!tblhead39,'fa fa-sort-asc':tblhead1}",
									"ngclick": "toggleSorter('1')",
									"stRatio": "12"
								},
								{
									"control": "header",
									"columnClass": "text-left padding-right6",
									"translate-id": "menuFna",
									"stRatio": "8"
								},
								{
									"control": "header",
									"columnClass": "text-left padding-right6",
									"ngShow": "!isBankUser",
									"translate-id": "bi",
									"ngClass": "{'hide-col':isBankUser}",
									"stRatio": "8"
								},
								{
									"control": "header",
									"columnClass": "text-left padding-right6",
									"ngShow": "!isBankUser",
									"translate-id": "eApp",
									"ngClass": "{'hide-col':isBankUser}",
									"stRatio": "7"
								}
							],
					"stsafesrc": "redHotLeads",
					"sttable": "tableredHotLeads",
					"ngrepeat": "redHotLead in tableredHotLeads |leadStatusFilter:searchLead:searchKey ",
					"columns": [{
						"control": "checkbox",
						"name": "leadCheckBox",
						"ngmodel": "",
						"columnClass": "text-left.cursor_pointer visible-tablet-table ",
						"value": "redHotLead.Key4",
						"ngchecked": "selection.indexOf(redHotLead) > -1",
						"ngclass": "getSelectedClass(redHotLead)",
						"ngclick": "toggleSelection(redHotLead)",
                        "ngTdClass": "{'isWeb' :$root.isWeb}"
					},
					{
						"control": "icon",
						"type": "syncstatus",
						"popoverPlacement": "right",
						"columnClass": "text-center visible-tablet-table",
						"ngmodel": "redHotLead.Key16",
						"errorPopup": "redHotLead.Key17",
						"ngClick": "syncerror(redHotLead.Key16,redHotLead.Key17)",
                        "ngTdClass": "{'isWeb' :$root.isWeb}",
						"ngClass": "{'fa-check circle-green': redHotLead.Key16== 'Synced' || redHotLead.Key16== 'SUCCESS', 'fa-close circle-red': redHotLead.Key16 == 'SyncError' || redHotLead.Key16 == 'REJECTED' || redHotLead.Key16 == 'FAILURE','fa-refresh circle-yellow': redHotLead.Key16 == 'NotSynced' || redHotLead.Key16 == ''}"
					},
                    {
						"control": "text",
						"columnClass": "text-left cursor_pointer mediumWidth wordBreak",
						"ngmodel": "redHotLead.Key26",
                        "ngclick": "editLead(redHotLead.Id,redHotLead.Key1)"
					},
					{
						"control": "text",
						"columnClass": "text-left cursor_pointer mediumWidth wordBreak",
						"ngmodel": "redHotLead.Key2",
						"ngclick": "editLead(redHotLead.Id,redHotLead.Key1)"
					},
					{
						"control": "text",
						"columnClass": "text-center red-text phonenumber padding-right6",
						"style": "underline",
						"ngmodel": "redHotLead.Key4",
						"popoverPlacement": "right"
					},
					{
						"control": "icon",
						"columnClass": "text-center",
						"type": "email",
						"value" : "redHotLead.Key20",
						"ngmodel": "redHotLead.Key20"
					},
					{
						"control": "formatedDate",
						"formatString": "appDateFormat",
						"columnClass": "text-left cursor_pointer",
						"ngmodel": "redHotLead.Key19",
                        "ngclick": "editLead(redHotLead.Id,redHotLead.Key2)"
					},
					{
						"control": "text",
						"columnClass": " text-center cursor_pointer",
						"ngmodel": "redHotLead.Key18",
                        "ngclick": "editLead(redHotLead.Id,redHotLead.Key1)"
					},
					{
						"control": "proceedBtns",
						"columnClass": "btn logicBtn countBtn padding-right6",
						"ngmodel": "redHotLead.fnaCount",
						"ng-click": "navigateToFna(redHotLead)"
					},
					{
						"control": "proceedBtns",
						"columnClass": "btn logicBtn countBtn padding-right6",
						"ngmodel": "redHotLead.illustrationCount",
						"ng-click": "navigateToIllustration(redHotLead)"
					},
					{
						"control": "proceedBtns",
						"columnClass": "btn logicBtn countBtn padding-right6",
						"ngmodel": "redHotLead.eAppCount",
						"ng-click": "navigateToEApp(redHotLead)"
					}]
				}]
			},
		 	{
				"subsectionId": "1",
				"subsectionType": "collapsible",
				"sectionHeader": "HOT",
				"translate-id": "lms.hot",
				"class" : "collapsed",
				"controls": [{
					"control": "Table",
					"name": "leadListTblHot",
					"overflowClass": "{'overflow':overflowClass,'':!overflowClass}",
					"headerClass": "list_table_head_bg",
					"oddRowClass": "row_odd",
					"tableClass": "min",
					"evenRowClass": "row_even",
					"headers": [{
									"control": "emptyHeader",
									"columnClass": "text-left padding-right6",
									"stRatio": "4",
									"ngClass": "{'isWeb' :$root.isWeb}"
								},
								{
									"control": "header",
									"columnClass": "text-center padding-right6 visible-tablet-table hidden-phone",
									"value": "Sync Status",
									"translate-id": "SyncstatusHeaderText",
									"sorterArrow": false,
									"stRatio": "6",
									"ngClass": "{'isWeb' :$root.isWeb}"
								},
								{
									"control": "header",
									"columnClass": "text-left padding-right6",
									"value": "Nick Name",
									"stSort": "Key26",
									"stSkipNatural": true,
									"translate-id": "lms.leadNickName",
									"ngClass": "{'hide-col':isBankUser}",
									"sorterArrow": true,
									"className": "{'fa fa-sort-desc':!tblhead4,'fa fa-sort-asc':tblhead4}",
									"ngclick": "toggleSorter('4')",
									"stRatio": "10"
								},
								{
									"control": "header",
									"columnClass": "text-left padding-right6",
									"value": "Lead Name",
									"stSort": "fullName",
									"stSkipNatural": true,
									"translate-id": "lms.fullNameListing",
									"ngClass": "{'hide-col':isBankUser}",
									"sorterArrow": true,
									"className": "{'fa fa-sort-desc':!tblhead5,'fa fa-sort-asc':tblhead5}",
									"ngclick": "toggleSorter('5')",
									"stRatio": "10"
								},
								{
									"control": "header",
									"columnClass": "text-center padding-right6",
									"value": "Mobile number",
									"stSkipNatural": true,
									"translate-id": "lms.mobileNumber",
									"ngClass": "{'hide-col':isBankUser}",
									"sorterArrow": true,
									"ngclick": "toggleSorter('6')",
									"stRatio": "12"
								},
								{
									"control": "header",
									"columnClass": "text-center padding-right6",
									"value": "email",
									"stSkipNatural": true,
									"translate-id": "lms.email",
									"ngClass": "{'hide-col':isBankUser}",
									"sorterArrow": true,
									"ngclick": "toggleSorter('7')",
									"stRatio": "7"
								},
								{
									"control": "header",
									"columnClass": "text-left padding-right6",
									"value": "Next Meeting Date",
									"stSort": "Key19",
									"stSkipNatural": true,
									"ngClass": "{'hide-col':isBankUser}",
									"translate-id": "lms.nextMeetingDate",
									"sorterArrow": true,
									"className": "{'fa fa-sort-desc':!tblhead2,'fa fa-sort-asc':tblhead2}",
									"ngclick": "toggleSorter('2')",
									"stRatio": "16"
								},
								{
									"control": "header",
									"columnClass": "text-center padding-right6",   
									"value": "Priority",
									"stSort": "Key21",
									"stSkipNatural": "true",
									"translate-id": "lms.priority",
									"sorterArrow": true,
									"className": "{'fa fa-sort-desc':!tblhead1,'fa fa-sort-asc':tblhead1}",
									"ngclick": "toggleSorter('1')",
									"stRatio": "12"
								},
								{
									"control": "header",
									"columnClass": "text-left padding-right6",
									"translate-id": "menuFna",
									"stRatio": "8"
								},
								{
									"control": "header",
									"columnClass": "text-left padding-right6",
									"ngShow": "!isBankUser",
									"translate-id": "bi",
									"ngClass": "{'hide-col':isBankUser}",
									"stRatio": "8"
								},
								{
									"control": "header",
									"columnClass": "text-left padding-right6",
									"ngShow": "!isBankUser",
									"translate-id": "eApp",
									"ngClass": "{'hide-col':isBankUser}",
									"stRatio": "7"
								}
							],
					"stsafesrc": "hotLeads",
					"sttable": "tableHotLeads",
					"ngrepeat": "hotLead in tableHotLeads |leadStatusFilter:searchLead:searchKey ",
					"columns": [{
						"control": "checkbox",
						"name": "leadCheckBox",
						"ngmodel": "",
						"columnClass": "text-left.cursor_pointer visible-tablet-table ",
						"value": "hotLead.Key4",
						"ngchecked": "selection.indexOf(hotLead) > -1",
						"ngclass": "getSelectedClass(hotLead)",
						"ngclick": "toggleSelection(hotLead)",
                        "ngTdClass": "{'isWeb' :$root.isWeb}"
					},
					{
						"control": "icon",
						"type": "syncstatus",
						"popoverPlacement": "right",
						"columnClass": "text-center visible-tablet-table",
						"ngmodel": "hotLead.Key16",
						"errorPopup": "hotLead.Key17",
                        "ngTdClass": "{'isWeb' :$root.isWeb}",
						"ngClick": "syncerror(hotLead.Key16,hotLead.Key17)",
						"ngClass": "{'fa-check circle-green': hotLead.Key16== 'Synced' || hotLead.Key16== 'SUCCESS', 'fa-close circle-red': hotLead.Key16 == 'SyncError' || hotLead.Key16 == 'REJECTED' || hotLead.Key16 == 'FAILURE','fa-refresh circle-yellow': hotLead.Key16 == 'NotSynced' || hotLead.Key16 == ''}"
					},
                    {
						"control": "text",
						"columnClass": "text-left cursor_pointer mediumWidth wordBreak",
						"ngmodel": "hotLead.Key26",
						"ngclick": "editLead(hotLead.Id,hotLead.Key1)"
					},
					{
						"control": "text",
						"columnClass": "text-left cursor_pointer mediumWidth wordBreak",
						"ngmodel": "hotLead.Key2",
						"ngclick": "editLead(hotLead.Id,hotLead.Key1)"
					},
					{
						"control": "text",
						"columnClass": "text-center red-text phonenumber padding-right6",
						"style": "underline",
						"ngmodel": "hotLead.Key4",
						"popoverPlacement": "right"
					},
					{
						"control": "icon",
						"columnClass": "text-center",
						"type": "email",
						"value" : "hotLead.Key20",
						"ngmodel": "hotLead.Key20"
					},
					{
						"control": "formatedDate",
						"formatString": "appDateFormat",
						"columnClass": "text-left cursor_pointer",
						"ngmodel": "hotLead.Key19",
                        "ngclick": "editLead(hotLead.Id,hotLead.Key1)"
					},
					{
						"control": "text",
						"columnClass": " text-center cursor_pointer",
						"ngmodel": "hotLead.Key18",
                        "ngclick": "editLead(hotLead.Id,hotLead.Key1)"
					},
					{
						"control": "proceedBtns",
						"columnClass": "btn logicBtn countBtn padding-right6",
						 
						"ngmodel": "hotLead.fnaCount",
						"ng-click": "navigateToFna(hotLead)"
					},
					{
						"control": "proceedBtns",
						"columnClass": "btn logicBtn countBtn padding-right6",
						"ngmodel": "hotLead.illustrationCount",
						"ng-click": "navigateToIllustration(hotLead)"
					},
					{
						"control": "proceedBtns",
						"columnClass": "btn logicBtn countBtn padding-right6",
						"ngmodel": "hotLead.eAppCount",
						"ng-click": "navigateToEApp(hotLead)"
					}]
				}]
			},
			{
				"subsectionId": "2",
				"subsectionType": "collapsible",
				"sectionHeader": "WARM",
				"translate-id": "lms.warm",
				"class" : "collapsed",
				"controls": [{
					"control": "Table",
					"name": "leadListTblWarm",
					"overflowClass": "{'overflow':overflowClass,'':!overflowClass}",
					"headerClass": "list_table_head_bg",
					"oddRowClass": "row_odd",
					"tableClass": "min",
					"evenRowClass": "row_even",
					"headers": [{
									"control": "emptyHeader",
									"columnClass": "text-left padding-right6",
									"stRatio": "4",
									"ngClass": "{'isWeb' :$root.isWeb}"
								},
								{
									"control": "header",
									"columnClass": "text-center padding-right6 visible-tablet-table hidden-phone",
									"value": "Sync Status",
									"translate-id": "SyncstatusHeaderText",
									"sorterArrow": false,
									"stRatio": "6",
									"ngClass": "{'isWeb' :$root.isWeb}"
								},
								{
									"control": "header",
									"columnClass": "text-left padding-right6",
									"value": "Nick Name",
									"stSort": "Key26",
									"stSkipNatural": true,
									"translate-id": "lms.leadNickName",
									"ngClass": "{'hide-col':isBankUser}",
									"sorterArrow": true,
									"className": "{'fa fa-sort-desc':!tblhead4,'fa fa-sort-asc':tblhead4}",
									"ngclick": "toggleSorter('4')",
									"stRatio": "10"
								},
								{
									"control": "header",
									"columnClass": "text-left padding-right6",
									"value": "Lead Name",
									"stSort": "fullName",
									"stSkipNatural": true,
									"translate-id": "lms.fullNameListing",
									"ngClass": "{'hide-col':isBankUser}",
									"sorterArrow": true,
									"className": "{'fa fa-sort-desc':!tblhead5,'fa fa-sort-asc':tblhead5}",
									"ngclick": "toggleSorter('5')",
									"stRatio": "10"
								},
								{
									"control": "header",
									"columnClass": "text-center padding-right6",
									"value": "Mobile number",
									"stSkipNatural": true,
									"translate-id": "lms.mobileNumber",
									"ngClass": "{'hide-col':isBankUser}",
									"sorterArrow": true,
									"ngclick": "toggleSorter('6')",
									"stRatio": "12"
								},
								{
									"control": "header",
									"columnClass": "text-center padding-right6",
									"value": "email",
									"stSkipNatural": true,
									"translate-id": "lms.email",
									"ngClass": "{'hide-col':isBankUser}",
									"sorterArrow": true,
									"ngclick": "toggleSorter('7')",
									"stRatio": "7"
								},
								{
									"control": "header",
									"columnClass": "text-left padding-right6",
									"value": "Next Meeting Date",
									"stSort": "Key19",
									"stSkipNatural": true,
									"ngClass": "{'hide-col':isBankUser}",
									"translate-id": "lms.nextMeetingDate",
									"sorterArrow": true,
									"className": "{'fa fa-sort-desc':!tblhead2,'fa fa-sort-asc':tblhead2}",
									"ngclick": "toggleSorter('2')",
									"stRatio": "16"
								},
								{
									"control": "header",
									"columnClass": "text-center padding-right6",   
									"value": "Priority",
									"stSort": "Key21",
									"stSkipNatural": "true",
									"translate-id": "lms.priority",
									"sorterArrow": true,
									"className": "{'fa fa-sort-desc':!tblhead39,'fa fa-sort-asc':tblhead1}",
									"ngclick": "toggleSorter('1')",
									"stRatio": "12"
								},
								{
									"control": "header",
									"columnClass": "text-left padding-right6",
									"translate-id": "menuFna",
									"stRatio": "8"
								},
								{
									"control": "header",
									"columnClass": "text-left padding-right6",
									"ngShow": "!isBankUser",
									"translate-id": "bi",
									"ngClass": "{'hide-col':isBankUser}",
									"stRatio": "8"
								},
								{
									"control": "header",
									"columnClass": "text-left padding-right6",
									"ngShow": "!isBankUser",
									"translate-id": "eApp",
									"ngClass": "{'hide-col':isBankUser}",
									"stRatio": "7"
								}
							],
					"stsafesrc": "warmLeads",
					"sttable": "tableWarmLeads",
					"ngrepeat": "warmLead in tableWarmLeads |leadStatusFilter:searchLead:searchKey",
					"columns": [{
						"control": "checkbox",
						"name": "leadCheckBox",
						"columnClass": "text-left.cursor_pointer visible-tablet-table ",
						"ngmodel": "",
						"value": "warmLeads.Key4",
						"ngchecked": "selection.indexOf(warmLead) > -1",
						"ngclass": "getSelectedClass(warmLead)",
						"ngclick": "toggleSelection(warmLead)",
                        "ngTdClass": "{'isWeb' :$root.isWeb}"
					},
					{
						"control": "icon",
						"type": "syncstatus",
						"popoverPlacement": "right",
						"columnClass": "text-center visible-tablet-table",
						"ngmodel": "warmLead.Key16",
						"errorPopup": "warmLead.Key17",
                        "ngTdClass": "{'isWeb' :$root.isWeb}",
						"ngClick": "syncerror(warmLead.Key16,warmLead.Key17)",
						"ngClass": "{'fa-check circle-green': warmLead.Key16== 'Synced'|| warmLead.Key16== 'SUCCESS', 'fa-close circle-red': warmLead.Key16 == 'SyncError'|| warmLead.Key16== 'REJECTED' || warmLead.Key16 == 'FAILURE','fa-refresh circle-yellow': warmLead.Key16 == 'NotSynced' || warmLead.Key16 == ''}"
					},
                    
                    {
						"control": "text",
						"columnClass": "text-left cursor_pointer mediumWidth wordBreak",
						"ngmodel": "warmLead.Key26",
                        "ngclick": "editLead(warmLead.Id,warmLead.Key1)"
					},
					{
						"control": "text",
						"columnClass": "text-left cursor_pointer mediumWidth wordBreak",
						"ngmodel": "warmLead.Key2",
						"ngclick": "editLead(warmLead.Id,warmLead.Key1)"
					},
					{
						"control": "text",
						"columnClass": " text-center red-text phonenumber padding-right6",
						"style": "underline",
						"ngmodel": "warmLead.Key4",
						"popoverPlacement": "right"
					},
					{
						"control": "icon",
						"columnClass": "text-center",
						"type": "email",
						"value" : "warmLead.Key20",
						"ngmodel": "warmLead.Key20"
					},
					{
						"control": "formatedDate",
						"formatString": "appDateFormat",
						"columnClass": "text-left cursor_pointer",
						"ngmodel": "warmLead.Key19",
                        "ngclick": "editLead(warmLead.Id,warmLead.Key1)"
					},
					{
						"control": "text",
						"columnClass": " text-center cursor_pointer",
						"ngmodel": "warmLead.Key18",
                        "ngclick": "editLead(warmLead.Id,warmLead.Key1)"
					},
					{
						"control": "proceedBtns",
						"columnClass": "btn logicBtn countBtn padding-right6",
						 
						"ngmodel": "warmLead.fnaCount",
						"ng-click": "navigateToFna(warmLead)"
					},
					{
						"control": "proceedBtns",
						"columnClass": "btn logicBtn countBtn padding-right6",
						"ngmodel": "warmLead.illustrationCount",
						"ng-click": "navigateToIllustration(warmLead)"
					},
					{
						"control": "proceedBtns",
						"columnClass": "btn logicBtn countBtn padding-right6",
						"ngmodel": "warmLead.eAppCount",
						"ng-click": "navigateToEApp(warmLead)"
					}]
				}]
			},
			{
				"subsectionId": "3",
				"subsectionType": "collapsible",
				"sectionHeader": "COLD",
				"translate-id": "lms.cold",
				"class" : "collapsed",
				"controls": [{
					"control": "Table",
					"tableClass": "min",
					"name": "leadListTblCold",
					"overflowClass": "{'overflow':overflowClass,'':!overflowClass}",
					"headerClass": "list_table_head_bg",
					"oddRowClass": "row_odd",
					"evenRowClass": "row_even",
					"headers": [{
									"control": "emptyHeader",
									"columnClass": "text-left padding-right6",
									"stRatio": "4",
									"ngClass": "{'isWeb' :$root.isWeb}"
								},
								{
									"control": "header",
									"columnClass": "text-center padding-right6 visible-tablet-table hidden-phone",
									"value": "Sync Status",
									"translate-id": "SyncstatusHeaderText",
									"sorterArrow": false,
									"stRatio": "6",
									"ngClass": "{'isWeb' :$root.isWeb}"
								},
								{
									"control": "header",
									"columnClass": "text-left padding-right6",
									"value": "Nick Name",
									"stSort": "Key26",
									"stSkipNatural": true,
									"translate-id": "lms.leadNickName",
									"ngClass": "{'hide-col':isBankUser}",
									"sorterArrow": true,
									"className": "{'fa fa-sort-desc':!tblhead4,'fa fa-sort-asc':tblhead4}",
									"ngclick": "toggleSorter('4')",
									"stRatio": "10"
								},
								{
									"control": "header",
									"columnClass": "text-left padding-right6",
									"value": "Lead Name",
									"stSort": "fullName",
									"stSkipNatural": true,
									"translate-id": "lms.fullNameListing",
									"ngClass": "{'hide-col':isBankUser}",
									"sorterArrow": true,
									"className": "{'fa fa-sort-desc':!tblhead5,'fa fa-sort-asc':tblhead5}",
									"ngclick": "toggleSorter('5')",
									"stRatio": "10"
								},
								{
									"control": "header",
									"columnClass": "text-center padding-right6",
									"value": "Mobile number",
									"stSkipNatural": true,
									"translate-id": "lms.mobileNumber",
									"ngClass": "{'hide-col':isBankUser}",
									"sorterArrow": true,
									"ngclick": "toggleSorter('6')",
									"stRatio": "12"
								},
								{
									"control": "header",
									"columnClass": "text-center padding-right6",
									"value": "email",
									"stSkipNatural": true,
									"translate-id": "lms.email",
									"ngClass": "{'hide-col':isBankUser}",
									"sorterArrow": true,
									"ngclick": "toggleSorter('7')",
									"stRatio": "7"
								},
								{
									"control": "header",
									"columnClass": "text-left padding-right6",
									"value": "Next Meeting Date",
									"stSort": "Key19",
									"stSkipNatural": true,
									"ngClass": "{'hide-col':isBankUser}",
									"translate-id": "lms.nextMeetingDate",
									"sorterArrow": true,
									"className": "{'fa fa-sort-desc':!tblhead2,'fa fa-sort-asc':tblhead2}",
									"ngclick": "toggleSorter('2')",
									"stRatio": "16"
								},
								{
									"control": "header",
									"columnClass": "text-center padding-right6",   
									"value": "Priority",
									"stSort": "Key21",
									"stSkipNatural": "true",
									"translate-id": "lms.priority",
									"sorterArrow": true,
									"className": "{'fa fa-sort-desc':!tblhead1,'fa fa-sort-asc':tblhead1}",
									"ngclick": "toggleSorter('1')",
									"stRatio": "12"
								},
								{
									"control": "header",
									"columnClass": "text-left padding-right6",
									"translate-id": "menuFna",
									"stRatio": "8"
								},
								{
									"control": "header",
									"columnClass": "text-left padding-right6",
									"ngShow": "!isBankUser",
									"translate-id": "bi",
									"ngClass": "{'hide-col':isBankUser}",
									"stRatio": "8"
								},
								{
									"control": "header",
									"columnClass": "text-left padding-right6",
									"ngShow": "!isBankUser",
									"translate-id": "eApp",
									"ngClass": "{'hide-col':isBankUser}",
									"stRatio": "7"
								}
							],
					"stsafesrc": "coldLeads",
					"sttable": "tableColdLeads",
					"ngrepeat": "coldLead in tableColdLeads |leadStatusFilter:searchLead",
					"columns": [{
						"control": "checkbox",
						"name": "leadCheckBox",
						"columnClass": "text-left.cursor_pointer visible-tablet-table ",
						"ngmodel": "",
						"value": "coldLead.Key4",
						"ngchecked": "selection.indexOf(coldLead) > -1",
						"ngclass": "getSelectedClass(coldLead)",
						"ngclick": "toggleSelection(coldLead)",
                        "ngTdClass": "{'isWeb' :$root.isWeb}"
					},
					{
						"control": "icon",
						"type": "syncstatus",
						"popoverPlacement": "right",
						"columnClass": "text-center visible-tablet-table",
						"ngmodel": "coldLead.Key16",
						"errorPopup": "coldLead.Key17",
                        "ngTdClass": "{'isWeb' :$root.isWeb}",
						"ngClick": "syncerror(coldLead.Key16,coldLead.Key17)",
						"ngClass": "{'fa-check circle-green': coldLead.Key16== 'Synced' || coldLead.Key16== 'SUCCESS', 'fa-close circle-red': coldLead.Key16 == 'SyncError' || coldLead.Key16== 'REJECTED' || coldLead.Key16 == 'FAILURE','fa-refresh circle-yellow': coldLead.Key16 == 'NotSynced' || coldLead.Key16 == ''}"
					},
                    {
						"control": "text",
						"columnClass": "text-left mediumWidth cursor_pointer wordBreak",
						"ngmodel": "coldLead.Key26",
                        "ngclick": "editLead(coldLead.Id,coldLead.Key1)"
					},
					{
						"control": "text",
						"columnClass": "text-left mediumWidth cursor_pointer wordBreak",
						"ngmodel": "coldLead.Key2",
						"ngclick": "editLead(coldLead.Id,coldLead.Key1)"
					},
					{
						"control": "text",
						"columnClass": "text-center red-text phonenumber padding-right6",
						"style": "underline",
						"ngmodel": "coldLead.Key4",
						"popoverPlacement": "right"
					},
					{
						"control": "icon",
						"columnClass": "text-center",
						"type": "email",
						"value" : "coldLead.Key20",
						"ngmodel": "coldLead.Key20"
					},
                    {
						"control": "formatedDate",
						"formatString": "appDateFormat",
						"columnClass": "text-left cursor_pointer",
						"ngmodel": "coldLead.Key19",
                        "ngclick": "editLead(coldLead.Id,coldLead.Key1)"
					},
					{
						"control": "text",
						"columnClass": " text-center cursor_pointer",
						"ngmodel": "coldLead.Key18",
                         "ngclick": "editLead(coldLead.Id,coldLead.Key1)"
					},
					{
						"control": "proceedBtns",
						"columnClass": "btn logicBtn countBtn padding-right6",
						 
						"ngmodel": "coldLead.fnaCount",
						"ng-click": "navigateToFna(coldLead)"
					},
					{
						"control": "proceedBtns",
						"columnClass": "btn logicBtn countBtn padding-right6",
						"ngmodel": "coldLead.illustrationCount",
						"ng-click": "navigateToIllustration(coldLead)"
					},
					{
						"control": "proceedBtns",
						"columnClass": "btn logicBtn countBtn padding-right6",
						"ngmodel": "coldLead.eAppCount",
						"ng-click": "navigateToEApp(coldLead)"
					}]
				}]
			}]
		}],
	  "templateID": "popupwithTabs"
	},
	{
	 "enableValidation": "YES",
	  "id": "filterSection",
      "class":"filterbackground",
	  "enableCache": "true",
	  "ngShow": "true",
	  "templateType": "threeColumnFormElements",
	  "sections": [
		{
		  "sectionId": "1",
		  "ngShow": "true",
		  "subsections": [
			{
			 "controls": [{
					"control": "input",
					"ngmodel": "leadName",
					"rowStart": "yes",
					"colStart": "yes",
					"colEnd": "yes",
                    "ngShow": "true",
                    "placeholder": "lms.leadNameFilter"
					
				},
				{
					"control": "input",
					"ngmodel": "contactNumber",
					"colStart": "yes",
					"colEnd": "yes",
                    "ngShow": "true",
                    "placeholder": "lms.mobileNumberFilter"
					 
				},
                {
					"control": "date",
					"colStart": "yes",
					"colEnd": "yes",
					"name": "nextMeetingDate",
                    "placeholder": "lms.nextMeetingDateFilter",
					"ngmodel": "nextMeetingDate",
                    "ngShow": "true",
                    "calendarIcon": "yes"
                    
				},
				{
					"control": "refreshButton",
					"columnClass": "btn btn-default btn-block highlight resetButton btn_adv_filter",
					"id": "resetBtn",
					"ngmodel": "",
					"rowStart": "yes",
                    "ngShow": "true",
					"customColStart": "offset10 span2",
					"colEnd": "yes",
					"rowEnd": "yes",
					"ngclick": "reset()"
				}
			  ],
			  "title": ""
			}
		  ]
		}
       
	  ],
	  "templateID": "popupwithTabs"
	},
	{
	  "enableValidation": "YES",
	  "id": "popupTabsStartbar",
	  "enableCache": "true",
	  "ngShow": "true",
	  "popUpTabForm": "yes",
	  "tabCountClass": "{twoLead: true}",
	  "popupTabDetail": [
		{
		  "rel": "leadDetailsSection",
		  "ngShow": "true",
		  "tabTitle": "Lead Details",
		  "translate-id": "lms.clientProfile"
		},
		{
		  "rel": "callDetailsSection",
		  "ngShow": "[[agentDetail.agentType!='BranchUser']]",
		  "tabTitle": "Call Details",
		  "translate-id": "lms.contactLog"
		}
	  ],
	  "templateType": "popupTabNavigation",
	  "templateID": "popupwithTabs"
	},
	{
	  "enableValidation": "YES",
	  "id": "popupTabsNavbar",
	  "enableCache": "true",
	  "ngShow": "mandatory",
	  "popUpTabForm": "yes",
	  "mandatory": "yes",
	  "LastUpdatedDetails": "LmsModel.Feedback.LastUpdatedDetails",
	  "formatString": "appDateTimeFormat",
	 "tabCountClass": "{twoLead: true}",
	  "popupTabDetail": [
		{
		  "rel": "leadDetailsSection",
		  "ngShow": "true",
		  "tabTitle": "Lead Details",
		  "translate-id": "lms.clientProfile"
		},
		{
		  "rel": "callDetailsSection",
		  "ngShow": "true",
		  "tabTitle": "Call Details",
            
		  "translate-id": "lms.contactLog"
		}
		
	  ],
	  "templateType": "popupTabNavigation",
	  "templateID": "popupwithTabs"
	},
	{
	  "enableValidation": "YES",
	  "id": "leadDetailsSection",
	  "enableCache": "true",
	  "blur": "updateErrorCount('leadDetailsSection')",
	  "ngClick": "updateErrorCount('leadDetailsSection')",
       "mandatory": "yes",
	  "ngShow": "true",
	  "popUpTabForm": "yes",
	  "templateType": "threeColumnFormElements",
	  "sections": [
		{
		  "sectionId": "lead_details",
		  "popUpTabForm": "yes",
		  "ngShow": "true",
		  "subsections": [
			{
			  
			  "controls": [
				{
				  "control": "stageHeader",
				  "translate-id": "lms.createLeadTabTitle.id1"
				},
				{
				  "control": "popupInput",
				  "stageID": "1",
				  "popUpFormStart": "yes",
				  "popUpForm": "yes",
				  "rowStart": "yes",
				  "twoCol": "yes",
				  "controlElement": [
					{
					  "description": "",
					  "name": "leadName",
					  "className": "pop_up_control_label",
					  "translate-id": "lms.firstName",
					  "ngShow": "isActiveStage(1)",
					  "required": "true",
					  "placeholder": "lms.firstName",  
                      "restrictToMaxLength": true,
					  "maxlength": "20",
					  "ngmodel": "LmsModel.Lead.BasicDetails.fullName",
					  "blur": "updateErrorCount('leadDetailsSection')",
					  "validationModel": "leadDetailsSection.leadName",
					  "requiredMessage": "lms.leadDetailsSectionleadFirstNameRequiredValidationMessage",
					  "regexExpression": "alphabetWithSpacePattern",
					  "patternMessage": "lms.leadDetailsSectionleadFirstNamePatternValidationMessage"
					}
				  ]
				},
				{
				  "control": "popupInput",
				  "stageID": "1",
				  "popUpFormStart": "yes",
				  "popUpForm": "yes",
				  "twoCol": "yes",
				  "rowEnd": "yes",
				  "controlElement": [
					{
					  "description": "",
					  "name": "leadLastName",
					  "className": "pop_up_control_label",
                        
					  "translate-id": "lms.lastname",
					  "ngShow": "isActiveStage(1)",
					  "required": "false",
					  "placeholder": "lms.lastname",
                      "restrictToMaxLength": true,
					  "maxlength": "20",
					  "ngmodel": "LmsModel.Lead.BasicDetails.lastName",
					  "blur": "updateErrorCount('leadDetailsSection')",
					  "validationModel": "leadDetailsSection.leadLastName",
					  "requiredMessage": "lms.leadDetailsSectionleadLastNameRequiredValidationMessage",
					  "regexExpression": "alphabetWithSpacePattern",
					  "patternMessage": "lms.leadDetailsSectionleadLastNamePatternValidationMessage"
					}
				  ]
				},
                  
                  
                  {
				  "control": "popupInput",
				  "stageID": "1",
				  "popUpFormStart": "yes",
				  "popUpForm": "yes",
				  "twoCol": "yes",
				  "rowStart": "yes",
				  "controlElement": [
					{
					  "description": "",
					  "name": "leadNickName",
					  "className": "pop_up_control_label",
					  "translate-id": "lms.nickname",
					  "ngShow": "isActiveStage(1)",
					  "required": "true",
					  "placeholder": "lms.nickname",
                      "restrictToMaxLength": true,
					  "maxlength": "20",
					  "ngmodel": "LmsModel.Lead.BasicDetails.nickName",
					  "blur": "updateErrorCount('leadDetailsSection')",
					  "validationModel": "leadDetailsSection.leadNickName",
					  "requiredMessage": "lms.leadDetailsSectionleadNickNameRequiredValidationMessage",
					  "regexExpression": "alphabetWithSpacePattern",
					  "patternMessage": "lms.leadDetailsSectionleadNickNamePatternValidationMessage"
					}
				  ]
				},
                {
				  "control": "popupRadio",
				  "stageID": "1",
				  "twoCol": "yes",
				  "rowEnd": "yes",
				  "popUpForm": "yes",
				  "mobileSplit": "two-col-span6",
				  "ngShow": "isActiveStage(1)",
				 
				  "name": "Male",
				  "choices": [
					{
					  "id": "Male",
					  "value": "Male",
					  "translate-id": "general.partyGenderOptionMale",					 
					  "name": "gender",
					  "ngClick": "updateErrorCount('leadDetailsSection')",
					  "blur": "updateErrorCount('leadDetailsSection')",
					  "ngmodel": "LmsModel.Lead.BasicDetails.gender"
					},
					{
					  "id": "Female",
					  "value": "Female",
					  "translate-id": "general.partyGenderOptionFeMale",					  
					  "name": "gender",
					  "ngClick": "updateErrorCount('leadDetailsSection')",
					  "blur": "updateErrorCount('leadDetailsSection')",
					  "ngmodel": "LmsModel.Lead.BasicDetails.gender"
					}
				  ],
				  "translate-id": "lms.gender",
				 
				  "validationModel": "leadDetailsSection.gender"
				  
				},  
				{
				  "control": "popupDateTime",
				  "stageID": "1",
				  "popUpFormStart": "yes",
				  "popUpForm": "yes",
				  "rowStart": "yes",
				  "twoCol": "yes",
				  "name": "clientDOB",				 
				  "controlElement": [
					{
					  "controlField": "Date",
					  "description": "",
					  "futuredateflag": true,
					  "name": "clientDOB",
					  "className": "pop_up_control_label",
					  "translate-id": "lms.dob",
					  "placeholder": "lms.dob",
					  "blur": "markAsEdited()",
					  "customBlur": "calculateAge(scope.LmsModel.Lead.BasicDetails.dob, 'clientDOB')",
					  "ngmodel": "LmsModel.Lead.BasicDetails.dob"
					}
				  ]
				},
                {
				  "control": "popupInput",
				  "stageID": "1",
				  "popUpFormStart": "yes",
				  "popUpForm": "yes",
				  "twoCol": "yes",
				  "rowEnd": "yes",
				  "controlElement": [
					{
					  "description": "",
					  "name": "leadAge",
					  "className": "pop_up_control_label",
					  "translate-id": "lms.age",
					  "ngShow": "isActiveStage(1)",
					  "required": "false",
					  "placeholder": "lms.age",					  
					  "ngmodel": "LmsModel.Lead.BasicDetails.age",
					  "blur": "updateErrorCount('leadDetailsSection')",
					  "validationModel": "leadDetailsSection.leadage",
                      "disabled":"true"
					}
				  ]
				},
			    {
				  "control": "lookupDdl",
				  "stageID": "1",
				  "popUpFormStart": "yes",
				  "popUpForm": "yes",
				  "rowStart": "yes",
				  "twoCol": "yes",
				  "name": "nationalID",
				  "controlElement": [
					{
					  "description": "",
					  "name": "nationalID",
					  "className": "pop_up_control_label",
                      "ngShow": "isActiveStage(1)",
					  "translate-id": "lms.nationalID",
					  "placeholder": "",
					  "maxlength": "30",
					  "cacheable" : "true",
                      "populationListName":"nationalID",
					  "controlField": "noSpace",
					  "ngmodel": "LmsModel.Lead.BasicDetails.identityProof",
					  "ngchange": "markAsEdited();clearField('id');",
					  "blur": "updateErrorCount('leadDetailsSection')",
					  "validationModel": "leadDetailsSection.identityProof",                        
					  "patternMessage": "lms.leadDetailsSectionnationalIDPatternValidationMessage",                        
					  "hasParent": "No",
					  "currentType": "IDENTITY",
					  "hasChild": "No"
					}
				  ]
                },
            {
						"control": "popupInput",
						"stageID": "1",
						"popUpFormStart": "yes",
						"popUpForm": "yes",
						"twoCol": "yes",
						"ngif":"LmsModel.Lead.BasicDetails.identityProof=='CID'",
						"ngShow": "LmsModel.Lead.BasicDetails.identityProof=='CID'",                                                               
                        "controlElement": [
                        {
                            "description": "",
                            "name": "IDcard",
                            "className": "pop_up_control_label",
                            "translate-id": "lms.ID card",
                            "ngShow": "LmsModel.Lead.BasicDetails.identityProof=='CID'",
                            "required": "true",
                            "validationModel": "leadDetailsSection.IDcard",  
                            "placeholder": "lms.ID card",
                            "numbersOnly": true,
                            "maxlength": "13",
                            "ngmodel": "LmsModel.Lead.BasicDetails.IDcard",
							"blur": "validateFields('leadDetailsSection')",
							"requiredMessage": "lms.leadDetailsSectionleadidcardRequiredValidationMessage"                       
						}]
                },
				{
						"control": "popupInput",
						"stageID": "1",
						"popUpFormStart": "yes",
						"popUpForm": "yes",
						"twoCol": "yes",
						"ngif":"LmsModel.Lead.BasicDetails.identityProof=='PP'",
						"ngShow": "LmsModel.Lead.BasicDetails.identityProof=='PP'",
                   
                        "controlElement": [
                         {
                            "description": "",
                            "name": "IDcard1",
                            "className": "pop_up_control_label",
                            "translate-id": "lms.ID card",
                            "ngShow": "LmsModel.Lead.BasicDetails.identityProof=='PP'",
                            "required": "true",
                            "validationModel": "leadDetailsSection.IDcard1",                            
                            "maxlength": "24",
                            "placeholder": "lms.ID card",
                             "restrictToMaxLength": true,
                            "regexExpression": "passportEappPattern",
                            "patternMessage": "lms.leadDetailsSectionleadIDcardPatternValidationMessage",
                            "ngmodel": "passportNum",
                            "requiredMessage": "lms.leadDetailsSectionleadidcardRequiredValidationMessage",
                            "blur": "updateErrorCount('leadDetailsSection')"
						}]
                },
				{
                        "control": "popupInput",
						"stageID": "1",
						"popUpFormStart": "yes",
						"popUpForm": "yes",
						"twoCol": "yes",
						"ngif":"LmsModel.Lead.BasicDetails.identityProof=='DL'",
						"ngShow": "LmsModel.Lead.BasicDetails.identityProof=='DL'",
                   
                        "controlElement": [
						{
							"description": "",
                            "name": "IDcard2",
                            "className": "pop_up_control_label",
                            "translate-id": "lms.ID card",
                             "validationModel": "leadDetailsSection.IDcard2",  
                            "ngShow": "LmsModel.Lead.BasicDetails.identityProof=='DL'",
                            "required": "true",
                            "maxlength": "20",
                            "restrictToMaxLength": true,
                            "placeholder": "lms.ID card",
                            "patternMessage": "lms.leadDetailsSectionleadIDcardPatternValidationMessage",
                            "regexExpression": "alphanumericPatterng",
                            "requiredMessage": "lms.leadDetailsSectionleadidcardRequiredValidationMessage",
                            "ngmodel": "driverLicenseNum",
                            "blur": "updateErrorCount('leadDetailsSection')"
						}]
                },
				{
                        "control": "popupInput",
                        "stageID": "1",
                        "popUpFormStart": "yes",
                        "popUpForm": "yes",
                        "twoCol": "yes",
						"ngif":"LmsModel.Lead.BasicDetails.identityProof=='GID'",
						"ngShow": "LmsModel.Lead.BasicDetails.identityProof=='GID'",
						"rowEnd": "yes",
                        
						"controlElement": [
						{
							"description": "",
                            "name": "IDcard3",
							"className": "pop_up_control_label",
							"translate-id": "lms.ID card",
							"ngShow": "LmsModel.Lead.BasicDetails.identityProof=='GID'",
                             "validationModel": "leadDetailsSection.IDcard3",  
							"required": "true",
							"placeholder": "lms.ID card",
							"regexExpression": "alphanumericPatterng",
							"maxlength": "20",
                            "restrictToMaxLength": true,
							"ngmodel": "governmentIdNum",
                            "patternMessage": "lms.leadDetailsSectionleadIDcardPatternValidationMessage",
							"requiredMessage": "lms.leadDetailsSectionleadidcardRequiredValidationMessage",
							"blur": "updateErrorCount('leadDetailsSection')"
						}]
                },
				{
							"control": "numberInput",
							"stageID": "1",
							"popUpForm": "yes",
							"twoCol": "yes",
							"rowStart": "yes",
							"controlElement": [{
								"description": "",
								"name": "mobileNumber",
								"className": "pop_up_control_label",
								"translate-id": "lms.mobileNumber",
							    "required":"false",
								"placeholder": "lms.mobileNumber",
								"numbersOnly": true,
								"ngShow": "isActiveStage(1)",
							    "restrictToMaxLength": true,
								"maxlength": "20",
								"ngmodel": "LmsModel.Lead.ContactDetails.mobileNumber1",
								"blur": "updateErrorCount('leadDetailsSection')",
								"regexExpression": "mobnumberPattern",
								"patternMessage": "lms.leadDetailsSectionmobileNumberPatternValidationMessage",
								"validationModel": "leadDetailsSection.mobileNumber"
							}]
				},
				{
				  "control": "numberInput",
				  "stageID": "1",
				  "popUpForm": "yes",
				  "twoCol": "yes",
				  "rowEnd": "yes",
				  "controlElement": [
					{
					  "description": "",
					  "name": "contactNumbernew",
					  "className": "pop_up_control_label",
					  "translate-id": "lms.homenumber",
					  "required": "false",
					  "placeholder": "lms.homenumberpl",
					  "numbersOnly": true,
					  "ngShow": "isActiveStage(1)",
					  "restrictToMaxLength": true,
					  "maxlength": "20",
					  "ngmodel": "LmsModel.Lead.ContactDetails.homeNumber",
					  "blur": "updateErrorCount('leadDetailsSection')",
					  "regexExpression": "mobnumberPattern",
					  "patternMessage": "lms.leadDetailsSectioncontactNumberPatternValidationMessage",
					  "validationModel": "leadDetailsSection.contactNumbernew"
					}
				  ]
				},
                  {
				  "control": "popupInput",
				  "stageID": "1",
				  "popUpFormStart": "yes",
				  "popUpForm": "yes",
				  "twoCol": "yes",
				  "rowStart": "yes",
				  "controlElement": [
					{
					  "description": "",
					  "name": "lineID",
					  "className": "pop_up_control_label",
					  "translate-id": "lms.lineID",
					  "ngShow": "isActiveStage(1)",
					  "required": "false",
					  "placeholder": "lms.lineID",
                      "restrictToMaxLength": true,
					  "maxlength": "20",
					  "ngmodel": "LmsModel.Lead.ContactDetails.lineID",
					  "blur": "updateErrorCount('leadDetailsSection')",
					  "validationModel": "leadDetailsSection.lineID"
					 }
				  ]
				},
                  
                  {
				  "control": "popupInput",
				  "stageID": "1",
				  "popUpFormStart": "yes",
				  "popUpForm": "yes",
				  
				  "rowEnd": "yes",
				  "twoCol": "yes",
				  "name": "emailId",
				  "controlElement": [
					{
					  "description": "",
					  "controlField": "noSpace",
					  "name": "emailId",
					  "className": "pop_up_control_label",
					  "translate-id": "lms.emailId",
					  "placeholder": "lms.emailIdPl",
					  "maxlength": "50",
					  "ngchange": "markAsEdited()",
                      "checkEmailPattern" : true,
					  "ngmodel": "LmsModel.Lead.ContactDetails.emailId",
					  "blur": "updateErrorCount('leadDetailsSection')",
					  "regexExpression": "emailPattern",
					  "validationModel": "leadDetailsSection.emailId",
					  "patternMessage": "lms.leadDetailsSectionemailIdPatternValidationMessage"
					}
				  ]
				},
                {
				  "control": "lookupDdl",
				  "stageID": "1",
				  "rowStart": "yes",
				  "twoCol": "yes",
				  "rowEnd":"yes",
				  "popUpForm": "yes",
				  "controlElement": [
					{
					  "description": "",
					  "name": "approachability",
					  "translate-id": "lms.priority",
					  "cacheable" : "true",
					  "populationListName": "approachability",
					  "className": "pop_up_control_label",
					  "ngShow": "isActiveStage(1)",
					  "ngmodel": "LmsModel.Lead.SeverityDetails.severity",					  
					  "ngchange": "markAsEdited()",
					  "blur": "updateErrorCount('leadDetailsSection')",
					  "validationModel": "leadDetailsSection.approachability",					  
					  "hasParent": "No",
					  "currentType": "SEVERITY",
					  "hasChild": "No"
					}
				  ]
                },
				{
				  "control": "popupInput",
				  "stageID": "1",
				  "popUpFormStart": "yes",
				  "popUpForm": "yes",
				  "rowStart": "yes",
				  "twoCol": "yes",
				  "name": "houseNo",
				  
				  "controlElement": [
					{
					  "description": "",
					  "name": "houseNo",
					  "className": "pop_up_control_label",
					  "translate-id": "lms.houseNo",
					  "ngShow": "isActiveStage(1)",
					  "placeholder": "lms.houseNo",
					  "maxlength": "100",
					  "ngchange": "markAsEdited()",
					  "ngmodel": "LmsModel.Lead.ContactDetails.currentAddress.addressLine1",
					  "blur": "updateErrorCount('leadDetailsSection')",
					  "validationModel": "leadDetailsSection.houseNo",
					  "patternMessage": "leadDetailsSectionhouseNoPatternValidationMessage"
					}
				  ]
				},
				{
				  "control": "popupInput",
				  "stageID": "1",
				  "popUpFormStart": "yes",
				  "popUpForm": "yes",
				  "rowEnd": "yes",
				  "twoCol": "yes",
				  "name": "streetName",
				  "controlElement": [
					{
					  "description": "",
					  "name": "streetName",
					  "className": "pop_up_control_label",
					  "translate-id": "lms.streetName",
					  "ngShow": "isActiveStage(1)",
					  "placeholder": "lms.streetName",
					  "maxlength": "100",
					  "ngchange": "markAsEdited()",
					  "ngmodel": "LmsModel.Lead.ContactDetails.currentAddress.streetName",
					  "blur": "updateErrorCount('leadDetailsSection')",
					  "validationModel": "leadDetailsSection.streetName",
					  "patternMessage": "lms.leadDetailsSectionStreetNamePatternValidationMessage"
					}
				  ]
				},
                {
				  "control": "typeAheadDbLookupDdl",
				  "stageID": "1",
				  "rowStart": "yes",
				  "twoCol": "yes",
				  "popUpForm": "yes",
				  "mobileSplit": "two-col-span6",
				  "controlElement": [
					{
					  "description": "",
					  "name": "wardOrHamlet",
					  "translate-id": "lms.subdistrict",
					  "ngShow": "isActiveStage(1)",
					  "populationListName": "wardOrHamlet",
                      "placeholder": "lms.subdistrict",
					  "blur": "updateErrorCount('leadDetailsSection');updateOnBlur(LmsModel.Lead.ContactDetails.currentAddress.ward,'LmsModel.Lead.ContactDetails.currentAddress.ward',wardOrHamlet,'leadDetailsSection');",
					  "typeaheadFormatter": "formatLabel($model,wardOrHamlet,'wardOrHamlet')",
					  "typeahead": "wardOrHamlet.code as wardOrHamlet.value for wardOrHamlet in wardOrHamlet | filter:$viewValue",
					  "typeaheadSelect": "onSelectTypeHead('wardOrHamlet');",
					  "className": "pop_up_control_label",                      
					  "ngmodel": "LmsModel.Lead.ContactDetails.currentAddress.ward",
                      "ngchange": "clearField('address')",
					  "hasParent": "No",
                      "hasChild": "Yes",
					  "childNgModel": "LmsModel.Lead.ContactDetails.currentAddress.cityValue",
					  "childType": "WARD_DISTRICT",
					  "cacheable" : "true",
					  "childName": "district",
					  "currentType": "WARD"					  
					}
				  ]
				},
				{
				  "control": "typeAheadDbLookupDdl",
				  "stageID": "1",
				  "rowEnd": "yes",
				  "twoCol": "yes",
				  "popUpForm": "yes",
				  "mobileSplit": "two-col-span6",
				  "controlElement": [
					{
					  "description": "",
					  "name": "district",
					  "translate-id": "lms.district",
					  "ngShow": "isActiveStage(1)",
					  "populationListName": "district",
                      "placeholder": "lms.district",
					  "blur": "updateErrorCount('leadDetailsSection');updateOnBlur(LmsModel.Lead.ContactDetails.currentAddress.city,'LmsModel.Lead.ContactDetails.currentAddress.city',district,'leadDetailsSection');",
					  "typeaheadFormatter": "formatLabel($model,district,'district')",
					  "typeahead": "district.code as district.value for district in district | filter:$viewValue",
					  "typeaheadSelect": "onSelectTypeHead('district');",
					  "className": "pop_up_control_label",
					  "cacheable" : "true",
					  "ngmodel": "LmsModel.Lead.ContactDetails.currentAddress.cityValue",
					  "currentType": "DISTRICT",
                      "disabled":"true",
					  "hasChild": "No",
					  "hasParent": "Yes",
                      "parentNgModel": "LmsModel.Lead.ContactDetails.currentAddress.ward"
					}
				  ]
				},
                {
				  "control": "popupInput",
				  "stageID": "1",
				  "rowStart": "yes",
				  "twoCol": "yes",
				  "popUpForm": "yes",
				  "mobileSplit": "two-col-span6",
				  "controlElement": [
					{
					  "description": "",
					  "name": "state",
					  "translate-id": "lms.province",
					  "ngShow": "isActiveStage(1)",
					  "populationListName": "state",
                      "placeholder": "lms.province",
					  "blur": "updateErrorCount('leadDetailsSection');updateOnBlur(LmsModel.Lead.ContactDetails.currentAddress.state,'LmsModel.Lead.ContactDetails.currentAddress.state',state,'leadDetailsSection');",
					  "typeaheadFormatter": "formatLabel($model,state,'state')",
					  "typeahead": "state.code as state.value for state in state | filter:$viewValue",
					  "typeaheadSelect": "onSelectTypeHead('State')",
					  "validationModel": "leadDetailsSection.state",
					  "requiredMessage": "lms.leadDetailsSectionstateRequiredValidationMessage",
					  "className": "pop_up_control_label",
					  "ngmodel": "LmsModel.Lead.ContactDetails.currentAddress.stateValue",
					  "ngchange": "markAsEdited()",
					  "hasParent": "Yes",
                      "disabled":"true",
					  "cacheable" : "true",
					  "parentNgModel": "LmsModel.Lead.ContactDetails.currentAddress.ward",
					  "currentType": "STATE",
					  "hasChild": "No"					  
					}
				  ]
				},
				{
				  "control": "popupInput",
				  "stageID": "1",
				  "rowEnd": "yes",
				  "twoCol": "yes",
				  "popUpForm": "yes",
				  "mobileSplit": "two-col-span6",
				  "controlElement": [
					{
					  "description": "",
					  "name": "zipcode",
					  "translate-id": "lms.zipcode",
					  "ngShow": "isActiveStage(1)",
					  "populationListName": "zipcode",
                      "placeholder": "lms.zipcode",
					  "className": "pop_up_control_label",
					  "typeaheadFormatter": "formatLabel($model,zipcode,'zipcode')",
					  "blur": "updateOnBlur(LmsModel.Lead.ContactDetails.currentAddress.zipcode,'LmsModel.Lead.ContactDetails.currentAddress.zipcode',zipcode,'leadDetailsSection');",
					  "typeahead": "zipcode.code as zipcode.value for zipcode in zipcode | filter:$viewValue",
					  "typeaheadSelect": "onSelectTypeHead('zipcode')",
					  "ngmodel": "LmsModel.Lead.ContactDetails.currentAddress.zipcode",
					  "hasParent": "Yes",
                      "disabled":"true",
					  "cacheable" : "true",
					  "parentNgModel": "LmsModel.Lead.ContactDetails.currentAddress.ward",
					  "currentType": "ZIPCODE",
					  "hasChild": "No"
					}
				  ]
				},                
				{
				  "control": "lookupDdl",
				  "stageID": "1",
				  "rowStart": "yes",
				  "twoCol": "yes",				  
				  "popUpForm": "yes",
				  "controlElement": [
					{
					  "description": "",
					  "name": "source",
					  "translate-id": "lms.source",
					  "populationListName": "source",
					  "className": "pop_up_control_label",
					  "disabled":"disablSource",
					  "ngchange": "onSourceChange()",
					  "ngmodel": "LmsModel.Lead.SourceDetails.source",
					  "blur": "updateErrorCount('leadDetailsSection')",
					  "hasParent": "No",
					  "cacheable" : "true",
					  "setDefault": "!editMode",
					  "currentType": "SOURCE",
					  "hasChild": "No"
					}
				  ]
				},
				{
				  "control": "popupButton",
				  "rowStart": "yes",
				  "rowEnd": "yes",
				  "columnClass": "text-right-mbl-center-tab",
				  "controlElement": [
                      {
					  "description": "Next",
					  "translate-id": "lms.next",
					  "ngShow": "toggleNavButton('next')",
					  "ngchange": "",
					  "ngclick": "goNextStage()",
					  "customClasses": "btn-next",
					  "id": "",
					  "columnClass": "uppercase"
					},
					{
					  "description": "Proceed",
					  "translate-id": "lms.save",
					  "ngShow": "!toggleNavButton('next') && agentDetail.agentType != 'BranchUser'",
					  "ngchange": "markAsEdited()",
					  "ngclick": "nextButtonSave()",
					  "id": "nextBtn",
                        "columnClass": "lowercase"
					 
					},
					{
					  "description": "Proceed",
					  "translate-id": "lms.save",
					  "ngShow": "!toggleNavButton('next') && agentDetail.agentType == 'BranchUser'",
					  "ngchange": "markAsEdited()",
					  "ngclick": "rm_Save()",
					  "id": "nextBtn2",
					   "customClasses": "btn-save"
					}
				  ]
				}
			  ],
			  "title": ""
			}
		  ]
		}
	  ],
	  "templateID": "popupwithTabs"
	},
	{
	  
	   "enableValidation": "YES",
	  "id": "callDetailsSection",
	  "enableCache": "true",
	  "ngShow": "true",
        "mandatory":"yes",
	  "popUpTabForm": "yes",
        "blur": "updateErrorCount('leadDetailsSection')",
	  "ngClick": "updateErrorCount('leadDetailsSection')",
	  "templateType": "threeColumnFormElements",
	  "sections": [
		{
		  "sectionId": "call_details",
		  "popUpTabForm": "yes",
		  "ngShow": "true",
		  "subsections": [
			{
                 "controls": [
                  {
				  "control": "titleHeader",
                  "required":"true",
				  "translate-id": "lms.contactlogTabTitle.id1",
                     "rowStart": "yes",
				  "colStart": "yes"
				},
                  
                   {
				  "control": "popupDate",
				

				  "popUpForm": "yes",
				   "translate-id": "lms.Call Date",
				  "placeholder": "lms.Call Date",
				   "ngmodel": "calldate",
				  "name": "meetingDate",
				  "calendarIcon": "yes",
				  "customBlur": "validateFields('callDetailsSection')",
				  "validationModel": "callDetailsSection.meetingDate",
				  "requiredMessage": "lms.callDetailsSectionmeetingDateRequiredValidationMessage"
				},
                     
                     
                     
				{
				    "control": "lookupDdl",
                     "popUpFormStart": "yes",
				    "popUpForm": "yes",
                    "name": "callstatus",
                    "controlElement": [
                {
                    "description": "",
				    "name": "callstatus",
				    "className": "pop_up_control_label",
                    "controlField": "noSpace",
				    "translate-id": "lms.result",
				    "placeholder": "",
					"cacheable" : "true",
				    "ngmodel": "communicationStatusCodeCall",
                    "populationListName": "callstatus",
				    "currentType": "CALLSTATUS",
				    "hasChild": "No",
					"hasParent": "No",
				    "blur": "validateFields('callDetailsSection')"
				}
     ]
                },
                    {
				  "control": "popupButton1",
				  "columnClass": "right-mbl-center-tab-cbtn",
				  "controlElement": [
					{
					  "description": "Save",
					  "translate-id": "lms.save",
					  "ngclick": "GLI_Save_custom('Call')",
					  "id": "saveBtn1",
					  "columnClass": "uppercase"
					}
				  ]
				},
                  
                  {
				  "control": "titleHeader",
				  "translate-id": "lms.contactlogTabTitle.id2"
				},

                  {
				    "control": "Table",
				    "name": "",
                    "colEnd":"yes",
                    "caption": "",
				  "translate-id": "",
				  
				   "headers": [
					
					{
					  "value": "Name",
					  "translate-id": "lms.serial",
					  "colspan": "1",
					  "stRatio": "15",
					  "columnClass": "text-left"
					},
                      
                      {
					  "value": "Date",
					  "translate-id": "lms.date",
					  "colspan": "1",
					  "stRatio": "25",
					  "columnClass": "text-left"
					},
                      
                      {
					  "value": "Date",
					  "translate-id": "lms.result",
					  "colspan": "1",
					  "stRatio": "60",
					  "columnClass": "text-left"
					}
                  ],
				  	
				  "ngrepeat": "followUp in tempFollowUps",
				  "columns": [
					{
					  "control": "text",
					  "columnClass": "text-left",
					  "ngmodel": "$index + 1",
					  "column-id": "width47"
					},

					{
					  "control": "text",
					  "columnClass": "text-left",
					  "ngmodel": "followUp.metDate",
					  "column-id": "width110",
	                   "value" : "followUp.metDate"
					},
					{
					  "control": "text",
					  "columnClass": "text-left",
					  "ngmodel": "followUp.resultDisplay",
					  "column-id": "width110"
					}

				  ]
				  
                  },
                  
                  
                  {
				  "control": "titleHeader",
                      "colStart": "yes",
				  "translate-id": "lms.contactlogTabTitle.id3"
				},

				
				{
				  "control": "popupDate",
                    
				  
				  "popUpForm": "yes",
				  "calendarIcon": "yes",
				  "translate-id": "lms.appointment date",
				  "placeholder": "lms.appointment date",
				  "ngmodel": "actualMeetingDate",
				  
				  "name": "appointmentdate",
				 
				  "customBlur": "validateFields('callDetailsSection')",
				  "validationModel": "callDetailsSection.meetingDate",
				  "requiredMessage": "lms.callDetailsSectionmeetingDateRequiredValidationMessage"
				},
				{
				  "control": "popupTime",
				  "popUpForm": "yes",
                   
                   
                  
				  "description": "",
				  "name": "meetingTime",
			
                    
				  "className": "pop_up_control_label",
				  
				  "translate-id": "lms.appointment time",
				  "placeholder": "lms.appointment time",
				  "ngmodel": "actualMeetingTime",
				 
				  "blur": "validateFields('callDetailsSection')"
				
                        
                },
                  
                  
                  
                  {
				  "control": "popupButton1",
				 
                
				  
				  "columnClass": "right-mbl-center-tab",
				  "controlElement": [
					
					
					{
					  "description": "Save",
					  "translate-id": "lms.save",
					  "ngclick": "GLI_Save_custom('Appointment')",
					  "id": "saveBtn1",
					  "columnClass": "uppercase"
					}
				  ]
				},
                  
                  
                  {
				  "control": "titleHeader",
				  "translate-id": "lms.contactlogTabTitle.id4"
				},

                  {
				  "control": "Table",
				  "name": "",
                     
                      "colEnd":"yes",
                      
				  "caption": "",
				  "translate-id": "",
				  
				  
				  "headers": [
					
					{
					  "value": "Name",
					  "translate-id": "lms.serial",
					  "colspan": "1",
					  "stRatio": "15",
					  "columnClass": "text-left"
					},
                      
                      {
					  "value": "Date",
					  "translate-id": "lms.date",
					  "colspan": "1",
					  "stRatio": "25",
					  "columnClass": "text-left"
					},
                      
                      {
					  "value": "Date",
					  "translate-id": "lms.time",
					  "colspan": "1",
					  "stRatio": "60",
					  "columnClass": "text-left"
					}
                  ],
				  "ngrepeat": "followUp in tempFollowUpsApp",
				  "columns": [
					{
					  "control": "text",
					  "columnClass": "text-left",
					  "ngmodel": "$index + 1",
					  "column-id": "width47"
					},

					{
					  "control": "formatedDate",
					  "formatString": "appDateFormat",
					  "columnClass": "text-left",
					  "ngmodel": "followUp.metDate",
					  "column-id": "width110",
	                   "value" : "followUp.metDate"
					},
					{
					  "control": "text",
					  "columnClass": "text-left",
					  "ngmodel": "followUp.metTime",
					  "column-id": "width110"
					}

				  ]
                  },
                  
                  {
				  "control": "titleHeader",
				  "translate-id": "lms.contactlogTabTitle.id5"
				},

                  
				
				{
				  "control": "popupDate",
				  
				  "colStart": "yes",
				  "popUpForm": "yes",
				   "calendarIcon": "yes",
				  "ngShow": "LmsModel.Lead.StatusDetails.disposition !='Successful Sale'",
				  "translate-id": "lms.Visit Date",
				  
				 "placeholder": "lms.Visit Date",
				  "ngmodel": "planedMeetingDate",
				  "name": "nextMeetingDate",
				  "customBlur": "validateFields('callDetailsSection')",
				  "validationModel": "callDetailsSection.nextMeetingDate",
				  "requiredMessage": "lms.callDetailsSectionsubfollowUpDateRequiredValidationMessage"
				},
				{
				    "control": "lookupDdl",
                     "popUpFormStart": "yes",
				    "popUpForm": "yes",
                    "name": "visitstatus",
                    "controlElement": [
                {
                    "description": "",
				    "name": "visitstatus",
				    "className": "pop_up_control_label",
                    "controlField": "noSpace",
				    "translate-id": "lms.result",
				    "placeholder": "",
				    "ngmodel": "communicationStatusCodeVisit",
                    "populationListName": "visitstatus",
				    "currentType": "VISITSTATUS",
					"cacheable" : "true",
				    "hasChild": "No",
					"hasParent": "No",
				    "blur": "validateFields('callDetailsSection')"
				}
     ]
                },
                  
                  
                    {
				  "control": "popupButton1",
				 
                  "columnClass": "right-mbl-center-tab",
				  
				 
				  "controlElement": [
					
					
					{
					  "description": "Save",
					  "translate-id": "lms.save",
					  "ngclick": "GLI_Save_custom('Visit')",
					  "id": "saveBtn1",
					  "columnClass": "uppercase"
					}
				  ]
				},
                  
                  
                  
                  {
				  "control": "titleHeader",
				  "translate-id": "lms.contactlogTabTitle.id6"
				},

                  
                  
                    {
				  "control": "Table",
				  "name": "",
                     "rowEnd":"yes",
                      "colEnd":"yes",
                      
				  "caption": "",
				  "translate-id": "",
				  
				  
				  "headers": [
					
					{
					  "value": "Name",
					  "translate-id": "lms.serial",
					  "colspan": "1",
					  "stRatio": "15",
					  "columnClass": "text-left"
					},
                      
                      {
					  "value": "Date",
					  "translate-id": "lms.date",
					  "colspan": "1",
					  "stRatio": "20",
					  "columnClass": "text-left"
					},
                      
                      {
					  "value": "Date",
					  "translate-id": "lms.result",
					  "colspan": "1",
					  "stRatio": "65",
					  "columnClass": "text-left"
					  
					}
                  ],
                  "ngrepeat": "followUp in tempFollowUpsVisit",
				  "columns": [
					{
					  "control": "text",
					  "columnClass": "text-left",
					  "ngmodel": "$index + 1",
					  "column-id": "width47"
					},

					{
					  "control": "text",
					  "columnClass": "text-left",
					  "ngmodel": "followUp.metDate",
					  "column-id": "width110",
	                   "value" : "followUp.metDate"
					},
					{
					  "control": "text",
					  "columnClass": "text-left",
					  "ngmodel": "followUp.resultDisplay",
					  "column-id": "width110"
					}

				  ]
                  }
                  ],
			  "title": ""
			}
		  ]
		}
	  ],
	  "templateID": "popupwithTabs"
	},
	{
	  "enableValidation": "YES",
	  "id": "leadCreatorsDetailsView",
	  "enableCache": "false",
	  "ngShow": "true",
	  "templateType": "accordionPlusTable",
	  "sections": [
		{
		  "sectionId": "1",
		  "sectionType": "",
		  "ngClass": "{'visible minHeight':true,'visible-hidden':false}",
		  "container": "yes",
		  "subsections": [
			{
			  "subsectionType": "popup",
			  "popupTitle": "leadCreatorsDetails",
			  "subsectionId": "2",
			  "ngShow": "RMPopupShow",
			  "controls": [
				{
				  "control": "inputWithErrorMessage",
				  "name": "RMName",
				  "ngmodel": "LmsModel.Lead.RMInfo.RMName",
				  "rowStart": "yes",
				  "twoCol": "yes",
				  "translate-id": "lms.creatorsFullName",
				  "regexExpression": "alphabetWithSpacePattern",
				  "maxlength": "50",
				  "required": "true",
				  "columnClass": "form-control span12",
				  "validationModel": "leadCreatorsDetailsView.RMName",
				  "requiredMessage": "lms.leadCreatorsDetailsFullNameRequiredValidationMessage",
				  "patternMessage": "lms.leadCreatorsDetailsFullNameValidationMessage"
				},
				{
				  "control": "inputWithErrorMessage",
				  "name": "RMNationalID",
				  "ngmodel": "LmsModel.Lead.RMInfo.RMNationalID",
				  "twoCol": "yes",
				  "rowEnd": "yes",
				  "translate-id": "nationalID",
				  "regexExpression": "nationalIDPattern",
				  "required": "true",
				  "maxlength": "30",
				  "columnClass": "form-control span12",
				  "validationModel": "leadCreatorsDetailsView.RMNationalID",
				  "requiredMessage": "lms.leadCreatorsDetailsNationalIDRequiredValidationMessage",
				  "patternMessage": "lms.leadCreatorsDetailsNationalIDValidationMessage"
				},
				{
				  "control": "inputWithErrorMessage",
				  "name": "RMMobileNumber",
				  "controlField": "Numeric",
				  "ngmodel": "LmsModel.Lead.RMInfo.RMMobileNumber",
				  "rowStart": "yes",
				  "twoCol": "yes",
				  "rowEnd": "yes",
				  "translate-id": "mobileNumber",
				  "required": "true",
				  "maxlength": "16",
				  "columnClass": "form-control span12",
				  "validationModel": "leadCreatorsDetailsView.RMMobileNumber",
				  "requiredMessage": "lms.leadCreatorsDetailsMobileNumberRequiredValidationMessage",
				  "regexExpression": "numberPatternMob",
				  "patternMessage": "lms.referralDetailsSectionhomeNumber1PatternValidationMessage"
				},
				{
				  "control": "buttonGroup",
				  "popUpFormEnd": "yes",
				  "rowStart": "yes",
				  "twoCol": "yes",
				  "rowEnd": "yes",
				  "columnClass": "text-right filterButtons form-buttons",
				  "controlElement": [
					{
					  "columnClass": "btn btn-default text-red",
					  "translate-id": "cancel",
					  "id": "resetBtn",
					  "ngmodel": "",
					  "ngclick": "cancelPopup()"
					},
					{
					  "columnClass": "btn btn-default btn-primary btn-save",
					  "translate-id": "proceed",
					  "id": "applyBtn",
					  "ngmodel": "",
					  "ngclick": "proceedToCreateLead()"
					}
				  ]
				}
			  ],
			  "title": ""
			}
		  ]
		}
	  ],
	  "templateID": "popupwithTabs"
	}
  ]
}