{
	"Version": "1",
	"Views": [{
		"id": "PolicyHolderSubTab",
		"enableCache": "true",
		"ngController": "GLI_ProposerController",
		"sections": [{
			"sectionId": "1",
			"sectionHeader": "BasicDetails",
			"translate-id": "eapp_vt.mainInsuredParticulars",
			"sectionType": "collapsible",
			"contentWithTitle": true,
			"activateClass": "active",
			"ngIf": true,
			"sectionVisibility": "true",
			"subsections": [{
				"controls": [{

	                    	"control": "typeAheadDbLookupDdl",
                                "popUpForm": "yes",
		                     	"twoColumnLayout": true,                              
                                "rowStart":"yes",
                                "controlElement": [{
								"description": "",
								"translate-id": "illustrator.title",
								"placeholder": "illustrator.title",
                                "name": "insuredTitle",
							    "spliceId": "insuredTitle",
                                "disabled": "(LifeEngageProduct.Insured.BasicDetails.illustrationInsSameAsPayer===LifeEngageProduct.Insured.BasicDetails.isInsuredSameAsPayer)",
								"ngShow": true,
								"required": true,
						        "populationListName": "title",
                                "typeEditable":"true",
								"typeaheadFormatter": "formatLabel($model,title,'title')",
			                    "typeahead": "title.code as title.value for title in title | filter:$viewValue",
			                    "typeaheadSelect": "onSelectTypeHead('title');",
								"className": "pop_up_control_label",
								"ngmodel": "LifeEngageProduct.Payer.BasicDetails.title",
                                "validationModel": "PolicyHolderSubTab.insuredTitle",
                                "requiredMessage": "illustrator.titleRequiredValidationMessage",
								"setDefault": false,										
								"hasParent": "No",
                                "hasChild": "Yes",
								"cacheable" : "true",
								"maxlength": "30",
								"blur": "onFieldChange();updateOnBlur(LifeEngageProduct.Payer.BasicDetails.title,'LifeEngageProduct.Payer.BasicDetails.title',title,'PolicyHolderSubTab');updateErrorCount('PolicyHolderSubTab');",
								"ngchange": "markAsEdited();",
			                    "currentType": "TITLE",
                                "childType": "TITLE_GENDER",
                                "childNgModel": "titleGenderPairPayer",
				                "childName": "titleGenderPairPayer"
						}]                               
                    },{
					"control": "input",
					"description": "First Name",
                    "rowStart":"yes",
					"translate-id": "eapp_vt.firstName",
					"placeholder": "eapp_vt.firstName",
					"name": "lifeAssuredFirstName",
					"disabled": false,
					"ngmodel": "LifeEngageProduct.Payer.BasicDetails.firstName",
					"type": "text",
					"maxlength": "30",
					"required": true,
                    "restrictToMaxLength": true,
					"blur": "updateErrorCount('PolicyHolderSubTab')",
					"validationModel": "PolicyHolderSubTab.lifeAssuredFirstName",
                    "regexExpression": "alphabetWithSpacePatternIllustration",
                    "patternMessage": "lms.leadDetailsSectionleadFirstNamePatternValidationMessage",
					"requiredMessage": "eapp_vt.eAppPayerFirstName",
					"twoColumnLayout": true
				}, {
					"control": "input",
					"description": "Last Name",
					"translate-id": "eapp_vt.lastName",
					"placeholder": "eapp_vt.lastName",
					"name": "lifeMainAssuredLastName",
					"disabled": false,
					"ngmodel": "LifeEngageProduct.Payer.BasicDetails.lastName",
					"type": "text",
					"maxlength": "30",
					"required": true,
                    "restrictToMaxLength": true,
					"blur": "updateErrorCount('PolicyHolderSubTab')",
					"validationModel": "PolicyHolderSubTab.lifeMainAssuredLastName",
					"regexExpression": "alphabetWithSpacePatternIllustration",
					"requiredMessage": "eapp_vt.eAppPayerLastName",
					"patternMessage": "lms.leadDetailsSectionleadLastNamePatternValidationMessage",
					"twoColumnLayout": true
				},{
					"control": "input",
					"description": "Last Name",
					"translate-id": "eapp_vt.oldOrlastName",
                    "placeholder": "eapp_vt.oldOrlastName",
					"name": "lifeMainAssuredOldLastName",
					"disabled": false,
					"ngmodel": "LifeEngageProduct.Payer.BasicDetails.oldName",
					"type": "text",
					"maxlength": "30",
					"required": false,
					"blur": "updateErrorCount('PolicyHolderSubTab')",
					"validationModel": "PolicyHolderSubTab.lifeMainAssuredOldLastName",
					"restrictToMaxLength": true,
					"regexExpression": "alphabetWithSpacePatternIllustration",
				    "patternMessage": "eapp_vt.leadDetailsSectionleadOldNamePatternValidationMessage",
					"twoColumnLayout": true,
                    "rowStart":"yes"
				}, {
					"control": "radioCommon",
					"description": "Gender",
					"translate-id": "eapp_vt.gender",
					"name": "GenderPayer",
					"labelWidth": "span5",
					"radioWidth": "span7",
					"required": true,
					"focusId": "GenderPayer",
					"id": "GenderPayer",
					"validationModel": "this[viewToBeCustomized].GenderPayer",
					"requiredMessage": "illustrator.genderMandatoryValidationPayer",
					"twoColumnLayout": true,
					"choices": [{
						"id": "GenderPayer",
						"translate-id": "general.partyGenderOptionMale",
						"value": "Male",
						"name": "GenderPayer",
						"disabled": "(LifeEngageProduct.Insured.BasicDetails.illustrationInsSameAsPayer===LifeEngageProduct.Insured.BasicDetails.isInsuredSameAsPayer)",
                        "required": true,
						"ngClick": "spliceWidowInMaritalDropdown();delayUpdateErrorCount('50','PolicyHolderSubTab');updateErrorCount('PolicyHolderSubTab');",
						"ngmodel": "LifeEngageProduct.Payer.BasicDetails.gender"
					}, {
						"id": "MainInsuredGenderNo",
						"translate-id": "general.partyGenderOptionFeMale",
						"value": "Female",
						"name": "MainInsuredGenderNo",
						"disabled": "(LifeEngageProduct.Insured.BasicDetails.illustrationInsSameAsPayer===LifeEngageProduct.Insured.BasicDetails.isInsuredSameAsPayer)",
                        "required": true,
						"ngClick": "spliceWidowInMaritalDropdown();delayUpdateErrorCount('50','PolicyHolderSubTab');updateErrorCount('PolicyHolderSubTab');",
						"ngmodel": "LifeEngageProduct.Payer.BasicDetails.gender"

					}]
				},{
					"control": "date",
					"name": "lifeMainAssuredDOB",
					"spliceId": "lifeMainAssuredDOB",
                    "description": "Date Of Birth",
					"twoColumnLayout": true,
					"translate-id": "eapp_vt.dob",
                    "placeholder": "eapp_vt.dob",
					"futuredateflag": true,
					"maxlength": "10",
					"disabled": "(LifeEngageProduct.Insured.BasicDetails.illustrationInsSameAsPayer===LifeEngageProduct.Insured.BasicDetails.isInsuredSameAsPayer)",
					"ngmodel": "LifeEngageProduct.Payer.BasicDetails.dob",
					"required": true,
					"blur": "updateErrorCount('PolicyHolderSubTab');validateNationality()",
					"customBlur": "calculateAge(scope.LifeEngageProduct.Payer.BasicDetails.dob, 'insuredDOB');validateNationality()",
                    
					"validationModel": "PolicyHolderSubTab.lifeMainAssuredDOB",
					"requiredMessage": "illustrator.dobRequiredValidationMessage",
					"regexExpression": "dobPattern",
					"patternMessage": "illustrator.dobPatternMessage",
					"rowStart": "yes"
				},{
	        		"control": "input",
					"translate-id": "eapp_vt.age",
	                "placeholder": "eapp_vt.age",
					"description": "Age",
					"name": "lifeMainAssuredRelation",
					"type": "text",
					"ngmodel": "LifeEngageProduct.Payer.BasicDetails.age",
					"disabled": "isInsuredSameAsPayerFlag",
					"isTranslateReqd": true,
					"required": true,
					"blur": "updateErrorCount('PolicyHolderSubTab')",
					"ngchange": "",
					"validationModel": "PolicyHolderSubTab.lifeMainAssuredRelation",
					"requiredMessage": "eapp_vt.mainInsuredTypeOfIdnetityRequiredMessage",
					"twoColumnLayout": true


				},{
					"control": "typeAheadDbLookupDdl",								
					"twoColumnLayout": true,
					"popUpForm": "yes",
					"controlElement": [{
						"description": "",
						"name": "countryPayer",
						"maxlength": "30",
						"translate-id": "eapp_vt.nationality",
                        "placeholder": "eapp_vt.nationality",
						"populationListName": "nationalityLsit",
                        "typeEditable":"true",
						"blur": "updateErrorCount('PolicyHolderSubTab');updateOnBlur(LifeEngageProduct.Payer.BasicDetails.nationality,'LifeEngageProduct.Payer.BasicDetails.nationality',nationalityLsit,'PolicyHolderSubTab');validateNationality();clearField('DateOfExpiry')",
						"typeaheadFormatter": "formatLabel($model,nationalityLsit,'nationalityLsit')",
						"typeahead": "nationalityLsit.code as nationalityLsit.value for nationalityLsit in nationalityLsit | filter:$viewValue",
						"typeaheadSelect": "onSelectTypeHead('nationalityLsit')",
						"required": true,									
						"validationModel": "PolicyHolderSubTab.countryPayer",
						"requiredMessage": "eapp_vt.eAppPayerNationality",
						"className": "pop_up_control_label",
						"ngmodel": "LifeEngageProduct.Payer.BasicDetails.nationality",						
						"hasParent": "No",
						"currentType": "NATIONALITY",
						"cacheable" : "true",
						"hasChild": "No",
                        "rowStart": "yes"
					}]
				},{
						"control": "lookupDdl",
						"translate-id": "eapp_vt.maritalStatus",
                        "placeholder": "eapp_vt.maritalStatus",
						"description": "Marital Status",
						"name": "maritalStatus",
						"cacheable" : "true",
						"ngmodel": "LifeEngageProduct.Payer.BasicDetails.maritalStatus",
						"type": "text",
						"required": true,
						"populationListName": "customMaritalStatus",
                        "disabled":"(LifeEngageProduct.Payer.BasicDetails.gender!=='Male' && LifeEngageProduct.Payer.BasicDetails.gender!=='Female')",
						"hasParent": "No",
						"currentType": "MARITALSTATUS",
						"hasChild": "No",
						"blur": "updateErrorCount('PolicyHolderSubTab');delayUpdateErrorCount('50','PolicyHolderSubTab');validateMaritalStatus();",
                        "ngchange":"updateErrorCount('PolicyHolderSubTab');delayUpdateErrorCount('50','PolicyHolderSubTab');validateMaritalStatus();",
						"validationModel": "PolicyHolderSubTab.maritalStatus",
						"requiredMessage": "eapp_vt.eAppPayerMaritalStatus",
						"twoColumnLayout": true

				}, {
								"control": "input",
								"translate-id": "eapp_vt.height",
								"description": "height",
								"placeholder": "eapp_vt.height",
								"name": "MainAssuredheight",
								"ngmodel": "LifeEngageProduct.Payer.HealthDetails.height",
								"type": "text",
								"numbersOnly": true,
								"infoIcon": true,
								"required": true,
								"maxlength": "3",
								"restrictToMaxLength": true,
								"iftrim": true,
								"blur": "updateErrorCount('PolicyHolderSubTab')",
								"validationModel": "PolicyHolderSubTab.MainAssuredheight",
								"requiredMessage": "eapp_vt.eAppHeightofPayer",
								"twoColumnLayout": true,
                                "rowStart": "yes"
							},{
						"control": "input",
						"translate-id": "eapp_vt.weight",
						"description": "Weight",
						"placeholder": "eapp_vt.weight",
						"name": "MainAssuredWeight",
						"ngmodel": "LifeEngageProduct.Payer.HealthDetails.weight",
						"type": "text",
						"restrictToMaxLength": true,
						"numbersOnly": true,
						"infoIcon": true,
						"required": true,
						"maxlength": "3",
						"iftrim": true,
						"blur": "updateErrorCount('PolicyHolderSubTab')",
						"validationModel": "PolicyHolderSubTab.MainAssuredWeight",
						"requiredMessage": "eapp_vt.eAppWeightofPayer",
						"twoColumnLayout": true						
					},{
						"control": "input",
						"description": "Last Name",
						"translate-id": "eapp_vt.lastNameOfSpouse",
                        "placeholder": "eapp_vt.lastNameOfSpouse",
						"name": "ProposarAssuredLastNameofSpouse",
						"disabled": false,
						"ngmodel": "LifeEngageProduct.Payer.BasicDetails.spouseLastName",
						"type": "text",
						"maxlength": "30",
						"required": false,
						"blur": "updateErrorCount('PolicyHolderSubTab')",
						"validationModel": "PolicyHolderSubTab.ProposarAssuredLastNameofSpouse",
						"restrictToMaxLength": true,
						"regexExpression": "alphabetWithSpacePatternIllustration",
				        "patternMessage": "eapp_vt.leadDetailsSectionleadSpouseNamePatternValidationMessage",
						"twoColumnLayout": true,
                        "rowStart": "yes"
					},{
						"control": "input",
						"description": "Last Name",
						"translate-id": "eapp_vt.oldNameOrlastNameOfSpouse",
                        "placeholder": "eapp_vt.oldNameOrlastNameOfSpouse",
						"name": "lifeMainAssuredOldNameSpouse",
						"disabled": false,
						"ngmodel": "LifeEngageProduct.Payer.BasicDetails.spouseOldName",
						"type": "text",
						"maxlength": "30",
						"required": false,
						"blur": "updateErrorCount('PolicyHolderSubTab')",
						"validationModel": "PolicyHolderSubTab.lifeMainAssuredOldNameSpouse",
						"restrictToMaxLength": true,
						"regexExpression": "alphabetWithSpacePatternIllustration",
				        "patternMessage": "eapp_vt.leadDetailsSectionleadSpouseOldNamePatternValidationMessage",
						"twoColumnLayout": true                            
					},{
						"control": "lookupDdl",
						"translate-id": "eapp_vt.typeOfIdentity",
                        "placeholder": "eapp_vt.typeOfIdentity",
						"description": "Type of Identity",
						"name": "typeOfIdentity",
						"ngmodel": "LifeEngageProduct.Payer.BasicDetails.identityProof",
						"type": "text",
						"customClass": "clearfix",
						"required": true,
						"populationListName": "defaultIdentityTypeApp",
						"hasParent": "No",
						"currentType": "IDENTITYTYPE",
						"cacheable" : "true",
						"hasChild": "No",
                        "blur": "updateErrorCount('PolicyHolderSubTab');delayUpdateErrorCount('50','PolicyHolderSubTab');dynamicValidations();",
                        "ngchange":"updateErrorCount('PolicyHolderSubTab');delayUpdateErrorCount('50','PolicyHolderSubTab');dynamicValidations();",
                        "validationModel": "PolicyHolderSubTab.typeOfIdentity",
                        "requiredMessage": "eapp_vt.eAppPayerIdentityType",
						"twoColumnLayout": true,
						"rowStart": "yes"
					}, {
						"control": "popupInput",
							"twoColumnLayout": true,
					        "popUpForm": "yes",
							"ngif":"foreignerInd===false",
							"ngShow": "foreignerInd===false",     
							"customClass":"idCardNo",                                                          
	                        "controlElement": [
                        {
                            "description": "",
                            "name": "IDcard",
                            "className": "pop_up_control_label",
                            "translate-id": "eapp_vt.idCardNo",
                            "ngShow": "foreignerInd===false",
                            "required": "true",
                            "validationModel": "PolicyHolderSubTab.IDcard",  
                            "placeholder": "eapp_vt.idCardNo",
                            "numbersOnly": true,
                            "maxlength": "13",
                            "restrictToMaxLength":true,
                            "ngmodel": "citizenIdIdentityProof",
							"blur": "dynamicValidations();updateErrorCount('PolicyHolderSubTab');",
							"requiredMessage": "eapp_vt.eAppPayerIdentityCardNumber"                       
						}]

                }, {
						"control": "popupInput",												
						"popUpForm": "yes",
						"twoColumnLayout": true,
						"rowStart": "yes",
						"ngif":"foreignerInd===true",
						"ngShow": "foreignerInd===true",
						"ngClass":"{'PassportNo-column': foreignerInd===true}",
                   		"customClass":"PassportNo",
                        "controlElement": [
                         {
                            "description": "",
                            "name": "IDcard1",
                            "className": "pop_up_control_label",
                            "translate-id": "eapp_vt.eAppPassportNo",
                            "ngShow": "foreignerInd===true",
                            "required": "true",
                            "validationModel": "PolicyHolderSubTab.IDcard1",
                            "maxlength": "24",
                            "restrictToMaxLength":true,
                            "placeholder": "eapp_vt.eAppPassportNo",
                            "regexExpression": "passportEappPattern",
                            "patternMessage": "lms.leadDetailsSectionleadIDcardPatternValidationMessage",
                            "ngmodel": "passportIdentityProof",
                            "blur": "dynamicValidations();updateErrorCount('PolicyHolderSubTab');",
                            "requiredMessage": "eapp_vt.eAppPayerPassportNumber"
						}]
                }, {
							"control": "date",
							"name": "lifeMainAssuredIdentityDate",
							"spliceId": "lifeMainAssuredIdentityDate",
                            "description": "Identity Date",
							"class" : "futureDate",
							"twoColumnLayout": true,
							"translate-id": "eapp_vt.idDate",
                            "placeholder": "eapp_vt.idDate",
							"enableFutureDate" : false,
							"maxlength": "10",
                            "validationModel": "PolicyHolderSubTab.lifeMainAssuredIdentityDate",
						    "disabled": "LifeEngageProduct.Payer.BasicDetails.isValidForLife",
							"ngmodel": "LifeEngageProduct.Payer.BasicDetails.identityExpDate",
							"required": "!LifeEngageProduct.Payer.BasicDetails.isValidForLife",
							"ngChange": "updateErrorCount('PolicyHolderSubTab');dynamicValidations();",
                            "customBlur": "updateErrorCount('PolicyHolderSubTab');dynamicValidations()",
                            "blur":"futureDateValidation()",
							"regexExpression": "dobPattern",
                            "rowEnd": "yes",
                            "requiredMessage": "eapp_vt.mainInsuredIdentityDateRequiredMessage"
						},{
							"control": "checkbox-label",
							"type": "text",
							"ngHide": "true",
                            "class":"validForLifeCustom",
							"choices": [{
								"translate-id": "eapp_vt.validForLife",
                                "class":"span5 pull-left validForLifeCustomLabel",
								"fontBold": "yes",
								"ngTrueValue": "'Yes'",
								"ngmodel": "LifeEngageProduct.Payer.BasicDetails.isValidForLife",
								"ngClick": "updateExpiryDate();dynamicValidations();updateErrorCount('PolicyHolderSubTab')"
							}],
							"twoColumnLayout": true,							
							"blur": "updateErrorCount('PolicyHolderSubTab')"									
					    },{
								"control": "lookupDdl",
                                "spliceId": "eApprelationshipToInsured",
								"translate-id": "illustrator.relationshipToInsured",
                                "placeholder": "illustrator.relationshipToInsured",
								"description": "Relationship to insured",
								"name": "eApprelationshipToInsured",
                                "ngShow":"LifeEngageProduct.Insured.BasicDetails.isInsuredSameAsPayer==='No'",
								"ngmodel": "LifeEngageProduct.Insured.CustomerRelationship.relationshipWithProposer",
								"type": "text",
								"required": true,
								"populationListName": "relationship",
								"hasParent": "No",
								"currentType": "RELATIONSHIP",
								"hasChild": "No",
								"blur": "updateErrorCount('PolicyHolderSubTab')",
								"validationModel": "PolicyHolderSubTab.eApprelationshipToInsured",
								"requiredMessage": "eapp_vt.mandatoryRelationshipWithPayor",
								"twoColumnLayout": true,
                                "rowStart": "yes"
							}]
			}]
		}, {
			"sectionId": "2",
			"sectionHeader": "Address and Place of Work",
			"sectionType": "collapsible",
			"translate-id": "eapp_vt.residentAddress",
			"contentWithTitle": true,
			"id": "eapp-Address-PlaceofWork",
			"accordionHeading": "alternate-accordion-clr",
			"iconClass": "fa-envelope",
			"ngIf": true,
			"sectionVisibility": "true",
			"subsections": [{
					"controls": [
                        {
				            "control": "titleHeader",
				            "translate-id": "eapp_vt.householdRegistrationAddress",
                            "ngShow":true,
                            "twoColumnLayout": "true",
                            "rowStart":"yes",
                            "name": "householdRegistrationAddress",
						    "spliceId": "householdRegistrationAddress"
				        },{
							"control": "input",
							"translate-id": "eapp_vt.mobilePhoneNumber",
							"placeholder": "eapp_vt.mobilePhoneNumber",
							"description": "Number",
							"name": "MainPayerHouseNumber",
							"maxlength": "16",
							"required": true,
							"restrictToMaxLength":true,
							"ngmodel": "LifeEngageProduct.Payer.ContactDetails.permanentAddress.houseNo",
							"blur": "updateErrorCount('PolicyHolderSubTab');updateAutomatically();",
							"houseNo": true,
							"iftrim": true,
							"validationModel": "PolicyHolderSubTab.MainPayerHouseNumber",
							"requiredMessage": "eapp_vt.mainInsuredHouseNoMandatoryPermanent",
							"type": "text",
							"rowStart": "yes",
							"twoColumnLayout": true
						},
						{
							"control": "input",
							"description": "Name of Building",
							"translate-id": "eapp_vt.buildingName",
                            "placeholder": "eapp_vt.buildingName",
							"name": "MainPayerbuildingName",
							"ngmodel": "LifeEngageProduct.Payer.ContactDetails.permanentAddress.buildingName",
							"type": "text",
							"maxlength": "30",
							"blur": "updateErrorCount('PolicyHolderSubTab');updateAutomatically();",
							"validationModel": "PolicyHolderSubTab.MainPayerbuildingName",
							"twoColumnLayout": true
						}, {
							"description": "MooNo",
							"translate-id": "eapp_vt.MooNo",
                            "placeholder": "eapp_vt.MooNo",
							"name": "MainPayerMooNoName",
							"ngmodel": "LifeEngageProduct.Payer.ContactDetails.permanentAddress.mooNo",
							"type": "labelone",
							"maxlength": "30",
							"blur": "updateErrorCount('PolicyHolderSubTab');updateAutomatically();",
							"validationModel": "PolicyHolderSubTab.MainPayerMooNoName",
                            "rowStart": "yes",
                            "splitInputSpan": true,
							"twoColumnLayout": true,
							"disabled2":false, 
							"translate-id2": "eapp_vt.eAppLane",
							"class2": "text-center",
							"description2": "eapp_vt.eAppLane",
							"placeholder2": "eapp_vt.eAppLane",
							"name2": "lifeAssuredAge",
							"ngmodel2": "LifeEngageProduct.Payer.ContactDetails.permanentAddress.lane",
							"maxlength": "3",
							"required": true,
							"twoColumnLayout": true,
							"rowStart": "yes"
						},{
							"control": "input",
							"description": "Road",
							"translate-id": "eapp_vt.Road",
                            "placeholder": "eapp_vt.Road",
							"name": "PayerPermanentStreetName",
							"ngmodel": "LifeEngageProduct.Payer.ContactDetails.permanentAddress.streetName",
                            "type": "text",
							"required": false,
							"maxlength": "30",
							"blur": "updateErrorCount('PolicyHolderSubTab');updateAutomatically();",
							"validationModel": "PolicyHolderSubTab.PayerPermanentStreetName",
							"twoColumnLayout": true
						}, {
				  "control": "typeAheadDbLookupDdl",
				  "stageID": "1",
				  "rowStart": "yes",
				  "twoColumnLayout": true,
				  "popUpForm": "yes",
				  "mobileSplit": "two-col-span6",
				  "controlElement": [
					{
					  "description": "",
					  "name": "wardOrHamletPermanent",
					  "translate-id": "eapp_vt.subdistrict",
					  "ngShow": "true",
					  "populationListName": "wardOrHamlet",
                      "placeholder": "eapp_vt.subdistrict",
                      "required":true,
					  "blur": "updateErrorCount('PolicyHolderSubTab');updateOnBlur(LifeEngageProduct.Payer.ContactDetails.permanentAddress.ward,'LifeEngageProduct.Payer.ContactDetails.permanentAddress.ward',wardOrHamlet,'');updateAutomatically();dynamicValidations()",
					  "typeaheadFormatter": "formatLabelPermanentAddress($model,wardOrHamlet,'wardOrHamlet')",
					  "typeahead": "wardOrHamlet.code as wardOrHamlet.value for wardOrHamlet in wardOrHamlet | filter:$viewValue",
					  "typeaheadSelect": "onSelectTypeHead('wardOrHamlet');",
					  "className": "pop_up_control_label",                      
					  "ngmodel": "LifeEngageProduct.Payer.ContactDetails.permanentAddress.ward",
                      "ngchange": "clearFieldPermanent('address')",
					  "hasParent": "No",
                      "hasChild": "Yes",
					  "childNgModel": "LifeEngageProduct.Payer.ContactDetails.permanentAddress.cityValue",
					  "childType": "WARD_DISTRICT",
					  "childName": "district",
					  "currentType": "WARD",
					  "cacheable" : "true",
                      "validationModel": "PolicyHolderSubTab.wardOrHamletPermanent",
					  "requiredMessage": "eapp_vt.mandatorySubdistrict"		  
					}
				  ]
				},
				{
				  "control": "typeAheadDbLookupDdl",				  
				  "twoColumnLayout": true,
				  "popUpForm": "yes",
				  "mobileSplit": "two-col-span6",
				  "controlElement": [
					{
					  "description": "",
					  "name": "districtPermanent",
					  "translate-id": "eapp_vt.district",
					  "control": "popupInput",
                      "ngShow": "true",
                      "required":true,
					  "populationListName": "district",
                      "placeholder": "eapp_vt.district",
					  "blur": "updateErrorCount('PolicyHolderSubTab');updateOnBlur(LifeEngageProduct.Payer.ContactDetails.permanentAddress.city,'LifeEngageProduct.Payer.ContactDetails.permanentAddress.city',district,'');dynamicValidations()",
					  "typeaheadFormatter": "formatLabelPermanentAddress($model,district,'district')",
					  "typeahead": "district.code as district.value for district in district | filter:$viewValue",
					  "typeaheadSelect": "onSelectTypeHead('district');",
					  "className": "pop_up_control_label",
					  "ngmodel": "LifeEngageProduct.Payer.ContactDetails.permanentAddress.cityValue",
					  "currentType": "DISTRICT",
					  "cacheable" : "true",
                      "disabled":"true",
					  "hasChild": "No",
					  "hasParent": "Yes",
                      "parentNgModel": "LifeEngageProduct.Payer.ContactDetails.permanentAddress.ward",
                      "validationModel": "PolicyHolderSubTab.districtPermanent",
                      "requiredMessage": "eapp_vt.mandatoryDistrict"
					}
				  ]
				},
                {
				  "control": "popupInput",				  
				  "rowStart": "yes",
				  "twoColumnLayout": true,
				  "popUpForm": "yes",
				  "mobileSplit": "two-col-span6",
				  "controlElement": [
					{
					  "description": "",
					  "name": "statePermanent",
					  "translate-id": "lms.province",
					  "control": "popupInput",
                      "ngShow": "true",
                      "required":true,
					  "populationListName": "state",
                      "placeholder": "lms.province",
					  "blur": "updateErrorCount('PolicyHolderSubTab');updateOnBlur(LifeEngageProduct.Payer.ContactDetails.permanentAddress.state,'LifeEngageProduct.Payer.ContactDetails.permanentAddress.state',state,'');",
					  "typeaheadFormatter": "formatLabelPermanentAddress($model,state,'state')",
					  "typeahead": "state.code as state.value for state in state | filter:$viewValue",
					  "typeaheadSelect": "onSelectTypeHead('State')",
					  "requiredMessage": "eapp_vt.mandatoryProvince",
                      "validationModel": "PolicyHolderSubTab.statePermanent",
					  "className": "pop_up_control_label",
					  "ngmodel": "LifeEngageProduct.Payer.ContactDetails.permanentAddress.state",
					  "ngchange": "markAsEdited()",
					  "hasParent": "Yes",
                      "disabled":"true",
					  "parentNgModel": "LifeEngageProduct.Payer.ContactDetails.permanentAddress.ward",
					  "currentType": "STATE",
					  "cacheable" : "true",
					  "hasChild": "No"
					}
				  ]
				},
				{
				  "control": "popupInput",				  
				  "twoColumnLayout": true,
				  "popUpForm": "yes",
				  "mobileSplit": "two-col-span6",
				  "controlElement": [
					{
					  "description": "",
					  "name": "zipcodePermanent",
					  "translate-id": "lms.zipcode",
					  "ngShow": "true",
					  "required":true,
					  "populationListName": "zipcode",
                      "placeholder": "lms.zipcode",
					  "className": "pop_up_control_label",
					  "typeaheadFormatter": "formatLabelPermanentAddress($model,zipcode,'zipcode')",
					  "blur": "updateOnBlur(LifeEngageProduct.Payer.ContactDetails.permanentAddress.zipcode,'LifeEngageProduct.Payer.ContactDetails.permanentAddress.zipcode',zipcode,'');",
					  "typeahead": "zipcode.code as zipcode.value for zipcode in zipcode | filter:$viewValue",
					  "typeaheadSelect": "onSelectTypeHead('zipcode')",
					  "ngmodel": "LifeEngageProduct.Payer.ContactDetails.permanentAddress.zipcode",
					  "hasParent": "Yes",
                      "disabled":"true",
					  "parentNgModel": "LifeEngageProduct.Payer.ContactDetails.permanentAddress.ward",
					  "currentType": "ZIPCODE",
					  "hasChild": "No",
                      "validationModel": "PolicyHolderSubTab.zipcodePermanent",
					  "requiredMessage": "eapp_vt.mandatoryPostalCode"	
					}
				  ]
				}, {
				            "control": "titleHeader",
				            "translate-id": "eapp_vt.currentAddress",
                            "ngShow":true,
                            "twoColumnLayout": "true",
                            "rowStart":"yes",
                            "name": "currentAddress",
						    "spliceId": "currentAddress"
				        },{
								"control": "radioCommon",
								"description": "Copy from Household Address",
								"translate-id": "eapp_vt.copyFromHouseholdRegAddress",
								"name": "copyFromHouseholdRegAddress",
								"labelWidth": "span5",
								"radioWidth": "span7",								
								"focusId": "copyFromHouseholdRegAddress",
								"id": "copyFromHouseholdRegAddress",
								"choices": [{
									"id": "copyFromHouseholdRegAddress",
									"translate-id": "eapp_vt.copyFromHouseholdRegAddressYes",
									"value": "Yes",
									"name": "copyFromHouseholdRegAddress",
									"ngClick":"copyFromHouseholdRegAddress('Yes');delayUpdateErrorCount('50','PolicyHolderSubTab');dynamicValidations();",
									"ngmodel": "LifeEngageProduct.Payer.ContactDetails.isPermanentAddressSameAsCurrentAddress"
								}, {
									"id": "copyFromHouseholdRegAddress",
									"translate-id": "eapp_vt.copyFromHouseholdRegAddressNo",
									"value": "No",
									"name": "copyFromHouseholdRegAddress",
									"ngClick": "copyFromHouseholdRegAddress('No');delayUpdateErrorCount('50','PolicyHolderSubTab');dynamicValidations();",
									"ngmodel": "LifeEngageProduct.Payer.ContactDetails.isPermanentAddressSameAsCurrentAddress"

								}],
								"validationModel": "PolicyHolderSubTab.copyFromHouseholdRegAddress",
								"twoColumnLayout": true,
								"rowStart": "yes"
							}, {
							"control": "input",
							"translate-id": "eapp_vt.mobilePhoneNumber",
							"description": "Number",
							"placeholder": "eapp_vt.mobilePhoneNumber",
							"name": "PayerCurrentHouseNumber",
							"maxlength": "16",
							"required": true,
							"restrictToMaxLength":true,
							"ngmodel": "LifeEngageProduct.Payer.ContactDetails.currentAddress.houseNo",
                            "disabled":"LifeEngageProduct.Payer.ContactDetails.isPermanentAddressSameAsCurrentAddress==='Yes'",
							"blur": "updateErrorCount('PolicyHolderSubTab');updateAutomatically();",
							"houseNo": true,
							"iftrim": true,
							"validationModel": "PolicyHolderSubTab.eAppPayerAddressNumber",
							"requiredMessage": "eapp_vt.eAppPayerAddressNumber",
							"type": "text",
							"rowStart": "yes",
							"twoColumnLayout": true
						},
						{
							"control": "input",
							"description": "Name of Building",
							"translate-id": "eapp_vt.buildingName",
                            "placeholder": "eapp_vt.buildingName",
							"name": "PayerCurrentBuildingName",
							"ngmodel": "LifeEngageProduct.Payer.ContactDetails.currentAddress.buildingName",
                            "disabled":"LifeEngageProduct.Payer.ContactDetails.isPermanentAddressSameAsCurrentAddress==='Yes'",
							"type": "text",
							"maxlength": "30",
							"blur": "updateErrorCount('PolicyHolderSubTab');onFieldChange();updateAutomatically();",
							"validationModel": "PolicyHolderSubTab.PayerCurrentBuildingName",
							"twoColumnLayout": true
						}, {
							"description": "MooNo",
							"translate-id": "eapp_vt.MooNo",
                            "placeholder": "eapp_vt.MooNo",
							"name": "PayerCurrentmooNo",
							"ngmodel": "LifeEngageProduct.Payer.ContactDetails.currentAddress.mooNo",
							"type": "labelone",
							"maxlength": "30",
							"blur": "updateErrorCount('PolicyHolderSubTab');updateAutomatically();",
							"validationModel": "PolicyHolderSubTab.PayerCurrentmooNo",
                            "rowStart": "yes",
                            "splitInputSpan": true,
							"twoColumnLayout": true,
							"disabled2":"LifeEngageProduct.Payer.ContactDetails.isPermanentAddressSameAsCurrentAddress==='Yes'",
							"translate-id2": "eapp_vt.eAppLane",
							"class2": "text-center",
							"description2": "eapp_vt.eAppLane",
							"placeholder2": "eapp_vt.eAppLane",
							"name2": "lifeAssuredAge",
							"ngmodel2": "LifeEngageProduct.Payer.ContactDetails.currentAddress.lane",
							"maxlength": "3",
							"required": true,
							"twoColumnLayout": true,
							"rowStart": "yes"
						},{
							"control": "input",
							"description": "Road",
							"translate-id": "eapp_vt.Road",
                            "placeholder": "eapp_vt.Road",
							"name": "PayerCurrentStreetName",
							"ngmodel": "LifeEngageProduct.Payer.ContactDetails.currentAddress.streetName",
                            "disabled":"LifeEngageProduct.Payer.ContactDetails.isPermanentAddressSameAsCurrentAddress==='Yes'",
							"type": "text",
							"maxlength": "30",
							"blur": "updateErrorCount('PolicyHolderSubTab');updateAutomatically();",
							"validationModel": "PolicyHolderSubTab.PayerCurrentStreetName",
							"twoColumnLayout": true
						}, {
				  "control": "typeAheadDbLookupDdl",
				  "stageID": "1",
				  "rowStart": "yes",
				  "twoColumnLayout": true,
				  "popUpForm": "yes",
				  "mobileSplit": "two-col-span6",
				  "controlElement": [
					{
					  "description": "",
					  "name": "wardOrHamletCurrent",
					  "translate-id": "eapp_vt.subdistrict",
					  "ngShow": "true",
					  "populationListName": "wardOrHamlet",
                      "placeholder": "eapp_vt.subdistrict",
                      "required":true,
					  "blur": "updateErrorCount('PolicyHolderSubTab');updateOnBlur(LifeEngageProduct.Payer.ContactDetails.currentAddress.ward,'LifeEngageProduct.Payer.ContactDetails.currentAddress.ward',wardOrHamlet,'PolicyHolderSubTab');updateAutomatically();dynamicValidations();",
					  "typeaheadFormatter": "formatLabelCurrentAddress($model,wardOrHamlet,'wardOrHamlet')",
					  "typeahead": "wardOrHamlet.code as wardOrHamlet.value for wardOrHamlet in wardOrHamlet | filter:$viewValue",
					  "typeaheadSelect": "onSelectTypeHead('wardOrHamlet');",
					  "className": "pop_up_control_label",                      
					  "ngmodel": "LifeEngageProduct.Payer.ContactDetails.currentAddress.ward",
                      "disabled":"LifeEngageProduct.Payer.ContactDetails.isPermanentAddressSameAsCurrentAddress==='Yes'",
                      "ngchange": "clearFieldCurrent('address')",
					  "hasParent": "No",
                      "hasChild": "Yes",
					  "childNgModel": "LifeEngageProduct.Payer.ContactDetails.currentAddress.cityValue",
					  "childType": "WARD_DISTRICT",
					  "childName": "district",
					  "cacheable" : "true",
					  "currentType": "WARD"	,
                      "validationModel": "PolicyHolderSubTab.wardOrHamletCurrent",
					  "requiredMessage": "eapp_vt.mandatorySubdistrictCurrentAddress"				  
					}
				  ]
				},
				{
				  "control": "typeAheadDbLookupDdl",				  
				  "twoColumnLayout": true,
				  "popUpForm": "yes",
				  "mobileSplit": "two-col-span6",
				  "controlElement": [
					{
					  "description": "",
					  "name": "districtCurrent",
					  "translate-id": "eapp_vt.district",
					  "control": "popupInput",
                      "ngShow": "true",
                      "required":true,
					  "populationListName": "district",
                      "placeholder": "eapp_vt.district",
					  "blur": "updateErrorCount('PolicyHolderSubTab');updateOnBlur(LifeEngageProduct.Payer.ContactDetails.currentAddress.city,'LifeEngageProduct.Payer.ContactDetails.currentAddress.city',district,'PolicyHolderSubTab');dynamicValidations()",
					  "typeaheadFormatter": "formatLabelCurrentAddress($model,district,'district')",
					  "typeahead": "district.code as district.value for district in district | filter:$viewValue",
					  "typeaheadSelect": "onSelectTypeHead('district');",
					  "className": "pop_up_control_label",
					  "ngmodel": "LifeEngageProduct.Payer.ContactDetails.currentAddress.cityValue",
					  "currentType": "DISTRICT",
					  "cacheable" : "true",
                      "disabled":"true",
					  "hasChild": "No",
					  "hasParent": "Yes",
                      "parentNgModel": "LifeEngageProduct.Payer.ContactDetails.currentAddress.ward",
                      "validationModel": "PolicyHolderSubTab.districtCurrent",
                      "requiredMessage": "eapp_vt.mandatoryDistrictCurrentAddress"
					}
				  ]
				},
                {
				  "control": "popupInput",				  
				  "rowStart": "yes",
				  "twoColumnLayout": true,
				  "popUpForm": "yes",
				  "mobileSplit": "two-col-span6",
				  "controlElement": [
					{
					  "description": "",
					  "name": "stateCurrent",
					  "translate-id": "lms.province",
					  "control": "popupInput",
                      "ngShow": "true",
                      "required":true,
					  "populationListName": "state",
                      "placeholder": "lms.province",
					  "blur": "updateErrorCount('PolicyHolderSubTab');updateOnBlur(LifeEngageProduct.Payer.ContactDetails.currentAddress.state,'LifeEngageProduct.Payer.ContactDetails.currentAddress.state',state,'');",
					  "typeaheadFormatter": "formatLabelCurrentAddress($model,state,'state')",
					  "typeahead": "state.code as state.value for state in state | filter:$viewValue",
					  "typeaheadSelect": "onSelectTypeHead('State')",
					  "requiredMessage": "eapp_vt.mandatoryProvinceCurrentAddress",
                      "validationModel": "PolicyHolderSubTab.stateCurrent",
					  "className": "pop_up_control_label",
					  "ngmodel": "LifeEngageProduct.Payer.ContactDetails.currentAddress.state",
					  "ngchange": "markAsEdited()",
					  "hasParent": "Yes",
                      "disabled":"true",
					  "parentNgModel": "LifeEngageProduct.Payer.ContactDetails.currentAddress.ward",
					  "currentType": "STATE",
					  "cacheable" : "true",
					  "hasChild": "No"					  
					}
				  ]
				},
				{
				  "control": "popupInput",				  
				  "twoColumnLayout": true,
				  "popUpForm": "yes",
				  "mobileSplit": "two-col-span6",
				  "controlElement": [
					{
					  "description": "",
					  "name": "zipcodeCurrent",
					  "translate-id": "lms.zipcode",
					  "ngShow": "true",
					  "required":true,
					  "populationListName": "zipcode",
                      "placeholder": "lms.zipcode",
					  "className": "pop_up_control_label",
					  "typeaheadFormatter": "formatLabelCurrentAddress($model,zipcode,'zipcode')",
					  "blur": "updateOnBlur(LifeEngageProduct.Payer.ContactDetails.currentAddress.zipcode,'LifeEngageProduct.Payer.ContactDetails.currentAddress.zipcode',zipcode,'PolicyHolderSubTab');",
					  "typeahead": "zipcode.code as zipcode.value for zipcode in zipcode | filter:$viewValue",
					  "typeaheadSelect": "onSelectTypeHead('zipcode')",
					  "ngmodel": "LifeEngageProduct.Payer.ContactDetails.currentAddress.zipcode",
					  "hasParent": "Yes",
                      "disabled":"true",
					  "parentNgModel": "LifeEngageProduct.Payer.ContactDetails.currentAddress.ward",
					  "currentType": "ZIPCODE",
					  "hasChild": "No",
                      "validationModel": "PolicyHolderSubTab.zipcodeCurrent",
					  "requiredMessage": "eapp_vt.mandatoryPostalCodeCurrentAddress"	
					}
				  ]
				},{
				            "control": "titleHeader",
				            "translate-id": "eapp_vt.officeAddress",
                            "ngShow":true,
                            "twoColumnLayout": "true",
                            "rowStart":"yes",
                            "name": "officeAddress",
						    "spliceId": "officeAddress"
				        },{
								"control": "lookupDdl",
								"description": "Copy from",
								"translate-id": "eapp_vt.copyFrom",
                                "translate-id": "eapp_vt.copyFrom",
								"name": "copyFrom",
								"ngmodel": "LifeEngageProduct.Payer.ContactDetails.isCopyFrom",
								"type": "text",
								"required": false,
								"populationListName": "copyFromLookup",
								"hasParent": "No",
								"currentType": "CONVENIENTCONTACT",
								"cacheable" : "true",
								"hasChild": "No",
								"blur": "copyFrom(LifeEngageProduct.Payer.ContactDetails.isCopyFrom);delayUpdateErrorCount('20','PolicyHolderSubTab');dynamicValidations();",
                                "ngchange":"copyFrom(LifeEngageProduct.Payer.ContactDetails.isCopyFrom);delayUpdateErrorCount('50','PolicyHolderSubTab');dynamicValidations();",
								"twoColumnLayout": true,
								"rowStart": "yes"
							}, {
							"control": "input",
							"translate-id": "eapp_vt.mobilePhoneNumber",
							"description": "Number",
							"placeholder": "eapp_vt.mobilePhoneNumber",
							"name": "PayerOfficeHouseNumber",
							"maxlength": "16",
							"restrictToMaxLength":true,
							"required": true,
							"ngmodel": "LifeEngageProduct.Payer.ContactDetails.officeAddress.houseNo",
                            "disabled":"LifeEngageProduct.Payer.ContactDetails.isCopyFrom==='HouseholdRegistrationAddress' || LifeEngageProduct.Payer.ContactDetails.isCopyFrom==='CurrentAddress'",
							"blur": "updateErrorCount('PolicyHolderSubTab');updateAutomatically();",
							"houseNo": true,
							"iftrim": true,
							"validationModel": "PolicyHolderSubTab.PayerOfficeHouseNumber",
							"requiredMessage": "eapp_vt.eAppPayerOfficeAddressNumber",
							"type": "text",
							"rowStart": "yes",
							"twoColumnLayout": true
						},
						{
							"control": "input",
							"description": "Name of Building",
							"translate-id": "eapp_vt.buildingName",
                            "placeholder": "eapp_vt.buildingName",
							"name": "PayerOfficebuildingName",
							"ngmodel": "LifeEngageProduct.Payer.ContactDetails.officeAddress.buildingName",
                            "disabled":"LifeEngageProduct.Payer.ContactDetails.isCopyFrom==='HouseholdRegistrationAddress' || LifeEngageProduct.Payer.ContactDetails.isCopyFrom==='CurrentAddress'",
							"type": "text",
							"maxlength": "30",
							"blur": "updateErrorCount('PolicyHolderSubTab');updateAutomatically();",
							"validationModel": "PolicyHolderSubTab.PayerOfficebuildingName",
							"twoColumnLayout": true
						}, {
							"description": "MooNo",
							"translate-id": "eapp_vt.MooNo",
                            "placeholder": "eapp_vt.MooNo",
							"name": "PayerofficeAddressmooNo",
							"ngmodel": "LifeEngageProduct.Payer.ContactDetails.officeAddress.mooNo",
							"type": "labelone",
							"maxlength": "30",
							"blur": "updateErrorCount('PolicyHolderSubTab');updateAutomatically();",
							"validationModel": "PolicyHolderSubTab.PayerofficeAddressmooNo",
                            "rowStart": "yes",
                            "splitInputSpan": true,
							"twoColumnLayout": true,
							"disabled2":"LifeEngageProduct.Payer.ContactDetails.isCopyFrom==='HouseholdRegistrationAddress' || LifeEngageProduct.Payer.ContactDetails.isCopyFrom==='CurrentAddress'",
							"translate-id2": "eapp_vt.eAppLane",
							"class2": "text-center",
							"description2": "eapp_vt.eAppLane",
							"placeholder2": "eapp_vt.eAppLane",
							"name2": "lifeAssuredAge",
							"ngmodel2": "LifeEngageProduct.Payer.ContactDetails.officeAddress.lane",
							"maxlength": "3",
							"required": true,
							"twoColumnLayout": true,
							"rowStart": "yes"
						},{
							"control": "input",
							"description": "Road",
							"translate-id": "eapp_vt.Road",
                            "placeholder": "eapp_vt.Road",
							"name": "PayerofficeAddressStreet",
							"ngmodel": "LifeEngageProduct.Payer.ContactDetails.officeAddress.streetName",
                            "disabled":"LifeEngageProduct.Payer.ContactDetails.isCopyFrom==='HouseholdRegistrationAddress' || LifeEngageProduct.Payer.ContactDetails.isCopyFrom==='CurrentAddress'",
							"type": "text",
							"maxlength": "30",
							"blur": "updateErrorCount('PolicyHolderSubTab');updateAutomatically();",
							"validationModel": "PolicyHolderSubTab.PayerofficeAddressStreet",
							"twoColumnLayout": true
						}, {
				  "control": "typeAheadDbLookupDdl",
				  "stageID": "1",
				  "rowStart": "yes",
				  "twoColumnLayout": true,
				  "popUpForm": "yes",
				  "mobileSplit": "two-col-span6",
				  "controlElement": [
					{
					  "description": "",
					  "name": "wardOrHamletOffice",
					  "translate-id": "eapp_vt.subdistrict",
					  "ngShow": "true",
					  "required":true, 
					  "populationListName": "wardOrHamlet",
                      "placeholder": "eapp_vt.subdistrict",
					  "blur": "updateErrorCount('PolicyHolderSubTab');updateOnBlur(LifeEngageProduct.Payer.ContactDetails.officeAddress.ward,'LifeEngageProduct.Payer.ContactDetails.officeAddress.ward',wardOrHamlet,'PolicyHolderSubTab');updateAutomatically();dynamicValidations()",
					  "typeaheadFormatter": "formatLabelOfficeAddres($model,wardOrHamlet,'wardOrHamlet')",
					  "typeahead": "wardOrHamlet.code as wardOrHamlet.value for wardOrHamlet in wardOrHamlet | filter:$viewValue",
					  "typeaheadSelect": "onSelectTypeHead('wardOrHamlet');",
					  "className": "pop_up_control_label",                      
					  "ngmodel": "LifeEngageProduct.Payer.ContactDetails.officeAddress.ward",
                      "disabled":"LifeEngageProduct.Payer.ContactDetails.isCopyFrom==='HouseholdRegistrationAddress' || LifeEngageProduct.Payer.ContactDetails.isCopyFrom==='CurrentAddress'",
                      "ngchange": "clearFieldOffice('address')",
					  "hasParent": "No",
                      "hasChild": "Yes",
					  "childNgModel": "LifeEngageProduct.Payer.ContactDetails.officeAddress.cityValue",
					  "childType": "WARD_DISTRICT",
					  "childName": "district",
					  "currentType": "WARD"	,
					  "cacheable" : "true",
                      "validationModel": "PolicyHolderSubTab.wardOrHamletOffice",
					  "requiredMessage": "eapp_vt.mandatorySubdistrictOfficeAddress"				  
					}
				  ]
				},
				{
				  "control": "typeAheadDbLookupDdl",				  
				  "twoColumnLayout": true,
				  "popUpForm": "yes",
				  "mobileSplit": "two-col-span6",
				  "controlElement": [
					{
					  "description": "",
					  "name": "districtOffice",
					  "translate-id": "eapp_vt.district",
					  "control": "popupInput",
                      "ngShow": "true",
                      "required":true,
					  "populationListName": "district",
                      "placeholder": "eapp_vt.district",
					  "blur": "updateErrorCount('PolicyHolderSubTab');updateOnBlur(LifeEngageProduct.Payer.ContactDetails.officeAddress.city,'LifeEngageProduct.Payer.ContactDetails.officeAddress.city',district,'PolicyHolderSubTab');dynamicValidations()",
					  "typeaheadFormatter": "formatLabelOfficeAddres($model,district,'district')",
					  "typeahead": "district.code as district.value for district in district | filter:$viewValue",
					  "typeaheadSelect": "onSelectTypeHead('district');",
					  "className": "pop_up_control_label",
					  "ngmodel": "LifeEngageProduct.Payer.ContactDetails.officeAddress.cityValue",
					  "currentType": "DISTRICT",
					  "cacheable" : "true",
                      "disabled":"true",
					  "hasChild": "No",
					  "hasParent": "Yes",
                      "parentNgModel": "LifeEngageProduct.Payer.ContactDetails.officeAddress.ward",
                      "validationModel": "PolicyHolderSubTab.districtOffice",
                      "requiredMessage": "eapp_vt.mandatoryDistrictOfficeAddress"
					}
				  ]
				},
                {
				  "control": "popupInput",				  
				  "rowStart": "yes",
				  "twoColumnLayout": true,
				  "popUpForm": "yes",
				  "mobileSplit": "two-col-span6",
				  "controlElement": [
					{
					  "description": "",
					  "name": "stateOffice",
					  "translate-id": "lms.province",
					  "control": "popupInput",
                      "ngShow": "true",
                      "required":true,
					  "populationListName": "state",
                      "placeholder": "lms.province",
					  "blur": "updateErrorCount('PolicyHolderSubTab');updateOnBlur(LifeEngageProduct.Payer.ContactDetails.officeAddress.state,'LifeEngageProduct.Payer.ContactDetails.officeAddress.state',state,'');",
					  "typeaheadFormatter": "formatLabelOfficeAddres($model,state,'state')",
					  "typeahead": "state.code as state.value for state in state | filter:$viewValue",
					  "typeaheadSelect": "onSelectTypeHead('State')",
					  "requiredMessage": "eapp_vt.mandatoryProvinceOfficeAddress",
                      "validationModel": "PolicyHolderSubTab.stateOffice",
					  "className": "pop_up_control_label",
					  "ngmodel": "LifeEngageProduct.Payer.ContactDetails.officeAddress.state",
					  "ngchange": "markAsEdited()",
					  "hasParent": "Yes",
                      "disabled":"true",
					  "parentNgModel": "LifeEngageProduct.Payer.ContactDetails.officeAddress.ward",
					  "currentType": "STATE",
					  "cacheable" : "true",
					  "hasChild": "No"					  
					}
				  ]
				},
				{
				  "control": "popupInput",				  
				  "twoColumnLayout": true,
				  "popUpForm": "yes",
				  "mobileSplit": "two-col-span6",
				  "controlElement": [
					{
					  "description": "",
					  "name": "zipcodeOffice",
					  "translate-id": "lms.zipcode",
					  "ngShow": "true",
					  "required":true,
					  "populationListName": "zipcode",
                      "placeholder": "lms.zipcode",
					  "className": "pop_up_control_label",
					  "typeaheadFormatter": "formatLabelOfficeAddres($model,zipcode,'zipcode')",
					  "blur": "updateOnBlur(LifeEngageProduct.Payer.ContactDetails.officeAddress.zipcode,'LifeEngageProduct.Payer.ContactDetails.officeAddress.zipcode',zipcode,'PolicyHolderSubTab');",
					  "typeahead": "zipcode.code as zipcode.value for zipcode in zipcode | filter:$viewValue",
					  "typeaheadSelect": "onSelectTypeHead('zipcode')",
					  "ngmodel": "LifeEngageProduct.Payer.ContactDetails.officeAddress.zipcode",
					  "hasParent": "Yes",
                      "disabled":"true",
					  "parentNgModel": "LifeEngageProduct.Payer.ContactDetails.officeAddress.ward",
					  "currentType": "ZIPCODE",
					  "hasChild": "No",
                      "validationModel": "PolicyHolderSubTab.zipcodeOffice",
					  "requiredMessage": "eapp_vt.mandatoryPostalCodeOfficeAddress"	
					}
				  ]
				},{
								"control": "lookupDdl",
                                "colClass":"convenientContactCustom",
								"translate-id": "eapp_vt.convenientContactAddress",
                                "placeholder": "eapp_vt.convenientContactAddress",
								"description": "Convenient contact address",
								"name": "convenientContactAddress",
								"ngmodel": "LifeEngageProduct.Payer.ContactDetails.convenientContact",
								"type": "text",
								"required": true,
								"populationListName": "convenientContact",
								"hasParent": "No",
								"class":"convenient-contact",
								"cacheable" : "true",
								"currentType": "CONVENIENTCONTACT",
								"hasChild": "No",
								"blur": "updateErrorCount('PolicyHolderSubTab')",
                                "ngchange":"delayUpdateErrorCount('50','PolicyHolderSubTab');dynamicValidations();",
								"validationModel": "PolicyHolderSubTab.convenientContactAddress",
								"requiredMessage": "eapp_vt.convenientContactAddressMandatory",
								"twoColumnLayout": true,
								"rowStart": "yes"
							},{
							"control": "input",
							"translate-id": "eapp_vt.homePhoneNumber",
							"placeholder": "eapp_vt.homePhoneNumber",
							"description": "Mobile Number ",
							"name": "PayerContacthomeNumber",
							"maxlength": "9",
							"restrictToMaxLength":true,
							"required": "((LifeEngageProduct.Payer.ContactDetails.homeNumber===undefined || LifeEngageProduct.Payer.ContactDetails.homeNumber==='') && (LifeEngageProduct.Payer.ContactDetails.mobileNumber2===undefined || LifeEngageProduct.Payer.ContactDetails.mobileNumber2==='') && (LifeEngageProduct.Payer.ContactDetails.mobileNumber1===undefined || LifeEngageProduct.Payer.ContactDetails.mobileNumber1==='' ) && (LifeEngageProduct.Payer.ContactDetails.officeNumber.number===undefined || LifeEngageProduct.Payer.ContactDetails.officeNumber.number===''))",
							"ngmodel": "LifeEngageProduct.Payer.ContactDetails.homeNumber",
							"blur": "prependZero();updateErrorCount('PolicyHolderSubTab');dynamicValidations();",
							"numbersOnly": true,
							"iftrim": true,
							"regexExpression": "numberPatternMob",
							"validationModel": "PolicyHolderSubTab.PayerContacthomeNumber",
							"requiredMessage": "eapp_vt.mandatoryPayerContactNumbers",
							"type": "text",
							"rowStart": "yes",
							"twoColumnLayout": true
						},{
							"control": "input",
							"translate-id": "eapp_vt.homePhoneExt",
							"description": "Mobile Number ",
							"placeholder": "eapp_vt.homePhoneExt",
							"name": "PayercontactHomeExtension",
							"maxlength": "6",
							"required": false,
							"restrictToMaxLength":true,
                            "numbersOnly": true,
							"ngmodel": "LifeEngageProduct.Payer.ContactDetails.homeExtension",
							"blur": "updateErrorCount('PolicyHolderSubTab');dynamicValidations();",
							"iftrim": true,
							"regexExpression": "numberPatternMob",
							"validationModel": "PolicyHolderSubTab.PayercontactHomeExtension",
							"requiredMessage": "eapp_vt.mainInsuredMobileNoRequiredMessage",
							"patternMessage": "eapp_vt.mainInsuredMobileNoRequiredMessage",
							"type": "text",							
							"twoColumnLayout": true
						},{
							"control": "input",
							"translate-id": "eapp_vt.mobilePhoneNumber1",
							"description": "ConvenientmobileNumber1",
							"placeholder": "eapp_vt.mobilePhoneNumber1",
							"name": "ConvenientmobileNumber1",
							"maxlength": "10",
							"restrictToMaxLength": true,
							"required": false,
							"ngmodel": "LifeEngageProduct.Payer.ContactDetails.mobileNumber1",
							"blur": "prependZero();updateErrorCount('PolicyHolderSubTab');dynamicValidations();",
							"numbersOnly": true,
							"iftrim": true,
							"type": "text",
							"rowStart": "yes",
							"twoColumnLayout": true
						},{
							"control": "input",
							"translate-id": "eapp_vt.mobilePhoneNumber2",
							"description": "Mobile Number ",
							"placeholder": "eapp_vt.mobilePhoneNumber2",
							"name": "ConvenientmobileNumber2",
							"maxlength": "10",
							"required": false,
							"restrictToMaxLength": true,
							"ngmodel": "LifeEngageProduct.Payer.ContactDetails.mobileNumber2",
							"blur": "prependZero();updateErrorCount('PolicyHolderSubTab');dynamicValidations();",
							"numbersOnly": true,
							"iftrim": true,
							"regexExpression": "numberPatternMob",
							"validationModel": "PolicyHolderSubTab.ConvenientmobileNumber2",
							"requiredMessage": "eapp_vt.mainInsuredMobileNoRequiredMessage",
							"patternMessage": "eapp_vt.mainInsuredMobileNoRequiredMessage",
							"type": "text",
							"twoColumnLayout": true
						},{
							"control": "input",
							"translate-id": "eapp_vt.officePhoneNumber",
							"description": "Mobile Number ",
							"placeholder": "eapp_vt.officePhoneNumber",
							"name": "ConvenientofficeNumber",
							"maxlength": "9",
							"required": false,
							"restrictToMaxLength": true,
							"ngmodel": "LifeEngageProduct.Payer.ContactDetails.officeNumber.number",
							"blur": "prependZero();updateErrorCount('PolicyHolderSubTab');dynamicValidations();",
							"numbersOnly": true,
							"iftrim": true,
							"regexExpression": "numberPatternMob",
							"validationModel": "PolicyHolderSubTab.ConvenientofficeNumber",
							"requiredMessage": "eapp_vt.mainInsuredMobileNoRequiredMessage",
							"patternMessage": "eapp_vt.mainInsuredMobileNoRequiredMessage",
							"type": "text",
							"rowStart": "yes",
							"twoColumnLayout": true
						},{
							"control": "input",
							"translate-id": "eapp_vt.officePhoneExt",
							"description": "Mobile Number ",
							"placeholder": "eapp_vt.officePhoneExt",
							"name": "MainInsuredofficeNumberExtension",
							"maxlength": "16",
							"required": false,
							"restrictToMaxLength":true,
							"ngmodel": "LifeEngageProduct.Payer.ContactDetails.officeNumber.extension",
							"blur": "updateErrorCount('PolicyHolderSubTab');dynamicValidations()",
							"numbersOnly": true,
							"iftrim": true,
							"regexExpression": "numberPatternMob",
							"validationModel": "PolicyHolderSubTab.MainInsuredofficeNumberExtension",
							"requiredMessage": "eapp_vt.mainInsuredMobileNoRequiredMessage",
							"patternMessage": "eapp_vt.mainInsuredMobileNoRequiredMessage",
							"type": "text",
							"twoColumnLayout": true
						},{
							"control": "input",
							"translate-id": "eapp_vt.email",
                            "placeholder": "lms.emailIdPl",
							"description": "E-mail ID",
							"name": "MainInsuredEmailId",
							"ngmodel": "LifeEngageProduct.Payer.ContactDetails.emailId",
							"type": "text",
							"required": false,
							"maxlength": "50",
							"restrictToMaxLength":true,
							"validationModel": "PolicyHolderSubTab.MainInsuredEmailId",
							"blur": "updateErrorCount('PolicyHolderSubTab')",
							"regexExpression": "emailPattern",
							"patternMessage": "illustrator.emailPatternMessage",
							"requiredMessage": "eapp_vt.eAppPayerEmail",
							"twoColumnLayout": true,
							"rowStart": "yes"
						}
					]
				}]
		}, {
			"sectionId": "100",
			"sectionHeader": "Occupation Details",
			"translate-id": "eapp_vt.occupationDetails",
			"sectionType": "collapsible",
			"contentWithTitle": true,
			"id": "eapp-OccupationDetails",
			"accordionHeading": "alternate-accordion-clr",
			"iconClass": "fa-envelope",
			"ngIf": true,
			"sectionVisibility": "true",
			"subsections": [{
				"controls": [
					{
			                      	"control": "typeAheadDbLookupDdlCustom",
                                    "popUpForm": "yes",                              
                                    "rowStart":"yes",
                                    "controlElement": [{
										"description": "",
                                        "textarea":true,
										"translate-id": "eapp_vt.occupationNatureOfWork",
                                        "placeholder": "eapp_vt.occupationNatureOfWork",
                                        "customNatureOfWork":"customNatureOfWork",
                                        "name": "occupationNatureOfWork",
									    "spliceId": "occupationNatureOfWork",
                                        "disabled": "(LifeEngageProduct.Insured.BasicDetails.illustrationInsSameAsPayer===LifeEngageProduct.Insured.BasicDetails.isInsuredSameAsPayer)",
										"ngShow": true,
										"required": true,
								        "populationListName": "natureOfWork",
                                        "typeEditable":"false",
										"typeaheadFormatter": "formatLabel($model,natureOfWork,'natureOfWork')",
					                    "typeahead": "natureOfWork.code as natureOfWork.value for natureOfWork in natureOfWork | filter:$viewValue",
					                    "typeaheadSelect": "onSelectTypeHead('natureOfWork');",
										"className": "pop_up_control_label",
										"ngmodel": "LifeEngageProduct.Payer.OccupationDetails[0].natureofWork",
                                        "validationModel": "PolicyHolderSubTab.occupationNatureOfWork",
                                        "requiredMessage": "eapp_vt.mandatoryNatureOfWork",
										"setDefault": false,										
										"hasParent": "No",
                                        "hasChild": "No",
										"blur": "onFieldChange();updateOnBlur(LifeEngageProduct.Payer.OccupationDetails[0].natureofWork,'LifeEngageProduct.Payer.OccupationDetails[0].natureofWork',natureOfWork,'PolicyHolderSubTab');validateDuplicateOccupation();",
										"ngchange": "markAsEdited();",
										"cacheable" : "true",
					                    "currentType": "NATUREOFWORK"
									}]                               
			                    },{
							"control": "input",
                            "rowStart":"yes",
							"translate-id": "eapp_vt.annualIncome",
                            "placeholder": "eapp_vt.annualIncome",
							"description": "Annual Income",
							"name": "MainInsuredannualIncome",
							"ngmodel": "LifeEngageProduct.Payer.OccupationDetails[0].annualIncome",
                            "isDisabledCurrency": true,
                            "controlField": "Numeric",
							"type": "text",
							"required": true,
							"numbersOnly": false,
							"maxlength": "11",
							"iftrim": true,
							"ngchange": "",
							"blur": "updateErrorCount('PolicyHolderSubTab')",
							"regexExpression": "numberPatternMob",
							"validationModel": "PolicyHolderSubTab.MainInsuredannualIncome",
							"requiredMessage": "eapp_vt.eappAnnulIncomeValidationMessage1Payer",
							"twoColumnLayout": true
						}, {
							    	"control": "typeAheadDbLookupDdlCustom",
                                    "popUpForm": "yes",                              
                                    "rowStart":"yes",
                                    "controlElement": [{
										"description": "",
                                        "textarea":true,
										"translate-id": "eapp_vt.occupationNatureOfWork",
                                        "placeholder": "eapp_vt.occupationNatureOfWork",
                                        "customNatureOfWork":"customNatureOfWork",
                                        "name": "natureofWork1",
									    "spliceId": "natureofWork1",
                                        "disabled": " (LifeEngageProduct.Insured.BasicDetails.illustrationInsSameAsPayer===LifeEngageProduct.Insured.BasicDetails.isInsuredSameAsPayer)",
										"ngShow": true,										
								        "populationListName": "natureOfWork",
                                        "typeEditable":"true",
										"typeaheadFormatter": "formatLabel($model,natureOfWork,'natureOfWork')",
					                    "typeahead": "natureOfWork.code as natureOfWork.value for natureOfWork in natureOfWork | filter:$viewValue",
					                    "typeaheadSelect": "onSelectTypeHead('natureOfWork');",
										"className": "pop_up_control_label",
										"ngmodel": "LifeEngageProduct.Payer.OccupationDetails[1].natureofWork",
                                        "validationModel": "PolicyHolderSubTab.natureofWork1",
                                        "requiredMessage": "illustrator.titleRequiredValidationMessage",
										"setDefault": false,										
										"hasParent": "No",
                                        "hasChild": "No",
										"blur": "onFieldChange();updateOnBlur(LifeEngageProduct.Payer.OccupationDetails[1].natureofWork,'LifeEngageProduct.Payer.OccupationDetails[1].natureofWork',natureOfWork,'PolicyHolderSubTab');validateDuplicateOccupation();",
										"ngchange": "markAsEdited();",
										"cacheable" : "true",
					                    "currentType": "NATUREOFWORK"
					                 }]                               
						},{
							"control": "input",
                            "rowStart":"yes",
							"translate-id": "eapp_vt.annualIncome",
                            "placeholder": "eapp_vt.annualIncome",
							"description": "Annual Income",
							"name": "annualIncome1",
							"ngmodel": "LifeEngageProduct.Payer.OccupationDetails[1].annualIncome",
                            "disabled": "(LifeEngageProduct.Insured.BasicDetails.illustrationInsSameAsPayer===LifeEngageProduct.Insured.BasicDetails.isInsuredSameAsPayer) && (LifeEngageProduct.Payer.OccupationDetails[1].natureofWork==='' || LifeEngageProduct.Payer.OccupationDetails[1].natureofWork===undefined)",
                            "isDisabledCurrency": true,
                            "controlField": "Numeric",
							"type": "text",
                            "required": false,
							"numbersOnly": false,
							"maxlength": "11",
							"iftrim": true,
							"ngchange": "",
							"blur": "updateErrorCount('PolicyHolderSubTab');dynamicValidations()",
							"twoColumnLayout": true
						}]
			}]
		}],
		"templateID": "SingleColumnFormWithCollapsibleSections",
		"enableValidation": "YES"
	}]
}