{
	"Version": "1",
	"Views": [{
		"id": "step3Payment",
		"enableCache": "true",
		"ngController": "GLI_PaymentStatusController",
		"sections": [{
			"sectionId": "PaymentDetails",
			"sectionVisibility": "true",
			"subsections": [{
			"subSectionClass": "displaysplitOnetab",
				"controls": [{
					"control": "label",
					"translate-id": "eapp.successSummary",
					"description": "Successful Payment Summary",
					"fontBold": "yes"
				}]
				},
				{
				
					"controls": [{
					"control": "table",
					"name": "riderDetails",
					"class": "cust_tbl",
					"translate-id": "riderDetailsTable",
					"headerClass": "tbl_head_bg row_even",
					"oddRowClass": "row_odd",
					"evenRowClass": "row_even",
					"headers": [{
						"translate-id": "eapp.paySplit",
						"columnClass": "table-width maxWidth180"
					},{
						"translate-id": "eapp.amountPaid",
						"columnClass": "table-width maxWidth180"
					}, {
						"translate-id": "eapp.paymentMode",
						"columnClass": "table-width maxWidth250"
					}, {
						"translate-id": "eapp.etrAckNumber",
						"columnClass": "table-width"
					}, {
						"translate-id": "eapp.paymentDateTim",
						"columnClass": "table-width"
					}, {
						"translate-id": "eapp.paymentBankNme",
						"columnClass": "table-width maxWidth150"
					}],
					"ngrepeat": "RiderDetails in modifiedPaymentList",
					"rowcontrols": [{
						"control": "span",
						"description": "Sum Assured",
						"translate-id": "coverageAge",
						"name": "PaySplit",
						"ngmodel": "convertSplitHeader(RiderDetails.paySplit)",
						"columnClass": "maxWidth150"
					},{
						"control": "span",
						"description": "Rider Name",
						"translate-id": "riderName",
						"name": "riderName",
						"isTranslateReqd": true,
						"ngmodel": "RiderDetails.premiumAmt|formattedNumber:4",
						"columnClass": "maxWidth250"
					}, {
						"control": "span",
						"description": "Sum Assured",
						"translate-id": "coverageAge",
						"name": "coverageAge",
						"ngmodel": "convertPaymentMethod(RiderDetails.payMethod)",
						"columnClass": "maxWidth150"
					}, {
						"control": "span",
						"description": "Policy Term",
						"translate-id": "sumInsured",
						"name": "sumInsured",
						"ngmodel": "RiderDetails.etrNumber"
					}, {
						"control": "span",
						"description": "Premium Term",
						"translate-id": "sumInsured",
						"name": "sumInsured",
						"ngmodel": "RiderDetails.paymentDateTime"
					}, {
						"control": "span",
						"description": "Initial Premium",
						"translate-id": "sumInsured",
						"name": "sumInsured",
						"ngmodel": "convertPaymentBank(RiderDetails.bankName)",
						"columnClass": "maxWidth150"
					}]
				}]
				}]
		}],
		"templateID": "SingleColumnFormWithCollapsibleSections",
		"enableValidation": "YES"
	}]
}
